
 5/7/2018 7:34:57 PM 5/7/2018 7:35:01 PM
 5/7/2018 7:35:25 PM
 5/7/2018 7:35:29 PM
 5/7/2018 7:35:56 PM
 5/7/2018 7:36:15 PM
 5/7/2018 7:36:20 PM
 5/7/2018 7:36:28 PM
 5/7/2018 7:36:42 PM
 5/7/2018 7:36:51 PM
 5/7/2018 7:36:59 PM
