
could not connect to redis Instance at 137.59.201.64:6379 5/7/2018 6:43:32 PMcould not connect to redis Instance at 137.59.201.64:6379 5/7/2018 6:45:09 PM
could not connect to redis Instance at 137.59.201.64:6379 5/7/2018 6:51:10 PM
could not connect to redis Instance at 137.59.201.64:6379 5/7/2018 6:53:46 PM
could not connect to redis Instance at 137.59.201.64:6379 5/7/2018 7:14:15 PM
