
Receipt Voucher Process Initiated at 6/2/2018 12:47:28 PM 
Receipt Voucher Tabs are Created at 6/2/2018 12:47:28 PM 
Receipt Voucher GridView For Advance Data Initiated at 6/2/2018 12:47:28 PM 
Receipt Voucher GridView For Advance Data Completed at 6/2/2018 12:47:28 PM 
Receipt Voucher Master Value For Account Data Initiated at 6/2/2018 12:47:28 PM 
Receipt Voucher Master Value For Account Data Completed at 6/2/2018 12:47:28 PM 
Receipt Voucher Master Value For Customer Data Initiated at 6/2/2018 12:47:28 PM 
Receipt Voucher Master Value For Customer Data Completed at 6/2/2018 12:47:28 PM 
Receipt Voucher Master Value For Project Data Initiated at 6/2/2018 12:47:28 PM 
Receipt Voucher Master Value For Project Data Completed at 6/2/2018 12:47:28 PM 
Receipt Voucher Control Value For Payment_Method Data Initiated at 6/2/2018 12:47:28 PM 
Receipt Voucher Control Value For Payment_Method Data Completed at 6/2/2018 12:47:28 PM 
Receipt Voucher Master Value For Bank Data Initiated at 6/2/2018 12:47:28 PM 
Receipt Voucher Master Value For Bank Data Completed at 6/2/2018 12:47:28 PM 
Receipt Voucher Master Value For Cheque_No Data Initiated at 6/2/2018 12:47:28 PM 
Receipt Voucher Master Value For Cheque_No Data Completed at 6/2/2018 12:47:28 PM 
Receipt Voucher Master Value For Tax Data Initiated at 6/2/2018 12:47:28 PM 
Receipt Voucher Master Value For Tax Data Completed at 6/2/2018 12:47:28 PM 
Receipt Voucher Control Value For Payee_Type Data Initiated at 6/2/2018 12:47:28 PM 
Receipt Voucher Control Value For Payee_Type Data Completed at 6/2/2018 12:47:28 PM 
Receipt Voucher Master Value For Payee Data Initiated at 6/2/2018 12:47:28 PM 
Receipt Voucher Master Value For Payee Data Completed at 6/2/2018 12:47:28 PM 
Receipt Voucher Master Value For Account: Data Initiated at 6/2/2018 12:47:28 PM 
Receipt Voucher Master Value For Account: Data Completed at 6/2/2018 12:47:28 PM 
Receipt Voucher Control Value For Payment_Method Data Initiated at 6/2/2018 12:47:28 PM 
Receipt Voucher Control Value For Payment_Method Data Completed at 6/2/2018 12:47:28 PM 
Receipt Voucher Master Value For Cheque# Data Initiated at 6/2/2018 12:47:28 PM 
Receipt Voucher Master Value For Cheque# Data Completed at 6/2/2018 12:47:28 PM 
Receipt Voucher Master Value For Tax_Type Data Initiated at 6/2/2018 12:47:28 PM 
Receipt Voucher Master Value For Tax_Type Data Completed at 6/2/2018 12:47:28 PM 
Receipt Voucher Master Value For Operating_Unit Data Initiated at 6/2/2018 12:47:28 PM 
Receipt Voucher Master Value For Operating_Unit Data Completed at 6/2/2018 12:47:28 PM 
Receipt Voucher Master Value For Project# Data Initiated at 6/2/2018 12:47:28 PM 
Receipt Voucher Master Value For Project# Data Completed at 6/2/2018 12:47:28 PM 
Receipt Voucher Feilds are Created at 6/2/2018 12:47:28 PM 
Receipt Voucher Feilds Creation Completed For FITABLE023 at 6/2/2018 12:47:28 PM 
Receipt Voucher Feilds are Created at 6/2/2018 12:47:28 PM 
Receipt Voucher Feilds Creation Completed For FITABLE024 at 6/2/2018 12:47:28 PM 
Receipt Voucher Total Fields Creation Completed at 6/2/2018 12:47:28 PM 
Receipt Voucher Process Completed at 6/2/2018 12:47:28 PM 
 6/2/2018 12:47:28 PM 
***********************TARGET1*********************** 
 
 Line Data Received . 6/2/2018 12:47:59 PM
 
***********************TARGET4*********************** 
 
 Header Data Created for Receipt Voucher . 
 
 6/2/2018 12:48:00 PM
 
***********************TARGET7*********************** 
 
 Line Data 0 Created For Receipt Voucher . 
 
 6/2/2018 12:48:01 PM
 
***********************TARGET1*********************** 
 
 Line Data Received . 6/2/2018 12:48:54 PM
 
***********************TARGET4*********************** 
 
 Header Data Updated for Receipt Voucher . 
 
 6/2/2018 12:48:54 PM
 
***********************TARGET7*********************** 
 
 Line Data 0 Updated For Receipt Voucher . 
 
 6/2/2018 12:48:54 PM
