
 8/23/2018 2:54:52 PM 8/23/2018 2:55:17 PM
 8/23/2018 2:57:45 PM
 8/23/2018 2:57:46 PM
 8/23/2018 2:57:51 PM
 8/23/2018 2:59:15 PM
 8/23/2018 2:59:39 PM
 8/23/2018 3:00:22 PM
 8/23/2018 3:01:51 PM
 8/23/2018 3:04:31 PM
 8/23/2018 3:07:31 PM
 8/23/2018 3:07:35 PM
 8/23/2018 3:07:59 PM
 8/23/2018 3:08:46 PM
 8/23/2018 3:18:16 PM
 8/23/2018 3:18:19 PM
 8/23/2018 3:23:29 PM
 8/23/2018 3:44:18 PM
 8/23/2018 3:45:57 PM
 8/23/2018 3:56:10 PM
 8/23/2018 4:00:19 PM
 8/23/2018 4:00:55 PM
 8/23/2018 4:11:50 PM
 8/23/2018 4:11:58 PM
 8/23/2018 4:12:04 PM
 8/23/2018 4:12:13 PM
 8/23/2018 4:12:44 PM
 8/23/2018 4:19:42 PM
 8/23/2018 4:19:48 PM
 8/23/2018 4:20:39 PM
 8/23/2018 4:23:00 PM
 8/23/2018 4:29:36 PM
 8/23/2018 4:30:19 PM
 8/23/2018 4:30:50 PM
 8/23/2018 4:32:08 PM
 8/23/2018 4:32:39 PM
 8/23/2018 4:33:52 PM
 8/23/2018 4:34:00 PM
