
Bill Process Initiated at 04/09/2020 12:13:18 PM 
Bill Tabs are Created at 04/09/2020 12:13:18 PM 
Bill Master Value For Item_Receipt# Data Initiated at 04/09/2020 12:13:18 PM 
Bill Master Value For Item_Receipt# Data Completed at 04/09/2020 12:13:18 PM 
Bill Master Value For Item Data Initiated at 04/09/2020 12:13:18 PM 
Bill Master Value For Item Data Completed at 04/09/2020 12:13:18 PM 
Bill Control Value For Units Data Initiated at 04/09/2020 12:13:18 PM 
Bill Control Value For Units Data Completed at 04/09/2020 12:13:18 PM 
Bill Master Value For Lot# Data Initiated at 04/09/2020 12:13:18 PM 
Bill Master Value For Lot# Data Completed at 04/09/2020 12:13:18 PM 
Bill Master Value For Location Data Initiated at 04/09/2020 12:13:18 PM 
Bill Master Value For Location Data Completed at 04/09/2020 12:13:18 PM 
Bill Master Value For Tax_Type Data Initiated at 04/09/2020 12:13:18 PM 
Bill Master Value For Tax_Type Data Completed at 04/09/2020 12:13:18 PM 
Bill Control Value For Mode_Of_Discount Data Initiated at 04/09/2020 12:13:18 PM 
Bill Control Value For Mode_Of_Discount Data Completed at 04/09/2020 12:13:18 PM 
Bill Master Value For OperatingUnit Data Initiated at 04/09/2020 12:13:18 PM 
Bill Master Value For OperatingUnit Data Completed at 04/09/2020 12:13:18 PM 
Bill Master Value For Subsidary Data Initiated at 04/09/2020 12:13:18 PM 
Bill Master Value For Subsidary Data Completed at 04/09/2020 12:13:18 PM 
Bill Control Value For Classification Data Initiated at 04/09/2020 12:13:18 PM 
Bill Control Value For Classification Data Completed at 04/09/2020 12:13:18 PM 
Bill Control Value For Department Data Initiated at 04/09/2020 12:13:18 PM 
Bill Control Value For Department Data Completed at 04/09/2020 12:13:18 PM 
Bill Master Value For Refered_Form Data Initiated at 04/09/2020 12:13:18 PM 
Bill Master Value For Refered_Form Data Completed at 04/09/2020 12:13:18 PM 
Bill Control Value For Payee_Type Data Initiated at 04/09/2020 12:13:18 PM 
Bill Control Value For Payee_Type Data Completed at 04/09/2020 12:13:18 PM 
Bill Master Value For Vendor Data Initiated at 04/09/2020 12:13:18 PM 
Bill Master Value For Vendor Data Completed at 04/09/2020 12:13:19 PM 
Bill Master Value For Receipt_Type Data Initiated at 04/09/2020 12:13:19 PM 
Bill Master Value For Receipt_Type Data Completed at 04/09/2020 12:13:19 PM 
Bill Master Value For Payment_Terms Data Initiated at 04/09/2020 12:13:19 PM 
Bill Master Value For Payment_Terms Data Completed at 04/09/2020 12:13:19 PM 
Bill Master Value For Purchase_Order# Data Initiated at 04/09/2020 12:13:19 PM 
Bill Master Value For Purchase_Order# Data Completed at 04/09/2020 12:13:19 PM 
Bill Master Value For Quotation# Data Initiated at 04/09/2020 12:13:19 PM 
Bill Master Value For Quotation# Data Completed at 04/09/2020 12:13:19 PM 
Bill Control Value For GST_Category Data Initiated at 04/09/2020 12:13:19 PM 
Bill Control Value For GST_Category Data Completed at 04/09/2020 12:13:19 PM 
Bill Master Value For Place_Of_Supply Data Initiated at 04/09/2020 12:13:19 PM 
Bill Master Value For Place_Of_Supply Data Completed at 04/09/2020 12:13:19 PM 
Bill Control Value For Payment_Mode Data Initiated at 04/09/2020 12:13:19 PM 
Bill Control Value For Payment_Mode Data Completed at 04/09/2020 12:13:19 PM 
Bill Master Value For Project# Data Initiated at 04/09/2020 12:13:19 PM 
Bill Master Value For Project# Data Completed at 04/09/2020 12:13:19 PM 
Bill Master Value For Operating_Unit Data Initiated at 04/09/2020 12:13:19 PM 
Bill Master Value For Operating_Unit Data Completed at 04/09/2020 12:13:19 PM 
Bill Master Value For Location_ Data Initiated at 04/09/2020 12:13:19 PM 
Bill Master Value For Location_ Data Completed at 04/09/2020 12:13:19 PM 
Bill Control Value For Department Data Initiated at 04/09/2020 12:13:19 PM 
Bill Control Value For Department Data Completed at 04/09/2020 12:13:19 PM 
Bill Master Value For Subsidary Data Initiated at 04/09/2020 12:13:19 PM 
Bill Master Value For Subsidary Data Completed at 04/09/2020 12:13:19 PM 
Bill Control Value For Exclusive Data Initiated at 04/09/2020 12:13:19 PM 
Bill Control Value For Exclusive Data Completed at 04/09/2020 12:13:19 PM 
Bill Master Value For Tax Data Initiated at 04/09/2020 12:13:19 PM 
Bill Master Value For Tax Data Completed at 04/09/2020 12:13:19 PM 
Bill Control Value For TDSType Data Initiated at 04/09/2020 12:13:19 PM 
Bill Control Value For TDSType Data Completed at 04/09/2020 12:13:19 PM 
Bill GridView For Class Data Initiated at 04/09/2020 12:13:19 PM 
Bill GridView For Class Data Completed at 04/09/2020 12:13:19 PM 
Bill Control Value For Shipping_Carrier Data Initiated at 04/09/2020 12:13:19 PM 
Bill Control Value For Shipping_Carrier Data Completed at 04/09/2020 12:13:19 PM 
Bill Control Value For Mode_Of_Transportation Data Initiated at 04/09/2020 12:13:19 PM 
Bill Control Value For Mode_Of_Transportation Data Completed at 04/09/2020 12:13:19 PM 
Bill Master Value For Packing_Tax Data Initiated at 04/09/2020 12:13:19 PM 
Bill Master Value For Packing_Tax Data Completed at 04/09/2020 12:13:19 PM 
Bill Master Value For Shipping_Tax Data Initiated at 04/09/2020 12:13:19 PM 
Bill Master Value For Shipping_Tax Data Completed at 04/09/2020 12:13:19 PM 
Bill Master Value For Other_Tax Data Initiated at 04/09/2020 12:13:19 PM 
Bill Master Value For Other_Tax Data Completed at 04/09/2020 12:13:19 PM 
Bill Feilds are Created at 04/09/2020 12:13:19 PM 
Bill Feilds Creation Completed For PUTABLE005 at 04/09/2020 12:13:19 PM 
Bill Feilds are Created at 04/09/2020 12:13:19 PM 
Bill Feilds Creation Completed For PUTABLE006 at 04/09/2020 12:13:19 PM 
Bill Total Fields Creation Completed at 04/09/2020 12:13:19 PM 
Bill Process Completed at 04/09/2020 12:13:19 PM 
 04/09/2020 12:13:19 PMBill Process Initiated at 04/09/2020 1:10:13 PM 
Bill Tabs are Created at 04/09/2020 1:10:13 PM 
Bill Master Value For Item_Receipt# Data Initiated at 04/09/2020 1:10:13 PM 
Bill Master Value For Item_Receipt# Data Completed at 04/09/2020 1:10:13 PM 
Bill Master Value For Item Data Initiated at 04/09/2020 1:10:13 PM 
Bill Master Value For Item Data Completed at 04/09/2020 1:10:13 PM 
Bill Control Value For Units Data Initiated at 04/09/2020 1:10:13 PM 
Bill Control Value For Units Data Completed at 04/09/2020 1:10:13 PM 
Bill Master Value For Lot# Data Initiated at 04/09/2020 1:10:13 PM 
Bill Master Value For Lot# Data Completed at 04/09/2020 1:10:13 PM 
Bill Master Value For Location Data Initiated at 04/09/2020 1:10:13 PM 
Bill Master Value For Location Data Completed at 04/09/2020 1:10:13 PM 
Bill Master Value For Tax_Type Data Initiated at 04/09/2020 1:10:13 PM 
Bill Master Value For Tax_Type Data Completed at 04/09/2020 1:10:13 PM 
Bill Control Value For Mode_Of_Discount Data Initiated at 04/09/2020 1:10:13 PM 
Bill Control Value For Mode_Of_Discount Data Completed at 04/09/2020 1:10:13 PM 
Bill Master Value For OperatingUnit Data Initiated at 04/09/2020 1:10:13 PM 
Bill Master Value For OperatingUnit Data Completed at 04/09/2020 1:10:13 PM 
Bill Master Value For Subsidary Data Initiated at 04/09/2020 1:10:13 PM 
Bill Master Value For Subsidary Data Completed at 04/09/2020 1:10:13 PM 
Bill Control Value For Classification Data Initiated at 04/09/2020 1:10:13 PM 
Bill Control Value For Classification Data Completed at 04/09/2020 1:10:13 PM 
Bill Control Value For Department Data Initiated at 04/09/2020 1:10:13 PM 
Bill Control Value For Department Data Completed at 04/09/2020 1:10:13 PM 
Bill Master Value For Refered_Form Data Initiated at 04/09/2020 1:10:13 PM 
Bill Master Value For Refered_Form Data Completed at 04/09/2020 1:10:13 PM 
Bill Control Value For Payee_Type Data Initiated at 04/09/2020 1:10:13 PM 
Bill Control Value For Payee_Type Data Completed at 04/09/2020 1:10:13 PM 
Bill Master Value For Vendor Data Initiated at 04/09/2020 1:10:13 PM 
Bill Master Value For Vendor Data Completed at 04/09/2020 1:10:13 PM 
Bill Master Value For Receipt_Type Data Initiated at 04/09/2020 1:10:13 PM 
Bill Master Value For Receipt_Type Data Completed at 04/09/2020 1:10:13 PM 
Bill Master Value For Payment_Terms Data Initiated at 04/09/2020 1:10:13 PM 
Bill Master Value For Payment_Terms Data Completed at 04/09/2020 1:10:13 PM 
Bill Master Value For Purchase_Order# Data Initiated at 04/09/2020 1:10:13 PM 
Bill Master Value For Purchase_Order# Data Completed at 04/09/2020 1:10:13 PM 
Bill Master Value For Quotation# Data Initiated at 04/09/2020 1:10:13 PM 
Bill Master Value For Quotation# Data Completed at 04/09/2020 1:10:13 PM 
Bill Control Value For GST_Category Data Initiated at 04/09/2020 1:10:13 PM 
Bill Control Value For GST_Category Data Completed at 04/09/2020 1:10:13 PM 
Bill Master Value For Place_Of_Supply Data Initiated at 04/09/2020 1:10:13 PM 
Bill Master Value For Place_Of_Supply Data Completed at 04/09/2020 1:10:13 PM 
Bill Control Value For Payment_Mode Data Initiated at 04/09/2020 1:10:13 PM 
Bill Control Value For Payment_Mode Data Completed at 04/09/2020 1:10:13 PM 
Bill Master Value For Project# Data Initiated at 04/09/2020 1:10:13 PM 
Bill Master Value For Project# Data Completed at 04/09/2020 1:10:13 PM 
Bill Master Value For Operating_Unit Data Initiated at 04/09/2020 1:10:13 PM 
Bill Master Value For Operating_Unit Data Completed at 04/09/2020 1:10:13 PM 
Bill Master Value For Location_ Data Initiated at 04/09/2020 1:10:13 PM 
Bill Master Value For Location_ Data Completed at 04/09/2020 1:10:13 PM 
Bill Control Value For Department Data Initiated at 04/09/2020 1:10:13 PM 
Bill Control Value For Department Data Completed at 04/09/2020 1:10:13 PM 
Bill Master Value For Subsidary Data Initiated at 04/09/2020 1:10:13 PM 
Bill Master Value For Subsidary Data Completed at 04/09/2020 1:10:13 PM 
Bill Control Value For Exclusive Data Initiated at 04/09/2020 1:10:13 PM 
Bill Control Value For Exclusive Data Completed at 04/09/2020 1:10:13 PM 
Bill Master Value For Tax Data Initiated at 04/09/2020 1:10:13 PM 
Bill Master Value For Tax Data Completed at 04/09/2020 1:10:13 PM 
Bill Control Value For TDSType Data Initiated at 04/09/2020 1:10:13 PM 
Bill Control Value For TDSType Data Completed at 04/09/2020 1:10:13 PM 
Bill GridView For Class Data Initiated at 04/09/2020 1:10:13 PM 
Bill GridView For Class Data Completed at 04/09/2020 1:10:13 PM 
Bill Control Value For Shipping_Carrier Data Initiated at 04/09/2020 1:10:13 PM 
Bill Control Value For Shipping_Carrier Data Completed at 04/09/2020 1:10:13 PM 
Bill Control Value For Mode_Of_Transportation Data Initiated at 04/09/2020 1:10:13 PM 
Bill Control Value For Mode_Of_Transportation Data Completed at 04/09/2020 1:10:13 PM 
Bill Master Value For Packing_Tax Data Initiated at 04/09/2020 1:10:13 PM 
Bill Master Value For Packing_Tax Data Completed at 04/09/2020 1:10:13 PM 
Bill Master Value For Shipping_Tax Data Initiated at 04/09/2020 1:10:13 PM 
Bill Master Value For Shipping_Tax Data Completed at 04/09/2020 1:10:13 PM 
Bill Master Value For Other_Tax Data Initiated at 04/09/2020 1:10:13 PM 
Bill Master Value For Other_Tax Data Completed at 04/09/2020 1:10:13 PM 
Bill Feilds are Created at 04/09/2020 1:10:13 PM 
Bill Feilds Creation Completed For PUTABLE005 at 04/09/2020 1:10:13 PM 
Bill Feilds are Created at 04/09/2020 1:10:14 PM 
Bill Feilds Creation Completed For PUTABLE006 at 04/09/2020 1:10:14 PM 
Bill Total Fields Creation Completed at 04/09/2020 1:10:14 PM 
Bill Process Completed at 04/09/2020 1:10:14 PM 
 04/09/2020 1:10:14 PM
 
***********************TARGET1*********************** 
 
 Line Data Received . 04/09/2020 1:10:49 PM
Bill Process Initiated at 04/09/2020 1:11:03 PM 
Bill Tabs are Created at 04/09/2020 1:11:03 PM 
Bill Master Value For Item_Receipt# Data Initiated at 04/09/2020 1:11:03 PM 
Bill Master Value For Item_Receipt# Data Completed at 04/09/2020 1:11:03 PM 
Bill Master Value For Item Data Initiated at 04/09/2020 1:11:03 PM 
Bill Master Value For Item Data Completed at 04/09/2020 1:11:03 PM 
Bill Control Value For Units Data Initiated at 04/09/2020 1:11:03 PM 
Bill Control Value For Units Data Completed at 04/09/2020 1:11:03 PM 
Bill Master Value For Lot# Data Initiated at 04/09/2020 1:11:03 PM 
Bill Master Value For Lot# Data Completed at 04/09/2020 1:11:03 PM 
Bill Master Value For Location Data Initiated at 04/09/2020 1:11:03 PM 
Bill Master Value For Location Data Completed at 04/09/2020 1:11:03 PM 
Bill Master Value For Tax_Type Data Initiated at 04/09/2020 1:11:03 PM 
Bill Master Value For Tax_Type Data Completed at 04/09/2020 1:11:03 PM 
Bill Control Value For Mode_Of_Discount Data Initiated at 04/09/2020 1:11:03 PM 
Bill Control Value For Mode_Of_Discount Data Completed at 04/09/2020 1:11:03 PM 
Bill Master Value For OperatingUnit Data Initiated at 04/09/2020 1:11:03 PM 
Bill Master Value For OperatingUnit Data Completed at 04/09/2020 1:11:03 PM 
Bill Master Value For Subsidary Data Initiated at 04/09/2020 1:11:03 PM 
Bill Master Value For Subsidary Data Completed at 04/09/2020 1:11:03 PM 
Bill Control Value For Classification Data Initiated at 04/09/2020 1:11:03 PM 
Bill Control Value For Classification Data Completed at 04/09/2020 1:11:03 PM 
Bill Control Value For Department Data Initiated at 04/09/2020 1:11:03 PM 
Bill Control Value For Department Data Completed at 04/09/2020 1:11:03 PM 
Bill Master Value For Refered_Form Data Initiated at 04/09/2020 1:11:03 PM 
Bill Master Value For Refered_Form Data Completed at 04/09/2020 1:11:03 PM 
Bill Control Value For Payee_Type Data Initiated at 04/09/2020 1:11:03 PM 
Bill Control Value For Payee_Type Data Completed at 04/09/2020 1:11:03 PM 
Bill Master Value For Vendor Data Initiated at 04/09/2020 1:11:03 PM 
Bill Master Value For Vendor Data Completed at 04/09/2020 1:11:03 PM 
Bill Master Value For Receipt_Type Data Initiated at 04/09/2020 1:11:03 PM 
Bill Master Value For Receipt_Type Data Completed at 04/09/2020 1:11:03 PM 
Bill Master Value For Payment_Terms Data Initiated at 04/09/2020 1:11:03 PM 
Bill Master Value For Payment_Terms Data Completed at 04/09/2020 1:11:03 PM 
Bill Master Value For Purchase_Order# Data Initiated at 04/09/2020 1:11:03 PM 
Bill Master Value For Purchase_Order# Data Completed at 04/09/2020 1:11:03 PM 
Bill Master Value For Quotation# Data Initiated at 04/09/2020 1:11:03 PM 
Bill Master Value For Quotation# Data Completed at 04/09/2020 1:11:03 PM 
Bill Control Value For GST_Category Data Initiated at 04/09/2020 1:11:03 PM 
Bill Control Value For GST_Category Data Completed at 04/09/2020 1:11:03 PM 
Bill Master Value For Place_Of_Supply Data Initiated at 04/09/2020 1:11:03 PM 
Bill Master Value For Place_Of_Supply Data Completed at 04/09/2020 1:11:03 PM 
Bill Control Value For Payment_Mode Data Initiated at 04/09/2020 1:11:03 PM 
Bill Control Value For Payment_Mode Data Completed at 04/09/2020 1:11:03 PM 
Bill Master Value For Project# Data Initiated at 04/09/2020 1:11:03 PM 
Bill Master Value For Project# Data Completed at 04/09/2020 1:11:03 PM 
Bill Master Value For Operating_Unit Data Initiated at 04/09/2020 1:11:03 PM 
Bill Master Value For Operating_Unit Data Completed at 04/09/2020 1:11:03 PM 
Bill Master Value For Location_ Data Initiated at 04/09/2020 1:11:03 PM 
Bill Master Value For Location_ Data Completed at 04/09/2020 1:11:03 PM 
Bill Control Value For Department Data Initiated at 04/09/2020 1:11:03 PM 
Bill Control Value For Department Data Completed at 04/09/2020 1:11:03 PM 
Bill Master Value For Subsidary Data Initiated at 04/09/2020 1:11:03 PM 
Bill Master Value For Subsidary Data Completed at 04/09/2020 1:11:03 PM 
Bill Control Value For Exclusive Data Initiated at 04/09/2020 1:11:03 PM 
Bill Control Value For Exclusive Data Completed at 04/09/2020 1:11:03 PM 
Bill Master Value For Tax Data Initiated at 04/09/2020 1:11:03 PM 
Bill Master Value For Tax Data Completed at 04/09/2020 1:11:03 PM 
Bill Control Value For TDSType Data Initiated at 04/09/2020 1:11:03 PM 
Bill Control Value For TDSType Data Completed at 04/09/2020 1:11:03 PM 
Bill GridView For Class Data Initiated at 04/09/2020 1:11:03 PM 
Bill GridView For Class Data Completed at 04/09/2020 1:11:03 PM 
Bill Control Value For Shipping_Carrier Data Initiated at 04/09/2020 1:11:03 PM 
Bill Control Value For Shipping_Carrier Data Completed at 04/09/2020 1:11:03 PM 
Bill Control Value For Mode_Of_Transportation Data Initiated at 04/09/2020 1:11:03 PM 
Bill Control Value For Mode_Of_Transportation Data Completed at 04/09/2020 1:11:03 PM 
Bill Master Value For Packing_Tax Data Initiated at 04/09/2020 1:11:03 PM 
Bill Master Value For Packing_Tax Data Completed at 04/09/2020 1:11:03 PM 
Bill Master Value For Shipping_Tax Data Initiated at 04/09/2020 1:11:03 PM 
Bill Master Value For Shipping_Tax Data Completed at 04/09/2020 1:11:03 PM 
Bill Master Value For Other_Tax Data Initiated at 04/09/2020 1:11:03 PM 
Bill Master Value For Other_Tax Data Completed at 04/09/2020 1:11:03 PM 
Bill Feilds are Created at 04/09/2020 1:11:03 PM 
Bill Feilds Creation Completed For PUTABLE005 at 04/09/2020 1:11:03 PM 
Bill Feilds are Created at 04/09/2020 1:11:03 PM 
Bill Feilds Creation Completed For PUTABLE006 at 04/09/2020 1:11:03 PM 
Bill Total Fields Creation Completed at 04/09/2020 1:11:03 PM 
Bill Process Completed at 04/09/2020 1:11:03 PM 
 04/09/2020 1:11:03 PM
Bill Process Initiated at 04/09/2020 1:11:54 PM 
Bill Tabs are Created at 04/09/2020 1:11:54 PM 
Bill Master Value For Item_Receipt# Data Initiated at 04/09/2020 1:11:54 PM 
Bill Master Value For Item_Receipt# Data Completed at 04/09/2020 1:11:54 PM 
Bill Master Value For Item Data Initiated at 04/09/2020 1:11:54 PM 
Bill Master Value For Item Data Completed at 04/09/2020 1:11:54 PM 
Bill Control Value For Units Data Initiated at 04/09/2020 1:11:54 PM 
Bill Control Value For Units Data Completed at 04/09/2020 1:11:54 PM 
Bill Master Value For Lot# Data Initiated at 04/09/2020 1:11:54 PM 
Bill Master Value For Lot# Data Completed at 04/09/2020 1:11:54 PM 
Bill Master Value For Location Data Initiated at 04/09/2020 1:11:54 PM 
Bill Master Value For Location Data Completed at 04/09/2020 1:11:54 PM 
Bill Master Value For Tax_Type Data Initiated at 04/09/2020 1:11:54 PM 
Bill Master Value For Tax_Type Data Completed at 04/09/2020 1:11:54 PM 
Bill Control Value For Mode_Of_Discount Data Initiated at 04/09/2020 1:11:54 PM 
Bill Control Value For Mode_Of_Discount Data Completed at 04/09/2020 1:11:54 PM 
Bill Master Value For OperatingUnit Data Initiated at 04/09/2020 1:11:54 PM 
Bill Master Value For OperatingUnit Data Completed at 04/09/2020 1:11:54 PM 
Bill Master Value For Subsidary Data Initiated at 04/09/2020 1:11:54 PM 
Bill Master Value For Subsidary Data Completed at 04/09/2020 1:11:54 PM 
Bill Control Value For Classification Data Initiated at 04/09/2020 1:11:54 PM 
Bill Control Value For Classification Data Completed at 04/09/2020 1:11:54 PM 
Bill Control Value For Department Data Initiated at 04/09/2020 1:11:54 PM 
Bill Control Value For Department Data Completed at 04/09/2020 1:11:54 PM 
Bill Master Value For Refered_Form Data Initiated at 04/09/2020 1:11:54 PM 
Bill Master Value For Refered_Form Data Completed at 04/09/2020 1:11:54 PM 
Bill Control Value For Payee_Type Data Initiated at 04/09/2020 1:11:54 PM 
Bill Control Value For Payee_Type Data Completed at 04/09/2020 1:11:54 PM 
Bill Master Value For Vendor Data Initiated at 04/09/2020 1:11:54 PM 
Bill Master Value For Vendor Data Completed at 04/09/2020 1:11:54 PM 
Bill Master Value For Receipt_Type Data Initiated at 04/09/2020 1:11:54 PM 
Bill Master Value For Receipt_Type Data Completed at 04/09/2020 1:11:54 PM 
Bill Master Value For Payment_Terms Data Initiated at 04/09/2020 1:11:54 PM 
Bill Master Value For Payment_Terms Data Completed at 04/09/2020 1:11:54 PM 
Bill Master Value For Purchase_Order# Data Initiated at 04/09/2020 1:11:54 PM 
Bill Master Value For Purchase_Order# Data Completed at 04/09/2020 1:11:54 PM 
Bill Master Value For Quotation# Data Initiated at 04/09/2020 1:11:54 PM 
Bill Master Value For Quotation# Data Completed at 04/09/2020 1:11:54 PM 
Bill Control Value For GST_Category Data Initiated at 04/09/2020 1:11:54 PM 
Bill Control Value For GST_Category Data Completed at 04/09/2020 1:11:54 PM 
Bill Master Value For Place_Of_Supply Data Initiated at 04/09/2020 1:11:54 PM 
Bill Master Value For Place_Of_Supply Data Completed at 04/09/2020 1:11:54 PM 
Bill Control Value For Payment_Mode Data Initiated at 04/09/2020 1:11:54 PM 
Bill Control Value For Payment_Mode Data Completed at 04/09/2020 1:11:54 PM 
Bill Master Value For Project# Data Initiated at 04/09/2020 1:11:54 PM 
Bill Master Value For Project# Data Completed at 04/09/2020 1:11:54 PM 
Bill Master Value For Operating_Unit Data Initiated at 04/09/2020 1:11:54 PM 
Bill Master Value For Operating_Unit Data Completed at 04/09/2020 1:11:54 PM 
Bill Master Value For Location_ Data Initiated at 04/09/2020 1:11:54 PM 
Bill Master Value For Location_ Data Completed at 04/09/2020 1:11:54 PM 
Bill Control Value For Department Data Initiated at 04/09/2020 1:11:54 PM 
Bill Control Value For Department Data Completed at 04/09/2020 1:11:54 PM 
Bill Master Value For Subsidary Data Initiated at 04/09/2020 1:11:54 PM 
Bill Master Value For Subsidary Data Completed at 04/09/2020 1:11:54 PM 
Bill Control Value For Exclusive Data Initiated at 04/09/2020 1:11:54 PM 
Bill Control Value For Exclusive Data Completed at 04/09/2020 1:11:54 PM 
Bill Master Value For Tax Data Initiated at 04/09/2020 1:11:54 PM 
Bill Master Value For Tax Data Completed at 04/09/2020 1:11:54 PM 
Bill Control Value For TDSType Data Initiated at 04/09/2020 1:11:54 PM 
Bill Control Value For TDSType Data Completed at 04/09/2020 1:11:54 PM 
Bill GridView For Class Data Initiated at 04/09/2020 1:11:54 PM 
Bill GridView For Class Data Completed at 04/09/2020 1:11:54 PM 
Bill Control Value For Shipping_Carrier Data Initiated at 04/09/2020 1:11:54 PM 
Bill Control Value For Shipping_Carrier Data Completed at 04/09/2020 1:11:54 PM 
Bill Control Value For Mode_Of_Transportation Data Initiated at 04/09/2020 1:11:54 PM 
Bill Control Value For Mode_Of_Transportation Data Completed at 04/09/2020 1:11:54 PM 
Bill Master Value For Packing_Tax Data Initiated at 04/09/2020 1:11:54 PM 
Bill Master Value For Packing_Tax Data Completed at 04/09/2020 1:11:54 PM 
Bill Master Value For Shipping_Tax Data Initiated at 04/09/2020 1:11:54 PM 
Bill Master Value For Shipping_Tax Data Completed at 04/09/2020 1:11:54 PM 
Bill Master Value For Other_Tax Data Initiated at 04/09/2020 1:11:54 PM 
Bill Master Value For Other_Tax Data Completed at 04/09/2020 1:11:54 PM 
Bill Feilds are Created at 04/09/2020 1:11:55 PM 
Bill Feilds Creation Completed For PUTABLE005 at 04/09/2020 1:11:55 PM 
Bill Feilds are Created at 04/09/2020 1:11:55 PM 
Bill Feilds Creation Completed For PUTABLE006 at 04/09/2020 1:11:55 PM 
Bill Total Fields Creation Completed at 04/09/2020 1:11:55 PM 
Bill Process Completed at 04/09/2020 1:11:55 PM 
 04/09/2020 1:11:55 PM
Bill Process Initiated at 04/09/2020 1:12:06 PM 
Bill Tabs are Created at 04/09/2020 1:12:06 PM 
Bill Master Value For Item_Receipt# Data Initiated at 04/09/2020 1:12:06 PM 
Bill Master Value For Item_Receipt# Data Completed at 04/09/2020 1:12:06 PM 
Bill Master Value For Item Data Initiated at 04/09/2020 1:12:06 PM 
Bill Master Value For Item Data Completed at 04/09/2020 1:12:06 PM 
Bill Control Value For Units Data Initiated at 04/09/2020 1:12:06 PM 
Bill Control Value For Units Data Completed at 04/09/2020 1:12:06 PM 
Bill Master Value For Lot# Data Initiated at 04/09/2020 1:12:06 PM 
Bill Master Value For Lot# Data Completed at 04/09/2020 1:12:06 PM 
Bill Master Value For Location Data Initiated at 04/09/2020 1:12:06 PM 
Bill Master Value For Location Data Completed at 04/09/2020 1:12:06 PM 
Bill Master Value For Tax_Type Data Initiated at 04/09/2020 1:12:06 PM 
Bill Master Value For Tax_Type Data Completed at 04/09/2020 1:12:06 PM 
Bill Control Value For Mode_Of_Discount Data Initiated at 04/09/2020 1:12:06 PM 
Bill Control Value For Mode_Of_Discount Data Completed at 04/09/2020 1:12:06 PM 
Bill Master Value For OperatingUnit Data Initiated at 04/09/2020 1:12:06 PM 
Bill Master Value For OperatingUnit Data Completed at 04/09/2020 1:12:06 PM 
Bill Master Value For Subsidary Data Initiated at 04/09/2020 1:12:06 PM 
Bill Master Value For Subsidary Data Completed at 04/09/2020 1:12:06 PM 
Bill Control Value For Classification Data Initiated at 04/09/2020 1:12:06 PM 
Bill Control Value For Classification Data Completed at 04/09/2020 1:12:06 PM 
Bill Control Value For Department Data Initiated at 04/09/2020 1:12:06 PM 
Bill Control Value For Department Data Completed at 04/09/2020 1:12:06 PM 
Bill Master Value For Refered_Form Data Initiated at 04/09/2020 1:12:06 PM 
Bill Master Value For Refered_Form Data Completed at 04/09/2020 1:12:06 PM 
Bill Control Value For Payee_Type Data Initiated at 04/09/2020 1:12:06 PM 
Bill Control Value For Payee_Type Data Completed at 04/09/2020 1:12:06 PM 
Bill Master Value For Vendor Data Initiated at 04/09/2020 1:12:06 PM 
Bill Master Value For Vendor Data Completed at 04/09/2020 1:12:06 PM 
Bill Master Value For Receipt_Type Data Initiated at 04/09/2020 1:12:06 PM 
Bill Master Value For Receipt_Type Data Completed at 04/09/2020 1:12:06 PM 
Bill Master Value For Payment_Terms Data Initiated at 04/09/2020 1:12:06 PM 
Bill Master Value For Payment_Terms Data Completed at 04/09/2020 1:12:06 PM 
Bill Master Value For Purchase_Order# Data Initiated at 04/09/2020 1:12:06 PM 
Bill Master Value For Purchase_Order# Data Completed at 04/09/2020 1:12:06 PM 
Bill Master Value For Quotation# Data Initiated at 04/09/2020 1:12:06 PM 
Bill Master Value For Quotation# Data Completed at 04/09/2020 1:12:06 PM 
Bill Control Value For GST_Category Data Initiated at 04/09/2020 1:12:06 PM 
Bill Control Value For GST_Category Data Completed at 04/09/2020 1:12:06 PM 
Bill Master Value For Place_Of_Supply Data Initiated at 04/09/2020 1:12:06 PM 
Bill Master Value For Place_Of_Supply Data Completed at 04/09/2020 1:12:06 PM 
Bill Control Value For Payment_Mode Data Initiated at 04/09/2020 1:12:06 PM 
Bill Control Value For Payment_Mode Data Completed at 04/09/2020 1:12:06 PM 
Bill Master Value For Project# Data Initiated at 04/09/2020 1:12:06 PM 
Bill Master Value For Project# Data Completed at 04/09/2020 1:12:06 PM 
Bill Master Value For Operating_Unit Data Initiated at 04/09/2020 1:12:06 PM 
Bill Master Value For Operating_Unit Data Completed at 04/09/2020 1:12:06 PM 
Bill Master Value For Location_ Data Initiated at 04/09/2020 1:12:06 PM 
Bill Master Value For Location_ Data Completed at 04/09/2020 1:12:06 PM 
Bill Control Value For Department Data Initiated at 04/09/2020 1:12:06 PM 
Bill Control Value For Department Data Completed at 04/09/2020 1:12:06 PM 
Bill Master Value For Subsidary Data Initiated at 04/09/2020 1:12:06 PM 
Bill Master Value For Subsidary Data Completed at 04/09/2020 1:12:06 PM 
Bill Control Value For Exclusive Data Initiated at 04/09/2020 1:12:06 PM 
Bill Control Value For Exclusive Data Completed at 04/09/2020 1:12:06 PM 
Bill Master Value For Tax Data Initiated at 04/09/2020 1:12:06 PM 
Bill Master Value For Tax Data Completed at 04/09/2020 1:12:06 PM 
Bill Control Value For TDSType Data Initiated at 04/09/2020 1:12:06 PM 
Bill Control Value For TDSType Data Completed at 04/09/2020 1:12:06 PM 
Bill GridView For Class Data Initiated at 04/09/2020 1:12:06 PM 
Bill GridView For Class Data Completed at 04/09/2020 1:12:06 PM 
Bill Control Value For Shipping_Carrier Data Initiated at 04/09/2020 1:12:06 PM 
Bill Control Value For Shipping_Carrier Data Completed at 04/09/2020 1:12:06 PM 
Bill Control Value For Mode_Of_Transportation Data Initiated at 04/09/2020 1:12:06 PM 
Bill Control Value For Mode_Of_Transportation Data Completed at 04/09/2020 1:12:06 PM 
Bill Master Value For Packing_Tax Data Initiated at 04/09/2020 1:12:06 PM 
Bill Master Value For Packing_Tax Data Completed at 04/09/2020 1:12:06 PM 
Bill Master Value For Shipping_Tax Data Initiated at 04/09/2020 1:12:06 PM 
Bill Master Value For Shipping_Tax Data Completed at 04/09/2020 1:12:06 PM 
Bill Master Value For Other_Tax Data Initiated at 04/09/2020 1:12:06 PM 
Bill Master Value For Other_Tax Data Completed at 04/09/2020 1:12:06 PM 
Bill Feilds are Created at 04/09/2020 1:12:06 PM 
Bill Feilds Creation Completed For PUTABLE005 at 04/09/2020 1:12:06 PM 
Bill Feilds are Created at 04/09/2020 1:12:06 PM 
Bill Feilds Creation Completed For PUTABLE006 at 04/09/2020 1:12:06 PM 
Bill Total Fields Creation Completed at 04/09/2020 1:12:06 PM 
Bill Process Completed at 04/09/2020 1:12:06 PM 
 04/09/2020 1:12:06 PM
Bill Process Initiated at 04/09/2020 1:13:14 PM 
Bill Tabs are Created at 04/09/2020 1:13:14 PM 
Bill Master Value For Item_Receipt# Data Initiated at 04/09/2020 1:13:14 PM 
Bill Master Value For Item_Receipt# Data Completed at 04/09/2020 1:13:14 PM 
Bill Master Value For Item Data Initiated at 04/09/2020 1:13:14 PM 
Bill Master Value For Item Data Completed at 04/09/2020 1:13:14 PM 
Bill Control Value For Units Data Initiated at 04/09/2020 1:13:14 PM 
Bill Control Value For Units Data Completed at 04/09/2020 1:13:14 PM 
Bill Master Value For Lot# Data Initiated at 04/09/2020 1:13:14 PM 
Bill Master Value For Lot# Data Completed at 04/09/2020 1:13:14 PM 
Bill Master Value For Location Data Initiated at 04/09/2020 1:13:14 PM 
Bill Master Value For Location Data Completed at 04/09/2020 1:13:14 PM 
Bill Master Value For Tax_Type Data Initiated at 04/09/2020 1:13:14 PM 
Bill Master Value For Tax_Type Data Completed at 04/09/2020 1:13:14 PM 
Bill Control Value For Mode_Of_Discount Data Initiated at 04/09/2020 1:13:14 PM 
Bill Control Value For Mode_Of_Discount Data Completed at 04/09/2020 1:13:14 PM 
Bill Master Value For OperatingUnit Data Initiated at 04/09/2020 1:13:14 PM 
Bill Master Value For OperatingUnit Data Completed at 04/09/2020 1:13:14 PM 
Bill Master Value For Subsidary Data Initiated at 04/09/2020 1:13:14 PM 
Bill Master Value For Subsidary Data Completed at 04/09/2020 1:13:14 PM 
Bill Control Value For Classification Data Initiated at 04/09/2020 1:13:14 PM 
Bill Control Value For Classification Data Completed at 04/09/2020 1:13:14 PM 
Bill Control Value For Department Data Initiated at 04/09/2020 1:13:14 PM 
Bill Control Value For Department Data Completed at 04/09/2020 1:13:14 PM 
Bill Master Value For Refered_Form Data Initiated at 04/09/2020 1:13:14 PM 
Bill Master Value For Refered_Form Data Completed at 04/09/2020 1:13:14 PM 
Bill Control Value For Payee_Type Data Initiated at 04/09/2020 1:13:14 PM 
Bill Control Value For Payee_Type Data Completed at 04/09/2020 1:13:14 PM 
Bill Master Value For Vendor Data Initiated at 04/09/2020 1:13:14 PM 
Bill Master Value For Vendor Data Completed at 04/09/2020 1:13:14 PM 
Bill Master Value For Receipt_Type Data Initiated at 04/09/2020 1:13:14 PM 
Bill Master Value For Receipt_Type Data Completed at 04/09/2020 1:13:14 PM 
Bill Master Value For Payment_Terms Data Initiated at 04/09/2020 1:13:14 PM 
Bill Master Value For Payment_Terms Data Completed at 04/09/2020 1:13:14 PM 
Bill Master Value For Purchase_Order# Data Initiated at 04/09/2020 1:13:14 PM 
Bill Master Value For Purchase_Order# Data Completed at 04/09/2020 1:13:14 PM 
Bill Master Value For Quotation# Data Initiated at 04/09/2020 1:13:14 PM 
Bill Master Value For Quotation# Data Completed at 04/09/2020 1:13:14 PM 
Bill Control Value For GST_Category Data Initiated at 04/09/2020 1:13:14 PM 
Bill Control Value For GST_Category Data Completed at 04/09/2020 1:13:14 PM 
Bill Master Value For Place_Of_Supply Data Initiated at 04/09/2020 1:13:14 PM 
Bill Master Value For Place_Of_Supply Data Completed at 04/09/2020 1:13:14 PM 
Bill Control Value For Payment_Mode Data Initiated at 04/09/2020 1:13:14 PM 
Bill Control Value For Payment_Mode Data Completed at 04/09/2020 1:13:14 PM 
Bill Master Value For Project# Data Initiated at 04/09/2020 1:13:14 PM 
Bill Master Value For Project# Data Completed at 04/09/2020 1:13:14 PM 
Bill Master Value For Operating_Unit Data Initiated at 04/09/2020 1:13:14 PM 
Bill Master Value For Operating_Unit Data Completed at 04/09/2020 1:13:14 PM 
Bill Master Value For Location_ Data Initiated at 04/09/2020 1:13:14 PM 
Bill Master Value For Location_ Data Completed at 04/09/2020 1:13:14 PM 
Bill Control Value For Department Data Initiated at 04/09/2020 1:13:14 PM 
Bill Control Value For Department Data Completed at 04/09/2020 1:13:14 PM 
Bill Master Value For Subsidary Data Initiated at 04/09/2020 1:13:14 PM 
Bill Master Value For Subsidary Data Completed at 04/09/2020 1:13:14 PM 
Bill Control Value For Exclusive Data Initiated at 04/09/2020 1:13:14 PM 
Bill Control Value For Exclusive Data Completed at 04/09/2020 1:13:14 PM 
Bill Master Value For Tax Data Initiated at 04/09/2020 1:13:14 PM 
Bill Master Value For Tax Data Completed at 04/09/2020 1:13:14 PM 
Bill Control Value For TDSType Data Initiated at 04/09/2020 1:13:14 PM 
Bill Control Value For TDSType Data Completed at 04/09/2020 1:13:14 PM 
Bill GridView For Class Data Initiated at 04/09/2020 1:13:14 PM 
Bill GridView For Class Data Completed at 04/09/2020 1:13:14 PM 
Bill Control Value For Shipping_Carrier Data Initiated at 04/09/2020 1:13:14 PM 
Bill Control Value For Shipping_Carrier Data Completed at 04/09/2020 1:13:14 PM 
Bill Control Value For Mode_Of_Transportation Data Initiated at 04/09/2020 1:13:14 PM 
Bill Control Value For Mode_Of_Transportation Data Completed at 04/09/2020 1:13:14 PM 
Bill Master Value For Packing_Tax Data Initiated at 04/09/2020 1:13:14 PM 
Bill Master Value For Packing_Tax Data Completed at 04/09/2020 1:13:14 PM 
Bill Master Value For Shipping_Tax Data Initiated at 04/09/2020 1:13:14 PM 
Bill Master Value For Shipping_Tax Data Completed at 04/09/2020 1:13:14 PM 
Bill Master Value For Other_Tax Data Initiated at 04/09/2020 1:13:14 PM 
Bill Master Value For Other_Tax Data Completed at 04/09/2020 1:13:14 PM 
Bill Feilds are Created at 04/09/2020 1:13:14 PM 
Bill Feilds Creation Completed For PUTABLE005 at 04/09/2020 1:13:14 PM 
Bill Feilds are Created at 04/09/2020 1:13:14 PM 
Bill Feilds Creation Completed For PUTABLE006 at 04/09/2020 1:13:14 PM 
Bill Total Fields Creation Completed at 04/09/2020 1:13:14 PM 
Bill Process Completed at 04/09/2020 1:13:14 PM 
 04/09/2020 1:13:14 PM
 
***********************TARGET1*********************** 
 
 Line Data Received . 04/09/2020 1:13:31 PM
 
***********************TARGET1*********************** 
 
 Line Data Received . 04/09/2020 1:13:41 PM
Bill Process Initiated at 04/09/2020 1:15:00 PM 
Bill Tabs are Created at 04/09/2020 1:15:00 PM 
Bill Master Value For Item_Receipt# Data Initiated at 04/09/2020 1:15:00 PM 
Bill Master Value For Item_Receipt# Data Completed at 04/09/2020 1:15:00 PM 
Bill Master Value For Item Data Initiated at 04/09/2020 1:15:00 PM 
Bill Master Value For Item Data Completed at 04/09/2020 1:15:00 PM 
Bill Control Value For Units Data Initiated at 04/09/2020 1:15:00 PM 
Bill Control Value For Units Data Completed at 04/09/2020 1:15:00 PM 
Bill Master Value For Lot# Data Initiated at 04/09/2020 1:15:00 PM 
Bill Master Value For Lot# Data Completed at 04/09/2020 1:15:00 PM 
Bill Master Value For Location Data Initiated at 04/09/2020 1:15:00 PM 
Bill Master Value For Location Data Completed at 04/09/2020 1:15:00 PM 
Bill Master Value For Tax_Type Data Initiated at 04/09/2020 1:15:00 PM 
Bill Master Value For Tax_Type Data Completed at 04/09/2020 1:15:00 PM 
Bill Control Value For Mode_Of_Discount Data Initiated at 04/09/2020 1:15:00 PM 
Bill Control Value For Mode_Of_Discount Data Completed at 04/09/2020 1:15:00 PM 
Bill Master Value For OperatingUnit Data Initiated at 04/09/2020 1:15:00 PM 
Bill Master Value For OperatingUnit Data Completed at 04/09/2020 1:15:00 PM 
Bill Master Value For Subsidary Data Initiated at 04/09/2020 1:15:00 PM 
Bill Master Value For Subsidary Data Completed at 04/09/2020 1:15:00 PM 
Bill Control Value For Classification Data Initiated at 04/09/2020 1:15:00 PM 
Bill Control Value For Classification Data Completed at 04/09/2020 1:15:00 PM 
Bill Control Value For Department Data Initiated at 04/09/2020 1:15:00 PM 
Bill Control Value For Department Data Completed at 04/09/2020 1:15:00 PM 
Bill Master Value For Refered_Form Data Initiated at 04/09/2020 1:15:00 PM 
Bill Master Value For Refered_Form Data Completed at 04/09/2020 1:15:00 PM 
Bill Control Value For Payee_Type Data Initiated at 04/09/2020 1:15:00 PM 
Bill Control Value For Payee_Type Data Completed at 04/09/2020 1:15:00 PM 
Bill Master Value For Vendor Data Initiated at 04/09/2020 1:15:00 PM 
Bill Master Value For Vendor Data Completed at 04/09/2020 1:15:00 PM 
Bill Master Value For Receipt_Type Data Initiated at 04/09/2020 1:15:00 PM 
Bill Master Value For Receipt_Type Data Completed at 04/09/2020 1:15:00 PM 
Bill Master Value For Payment_Terms Data Initiated at 04/09/2020 1:15:00 PM 
Bill Master Value For Payment_Terms Data Completed at 04/09/2020 1:15:00 PM 
Bill Master Value For Purchase_Order# Data Initiated at 04/09/2020 1:15:00 PM 
Bill Master Value For Purchase_Order# Data Completed at 04/09/2020 1:15:00 PM 
Bill Master Value For Quotation# Data Initiated at 04/09/2020 1:15:00 PM 
Bill Master Value For Quotation# Data Completed at 04/09/2020 1:15:00 PM 
Bill Control Value For GST_Category Data Initiated at 04/09/2020 1:15:00 PM 
Bill Control Value For GST_Category Data Completed at 04/09/2020 1:15:00 PM 
Bill Master Value For Place_Of_Supply Data Initiated at 04/09/2020 1:15:00 PM 
Bill Master Value For Place_Of_Supply Data Completed at 04/09/2020 1:15:00 PM 
Bill Control Value For Payment_Mode Data Initiated at 04/09/2020 1:15:00 PM 
Bill Control Value For Payment_Mode Data Completed at 04/09/2020 1:15:00 PM 
Bill Master Value For Project# Data Initiated at 04/09/2020 1:15:00 PM 
Bill Master Value For Project# Data Completed at 04/09/2020 1:15:00 PM 
Bill Master Value For Operating_Unit Data Initiated at 04/09/2020 1:15:00 PM 
Bill Master Value For Operating_Unit Data Completed at 04/09/2020 1:15:00 PM 
Bill Master Value For Location_ Data Initiated at 04/09/2020 1:15:00 PM 
Bill Master Value For Location_ Data Completed at 04/09/2020 1:15:00 PM 
Bill Control Value For Department Data Initiated at 04/09/2020 1:15:00 PM 
Bill Control Value For Department Data Completed at 04/09/2020 1:15:00 PM 
Bill Master Value For Subsidary Data Initiated at 04/09/2020 1:15:00 PM 
Bill Master Value For Subsidary Data Completed at 04/09/2020 1:15:00 PM 
Bill Control Value For Exclusive Data Initiated at 04/09/2020 1:15:00 PM 
Bill Control Value For Exclusive Data Completed at 04/09/2020 1:15:00 PM 
Bill Master Value For Tax Data Initiated at 04/09/2020 1:15:00 PM 
Bill Master Value For Tax Data Completed at 04/09/2020 1:15:00 PM 
Bill Control Value For TDSType Data Initiated at 04/09/2020 1:15:00 PM 
Bill Control Value For TDSType Data Completed at 04/09/2020 1:15:00 PM 
Bill GridView For Class Data Initiated at 04/09/2020 1:15:00 PM 
Bill GridView For Class Data Completed at 04/09/2020 1:15:00 PM 
Bill Control Value For Shipping_Carrier Data Initiated at 04/09/2020 1:15:00 PM 
Bill Control Value For Shipping_Carrier Data Completed at 04/09/2020 1:15:00 PM 
Bill Control Value For Mode_Of_Transportation Data Initiated at 04/09/2020 1:15:00 PM 
Bill Control Value For Mode_Of_Transportation Data Completed at 04/09/2020 1:15:00 PM 
Bill Master Value For Packing_Tax Data Initiated at 04/09/2020 1:15:00 PM 
Bill Master Value For Packing_Tax Data Completed at 04/09/2020 1:15:00 PM 
Bill Master Value For Shipping_Tax Data Initiated at 04/09/2020 1:15:00 PM 
Bill Master Value For Shipping_Tax Data Completed at 04/09/2020 1:15:00 PM 
Bill Master Value For Other_Tax Data Initiated at 04/09/2020 1:15:00 PM 
Bill Master Value For Other_Tax Data Completed at 04/09/2020 1:15:00 PM 
Bill Feilds are Created at 04/09/2020 1:15:01 PM 
Bill Feilds Creation Completed For PUTABLE005 at 04/09/2020 1:15:01 PM 
Bill Feilds are Created at 04/09/2020 1:15:01 PM 
Bill Feilds Creation Completed For PUTABLE006 at 04/09/2020 1:15:01 PM 
Bill Total Fields Creation Completed at 04/09/2020 1:15:01 PM 
Bill Process Completed at 04/09/2020 1:15:01 PM 
 04/09/2020 1:15:01 PM
Bill Process Initiated at 04/09/2020 1:15:19 PM 
Bill Tabs are Created at 04/09/2020 1:15:19 PM 
Bill Master Value For Item_Receipt# Data Initiated at 04/09/2020 1:15:19 PM 
Bill Master Value For Item_Receipt# Data Completed at 04/09/2020 1:15:19 PM 
Bill Master Value For Item Data Initiated at 04/09/2020 1:15:19 PM 
Bill Master Value For Item Data Completed at 04/09/2020 1:15:19 PM 
Bill Control Value For Units Data Initiated at 04/09/2020 1:15:19 PM 
Bill Control Value For Units Data Completed at 04/09/2020 1:15:19 PM 
Bill Master Value For Lot# Data Initiated at 04/09/2020 1:15:19 PM 
Bill Master Value For Lot# Data Completed at 04/09/2020 1:15:19 PM 
Bill Master Value For Location Data Initiated at 04/09/2020 1:15:19 PM 
Bill Master Value For Location Data Completed at 04/09/2020 1:15:19 PM 
Bill Master Value For Tax_Type Data Initiated at 04/09/2020 1:15:19 PM 
Bill Master Value For Tax_Type Data Completed at 04/09/2020 1:15:19 PM 
Bill Control Value For Mode_Of_Discount Data Initiated at 04/09/2020 1:15:19 PM 
Bill Control Value For Mode_Of_Discount Data Completed at 04/09/2020 1:15:19 PM 
Bill Master Value For OperatingUnit Data Initiated at 04/09/2020 1:15:19 PM 
Bill Master Value For OperatingUnit Data Completed at 04/09/2020 1:15:19 PM 
Bill Master Value For Subsidary Data Initiated at 04/09/2020 1:15:19 PM 
Bill Master Value For Subsidary Data Completed at 04/09/2020 1:15:19 PM 
Bill Control Value For Classification Data Initiated at 04/09/2020 1:15:19 PM 
Bill Control Value For Classification Data Completed at 04/09/2020 1:15:19 PM 
Bill Control Value For Department Data Initiated at 04/09/2020 1:15:19 PM 
Bill Control Value For Department Data Completed at 04/09/2020 1:15:19 PM 
Bill Master Value For Refered_Form Data Initiated at 04/09/2020 1:15:19 PM 
Bill Master Value For Refered_Form Data Completed at 04/09/2020 1:15:19 PM 
Bill Control Value For Payee_Type Data Initiated at 04/09/2020 1:15:19 PM 
Bill Control Value For Payee_Type Data Completed at 04/09/2020 1:15:19 PM 
Bill Master Value For Vendor Data Initiated at 04/09/2020 1:15:19 PM 
Bill Master Value For Vendor Data Completed at 04/09/2020 1:15:19 PM 
Bill Master Value For Receipt_Type Data Initiated at 04/09/2020 1:15:19 PM 
Bill Master Value For Receipt_Type Data Completed at 04/09/2020 1:15:19 PM 
Bill Master Value For Payment_Terms Data Initiated at 04/09/2020 1:15:19 PM 
Bill Master Value For Payment_Terms Data Completed at 04/09/2020 1:15:19 PM 
Bill Master Value For Purchase_Order# Data Initiated at 04/09/2020 1:15:19 PM 
Bill Master Value For Purchase_Order# Data Completed at 04/09/2020 1:15:19 PM 
Bill Master Value For Quotation# Data Initiated at 04/09/2020 1:15:19 PM 
Bill Master Value For Quotation# Data Completed at 04/09/2020 1:15:19 PM 
Bill Control Value For GST_Category Data Initiated at 04/09/2020 1:15:19 PM 
Bill Control Value For GST_Category Data Completed at 04/09/2020 1:15:19 PM 
Bill Master Value For Place_Of_Supply Data Initiated at 04/09/2020 1:15:19 PM 
Bill Master Value For Place_Of_Supply Data Completed at 04/09/2020 1:15:19 PM 
Bill Control Value For Payment_Mode Data Initiated at 04/09/2020 1:15:19 PM 
Bill Control Value For Payment_Mode Data Completed at 04/09/2020 1:15:19 PM 
Bill Master Value For Project# Data Initiated at 04/09/2020 1:15:19 PM 
Bill Master Value For Project# Data Completed at 04/09/2020 1:15:19 PM 
Bill Master Value For Operating_Unit Data Initiated at 04/09/2020 1:15:19 PM 
Bill Master Value For Operating_Unit Data Completed at 04/09/2020 1:15:19 PM 
Bill Master Value For Location_ Data Initiated at 04/09/2020 1:15:19 PM 
Bill Master Value For Location_ Data Completed at 04/09/2020 1:15:19 PM 
Bill Control Value For Department Data Initiated at 04/09/2020 1:15:19 PM 
Bill Control Value For Department Data Completed at 04/09/2020 1:15:19 PM 
Bill Master Value For Subsidary Data Initiated at 04/09/2020 1:15:19 PM 
Bill Master Value For Subsidary Data Completed at 04/09/2020 1:15:19 PM 
Bill Control Value For Exclusive Data Initiated at 04/09/2020 1:15:19 PM 
Bill Control Value For Exclusive Data Completed at 04/09/2020 1:15:19 PM 
Bill Master Value For Tax Data Initiated at 04/09/2020 1:15:19 PM 
Bill Master Value For Tax Data Completed at 04/09/2020 1:15:19 PM 
Bill Control Value For TDSType Data Initiated at 04/09/2020 1:15:19 PM 
Bill Control Value For TDSType Data Completed at 04/09/2020 1:15:19 PM 
Bill GridView For Class Data Initiated at 04/09/2020 1:15:19 PM 
Bill GridView For Class Data Completed at 04/09/2020 1:15:19 PM 
Bill Control Value For Shipping_Carrier Data Initiated at 04/09/2020 1:15:19 PM 
Bill Control Value For Shipping_Carrier Data Completed at 04/09/2020 1:15:19 PM 
Bill Control Value For Mode_Of_Transportation Data Initiated at 04/09/2020 1:15:19 PM 
Bill Control Value For Mode_Of_Transportation Data Completed at 04/09/2020 1:15:19 PM 
Bill Master Value For Packing_Tax Data Initiated at 04/09/2020 1:15:19 PM 
Bill Master Value For Packing_Tax Data Completed at 04/09/2020 1:15:19 PM 
Bill Master Value For Shipping_Tax Data Initiated at 04/09/2020 1:15:19 PM 
Bill Master Value For Shipping_Tax Data Completed at 04/09/2020 1:15:19 PM 
Bill Master Value For Other_Tax Data Initiated at 04/09/2020 1:15:19 PM 
Bill Master Value For Other_Tax Data Completed at 04/09/2020 1:15:19 PM 
Bill Feilds are Created at 04/09/2020 1:15:20 PM 
Bill Feilds Creation Completed For PUTABLE005 at 04/09/2020 1:15:20 PM 
Bill Feilds are Created at 04/09/2020 1:15:20 PM 
Bill Feilds Creation Completed For PUTABLE006 at 04/09/2020 1:15:20 PM 
Bill Total Fields Creation Completed at 04/09/2020 1:15:20 PM 
Bill Process Completed at 04/09/2020 1:15:20 PM 
 04/09/2020 1:15:20 PM
 
***********************TARGET1*********************** 
 
 Line Data Received . 04/09/2020 1:15:33 PM
Bill Process Initiated at 04/09/2020 1:16:19 PM 
Bill Tabs are Created at 04/09/2020 1:16:19 PM 
Bill Master Value For Item_Receipt# Data Initiated at 04/09/2020 1:16:19 PM 
Bill Master Value For Item_Receipt# Data Completed at 04/09/2020 1:16:19 PM 
Bill Master Value For Item Data Initiated at 04/09/2020 1:16:19 PM 
Bill Master Value For Item Data Completed at 04/09/2020 1:16:19 PM 
Bill Control Value For Units Data Initiated at 04/09/2020 1:16:19 PM 
Bill Control Value For Units Data Completed at 04/09/2020 1:16:19 PM 
Bill Master Value For Lot# Data Initiated at 04/09/2020 1:16:19 PM 
Bill Master Value For Lot# Data Completed at 04/09/2020 1:16:19 PM 
Bill Master Value For Location Data Initiated at 04/09/2020 1:16:19 PM 
Bill Master Value For Location Data Completed at 04/09/2020 1:16:19 PM 
Bill Master Value For Tax_Type Data Initiated at 04/09/2020 1:16:19 PM 
Bill Master Value For Tax_Type Data Completed at 04/09/2020 1:16:19 PM 
Bill Control Value For Mode_Of_Discount Data Initiated at 04/09/2020 1:16:19 PM 
Bill Control Value For Mode_Of_Discount Data Completed at 04/09/2020 1:16:19 PM 
Bill Master Value For OperatingUnit Data Initiated at 04/09/2020 1:16:19 PM 
Bill Master Value For OperatingUnit Data Completed at 04/09/2020 1:16:19 PM 
Bill Master Value For Subsidary Data Initiated at 04/09/2020 1:16:19 PM 
Bill Master Value For Subsidary Data Completed at 04/09/2020 1:16:19 PM 
Bill Control Value For Classification Data Initiated at 04/09/2020 1:16:19 PM 
Bill Control Value For Classification Data Completed at 04/09/2020 1:16:19 PM 
Bill Control Value For Department Data Initiated at 04/09/2020 1:16:19 PM 
Bill Control Value For Department Data Completed at 04/09/2020 1:16:19 PM 
Bill Master Value For Refered_Form Data Initiated at 04/09/2020 1:16:19 PM 
Bill Master Value For Refered_Form Data Completed at 04/09/2020 1:16:19 PM 
Bill Control Value For Payee_Type Data Initiated at 04/09/2020 1:16:19 PM 
Bill Control Value For Payee_Type Data Completed at 04/09/2020 1:16:19 PM 
Bill Master Value For Vendor Data Initiated at 04/09/2020 1:16:19 PM 
Bill Master Value For Vendor Data Completed at 04/09/2020 1:16:19 PM 
Bill Master Value For Receipt_Type Data Initiated at 04/09/2020 1:16:19 PM 
Bill Master Value For Receipt_Type Data Completed at 04/09/2020 1:16:19 PM 
Bill Master Value For Payment_Terms Data Initiated at 04/09/2020 1:16:19 PM 
Bill Master Value For Payment_Terms Data Completed at 04/09/2020 1:16:19 PM 
Bill Master Value For Purchase_Order# Data Initiated at 04/09/2020 1:16:19 PM 
Bill Master Value For Purchase_Order# Data Completed at 04/09/2020 1:16:19 PM 
Bill Master Value For Quotation# Data Initiated at 04/09/2020 1:16:19 PM 
Bill Master Value For Quotation# Data Completed at 04/09/2020 1:16:19 PM 
Bill Control Value For GST_Category Data Initiated at 04/09/2020 1:16:19 PM 
Bill Control Value For GST_Category Data Completed at 04/09/2020 1:16:19 PM 
Bill Master Value For Place_Of_Supply Data Initiated at 04/09/2020 1:16:19 PM 
Bill Master Value For Place_Of_Supply Data Completed at 04/09/2020 1:16:19 PM 
Bill Control Value For Payment_Mode Data Initiated at 04/09/2020 1:16:19 PM 
Bill Control Value For Payment_Mode Data Completed at 04/09/2020 1:16:19 PM 
Bill Master Value For Project# Data Initiated at 04/09/2020 1:16:19 PM 
Bill Master Value For Project# Data Completed at 04/09/2020 1:16:19 PM 
Bill Master Value For Operating_Unit Data Initiated at 04/09/2020 1:16:19 PM 
Bill Master Value For Operating_Unit Data Completed at 04/09/2020 1:16:19 PM 
Bill Master Value For Location_ Data Initiated at 04/09/2020 1:16:19 PM 
Bill Master Value For Location_ Data Completed at 04/09/2020 1:16:19 PM 
Bill Control Value For Department Data Initiated at 04/09/2020 1:16:19 PM 
Bill Control Value For Department Data Completed at 04/09/2020 1:16:19 PM 
Bill Master Value For Subsidary Data Initiated at 04/09/2020 1:16:19 PM 
Bill Master Value For Subsidary Data Completed at 04/09/2020 1:16:19 PM 
Bill Control Value For Exclusive Data Initiated at 04/09/2020 1:16:19 PM 
Bill Control Value For Exclusive Data Completed at 04/09/2020 1:16:19 PM 
Bill Master Value For Tax Data Initiated at 04/09/2020 1:16:19 PM 
Bill Master Value For Tax Data Completed at 04/09/2020 1:16:19 PM 
Bill Control Value For TDSType Data Initiated at 04/09/2020 1:16:19 PM 
Bill Control Value For TDSType Data Completed at 04/09/2020 1:16:19 PM 
Bill GridView For Class Data Initiated at 04/09/2020 1:16:19 PM 
Bill GridView For Class Data Completed at 04/09/2020 1:16:19 PM 
Bill Control Value For Shipping_Carrier Data Initiated at 04/09/2020 1:16:19 PM 
Bill Control Value For Shipping_Carrier Data Completed at 04/09/2020 1:16:19 PM 
Bill Control Value For Mode_Of_Transportation Data Initiated at 04/09/2020 1:16:19 PM 
Bill Control Value For Mode_Of_Transportation Data Completed at 04/09/2020 1:16:19 PM 
Bill Master Value For Packing_Tax Data Initiated at 04/09/2020 1:16:19 PM 
Bill Master Value For Packing_Tax Data Completed at 04/09/2020 1:16:19 PM 
Bill Master Value For Shipping_Tax Data Initiated at 04/09/2020 1:16:19 PM 
Bill Master Value For Shipping_Tax Data Completed at 04/09/2020 1:16:19 PM 
Bill Master Value For Other_Tax Data Initiated at 04/09/2020 1:16:19 PM 
Bill Master Value For Other_Tax Data Completed at 04/09/2020 1:16:19 PM 
Bill Feilds are Created at 04/09/2020 1:16:19 PM 
Bill Feilds Creation Completed For PUTABLE005 at 04/09/2020 1:16:19 PM 
Bill Feilds are Created at 04/09/2020 1:16:19 PM 
Bill Feilds Creation Completed For PUTABLE006 at 04/09/2020 1:16:19 PM 
Bill Total Fields Creation Completed at 04/09/2020 1:16:19 PM 
Bill Process Completed at 04/09/2020 1:16:20 PM 
 04/09/2020 1:16:20 PM
 
***********************TARGET1*********************** 
 
 Line Data Received . 04/09/2020 1:16:33 PM
 
***********************TARGET4*********************** 
 
 Header Data Created for Bill . 
 
 04/09/2020 1:16:37 PM
 
***********************TARGET7*********************** 
 
 Line Data 0 Created For Bill . 
 
 04/09/2020 1:16:39 PM
Bill Process Initiated at 04/09/2020 1:16:48 PM 
Bill Tabs are Created at 04/09/2020 1:16:48 PM 
Bill Master Value For Item_Receipt# Data Initiated at 04/09/2020 1:16:48 PM 
Bill Master Value For Item_Receipt# Data Completed at 04/09/2020 1:16:48 PM 
Bill Master Value For Item Data Initiated at 04/09/2020 1:16:48 PM 
Bill Master Value For Item Data Completed at 04/09/2020 1:16:48 PM 
Bill Control Value For Units Data Initiated at 04/09/2020 1:16:48 PM 
Bill Control Value For Units Data Completed at 04/09/2020 1:16:48 PM 
Bill Master Value For Lot# Data Initiated at 04/09/2020 1:16:48 PM 
Bill Master Value For Lot# Data Completed at 04/09/2020 1:16:48 PM 
Bill Master Value For Location Data Initiated at 04/09/2020 1:16:48 PM 
Bill Master Value For Location Data Completed at 04/09/2020 1:16:48 PM 
Bill Master Value For Tax_Type Data Initiated at 04/09/2020 1:16:48 PM 
Bill Master Value For Tax_Type Data Completed at 04/09/2020 1:16:48 PM 
Bill Control Value For Mode_Of_Discount Data Initiated at 04/09/2020 1:16:48 PM 
Bill Control Value For Mode_Of_Discount Data Completed at 04/09/2020 1:16:48 PM 
Bill Master Value For OperatingUnit Data Initiated at 04/09/2020 1:16:48 PM 
Bill Master Value For OperatingUnit Data Completed at 04/09/2020 1:16:48 PM 
Bill Master Value For Subsidary Data Initiated at 04/09/2020 1:16:48 PM 
Bill Master Value For Subsidary Data Completed at 04/09/2020 1:16:48 PM 
Bill Control Value For Classification Data Initiated at 04/09/2020 1:16:48 PM 
Bill Control Value For Classification Data Completed at 04/09/2020 1:16:48 PM 
Bill Control Value For Department Data Initiated at 04/09/2020 1:16:48 PM 
Bill Control Value For Department Data Completed at 04/09/2020 1:16:48 PM 
Bill Master Value For Refered_Form Data Initiated at 04/09/2020 1:16:48 PM 
Bill Master Value For Refered_Form Data Completed at 04/09/2020 1:16:48 PM 
Bill Control Value For Payee_Type Data Initiated at 04/09/2020 1:16:48 PM 
Bill Control Value For Payee_Type Data Completed at 04/09/2020 1:16:48 PM 
Bill Master Value For Vendor Data Initiated at 04/09/2020 1:16:48 PM 
Bill Master Value For Vendor Data Completed at 04/09/2020 1:16:48 PM 
Bill Master Value For Receipt_Type Data Initiated at 04/09/2020 1:16:48 PM 
Bill Master Value For Receipt_Type Data Completed at 04/09/2020 1:16:48 PM 
Bill Master Value For Payment_Terms Data Initiated at 04/09/2020 1:16:48 PM 
Bill Master Value For Payment_Terms Data Completed at 04/09/2020 1:16:48 PM 
Bill Master Value For Purchase_Order# Data Initiated at 04/09/2020 1:16:48 PM 
Bill Master Value For Purchase_Order# Data Completed at 04/09/2020 1:16:49 PM 
Bill Master Value For Quotation# Data Initiated at 04/09/2020 1:16:49 PM 
Bill Master Value For Quotation# Data Completed at 04/09/2020 1:16:49 PM 
Bill Control Value For GST_Category Data Initiated at 04/09/2020 1:16:49 PM 
Bill Control Value For GST_Category Data Completed at 04/09/2020 1:16:49 PM 
Bill Master Value For Place_Of_Supply Data Initiated at 04/09/2020 1:16:49 PM 
Bill Master Value For Place_Of_Supply Data Completed at 04/09/2020 1:16:49 PM 
Bill Control Value For Payment_Mode Data Initiated at 04/09/2020 1:16:49 PM 
Bill Control Value For Payment_Mode Data Completed at 04/09/2020 1:16:49 PM 
Bill Master Value For Project# Data Initiated at 04/09/2020 1:16:49 PM 
Bill Master Value For Project# Data Completed at 04/09/2020 1:16:49 PM 
Bill Master Value For Operating_Unit Data Initiated at 04/09/2020 1:16:49 PM 
Bill Master Value For Operating_Unit Data Completed at 04/09/2020 1:16:49 PM 
Bill Master Value For Location_ Data Initiated at 04/09/2020 1:16:49 PM 
Bill Master Value For Location_ Data Completed at 04/09/2020 1:16:49 PM 
Bill Control Value For Department Data Initiated at 04/09/2020 1:16:49 PM 
Bill Control Value For Department Data Completed at 04/09/2020 1:16:49 PM 
Bill Master Value For Subsidary Data Initiated at 04/09/2020 1:16:49 PM 
Bill Master Value For Subsidary Data Completed at 04/09/2020 1:16:49 PM 
Bill Control Value For Exclusive Data Initiated at 04/09/2020 1:16:49 PM 
Bill Control Value For Exclusive Data Completed at 04/09/2020 1:16:49 PM 
Bill Master Value For Tax Data Initiated at 04/09/2020 1:16:49 PM 
Bill Master Value For Tax Data Completed at 04/09/2020 1:16:49 PM 
Bill Control Value For TDSType Data Initiated at 04/09/2020 1:16:49 PM 
Bill Control Value For TDSType Data Completed at 04/09/2020 1:16:49 PM 
Bill GridView For Class Data Initiated at 04/09/2020 1:16:49 PM 
Bill GridView For Class Data Completed at 04/09/2020 1:16:49 PM 
Bill Control Value For Shipping_Carrier Data Initiated at 04/09/2020 1:16:49 PM 
Bill Control Value For Shipping_Carrier Data Completed at 04/09/2020 1:16:49 PM 
Bill Control Value For Mode_Of_Transportation Data Initiated at 04/09/2020 1:16:49 PM 
Bill Control Value For Mode_Of_Transportation Data Completed at 04/09/2020 1:16:49 PM 
Bill Master Value For Packing_Tax Data Initiated at 04/09/2020 1:16:49 PM 
Bill Master Value For Packing_Tax Data Completed at 04/09/2020 1:16:49 PM 
Bill Master Value For Shipping_Tax Data Initiated at 04/09/2020 1:16:49 PM 
Bill Master Value For Shipping_Tax Data Completed at 04/09/2020 1:16:49 PM 
Bill Master Value For Other_Tax Data Initiated at 04/09/2020 1:16:49 PM 
Bill Master Value For Other_Tax Data Completed at 04/09/2020 1:16:49 PM 
Bill Feilds are Created at 04/09/2020 1:16:49 PM 
Bill Feilds Creation Completed For PUTABLE005 at 04/09/2020 1:16:49 PM 
Bill Feilds are Created at 04/09/2020 1:16:49 PM 
Bill Feilds Creation Completed For PUTABLE006 at 04/09/2020 1:16:49 PM 
Bill Total Fields Creation Completed at 04/09/2020 1:16:49 PM 
Bill Process Completed at 04/09/2020 1:16:49 PM 
 04/09/2020 1:16:49 PM
Bill Process Initiated at 04/09/2020 1:25:16 PM 
Bill Tabs are Created at 04/09/2020 1:25:16 PM 
Bill Master Value For Item_Receipt# Data Initiated at 04/09/2020 1:25:16 PM 
Bill Master Value For Item_Receipt# Data Completed at 04/09/2020 1:25:16 PM 
Bill Master Value For Item Data Initiated at 04/09/2020 1:25:16 PM 
Bill Master Value For Item Data Completed at 04/09/2020 1:25:16 PM 
Bill Control Value For Units Data Initiated at 04/09/2020 1:25:16 PM 
Bill Control Value For Units Data Completed at 04/09/2020 1:25:16 PM 
Bill Master Value For Lot# Data Initiated at 04/09/2020 1:25:16 PM 
Bill Master Value For Lot# Data Completed at 04/09/2020 1:25:16 PM 
Bill Master Value For Location Data Initiated at 04/09/2020 1:25:16 PM 
Bill Master Value For Location Data Completed at 04/09/2020 1:25:16 PM 
Bill Master Value For Tax_Type Data Initiated at 04/09/2020 1:25:16 PM 
Bill Master Value For Tax_Type Data Completed at 04/09/2020 1:25:16 PM 
Bill Control Value For Mode_Of_Discount Data Initiated at 04/09/2020 1:25:16 PM 
Bill Control Value For Mode_Of_Discount Data Completed at 04/09/2020 1:25:16 PM 
Bill Master Value For OperatingUnit Data Initiated at 04/09/2020 1:25:16 PM 
Bill Master Value For OperatingUnit Data Completed at 04/09/2020 1:25:16 PM 
Bill Master Value For Subsidary Data Initiated at 04/09/2020 1:25:16 PM 
Bill Master Value For Subsidary Data Completed at 04/09/2020 1:25:16 PM 
Bill Control Value For Classification Data Initiated at 04/09/2020 1:25:16 PM 
Bill Control Value For Classification Data Completed at 04/09/2020 1:25:16 PM 
Bill Control Value For Department Data Initiated at 04/09/2020 1:25:16 PM 
Bill Control Value For Department Data Completed at 04/09/2020 1:25:16 PM 
Bill Master Value For Refered_Form Data Initiated at 04/09/2020 1:25:16 PM 
Bill Master Value For Refered_Form Data Completed at 04/09/2020 1:25:16 PM 
Bill Control Value For Payee_Type Data Initiated at 04/09/2020 1:25:16 PM 
Bill Control Value For Payee_Type Data Completed at 04/09/2020 1:25:16 PM 
Bill Master Value For Vendor Data Initiated at 04/09/2020 1:25:16 PM 
Bill Master Value For Vendor Data Completed at 04/09/2020 1:25:16 PM 
Bill Master Value For Receipt_Type Data Initiated at 04/09/2020 1:25:16 PM 
Bill Master Value For Receipt_Type Data Completed at 04/09/2020 1:25:16 PM 
Bill Master Value For Payment_Terms Data Initiated at 04/09/2020 1:25:16 PM 
Bill Master Value For Payment_Terms Data Completed at 04/09/2020 1:25:16 PM 
Bill Master Value For Purchase_Order# Data Initiated at 04/09/2020 1:25:16 PM 
Bill Master Value For Purchase_Order# Data Completed at 04/09/2020 1:25:16 PM 
Bill Master Value For Quotation# Data Initiated at 04/09/2020 1:25:16 PM 
Bill Master Value For Quotation# Data Completed at 04/09/2020 1:25:16 PM 
Bill Control Value For GST_Category Data Initiated at 04/09/2020 1:25:16 PM 
Bill Control Value For GST_Category Data Completed at 04/09/2020 1:25:16 PM 
Bill Master Value For Place_Of_Supply Data Initiated at 04/09/2020 1:25:16 PM 
Bill Master Value For Place_Of_Supply Data Completed at 04/09/2020 1:25:16 PM 
Bill Control Value For Payment_Mode Data Initiated at 04/09/2020 1:25:16 PM 
Bill Control Value For Payment_Mode Data Completed at 04/09/2020 1:25:16 PM 
Bill Master Value For Project# Data Initiated at 04/09/2020 1:25:16 PM 
Bill Master Value For Project# Data Completed at 04/09/2020 1:25:16 PM 
Bill Master Value For Operating_Unit Data Initiated at 04/09/2020 1:25:16 PM 
Bill Master Value For Operating_Unit Data Completed at 04/09/2020 1:25:16 PM 
Bill Master Value For Location_ Data Initiated at 04/09/2020 1:25:16 PM 
Bill Master Value For Location_ Data Completed at 04/09/2020 1:25:16 PM 
Bill Control Value For Department Data Initiated at 04/09/2020 1:25:16 PM 
Bill Control Value For Department Data Completed at 04/09/2020 1:25:16 PM 
Bill Master Value For Subsidary Data Initiated at 04/09/2020 1:25:16 PM 
Bill Master Value For Subsidary Data Completed at 04/09/2020 1:25:16 PM 
Bill Control Value For Exclusive Data Initiated at 04/09/2020 1:25:16 PM 
Bill Control Value For Exclusive Data Completed at 04/09/2020 1:25:16 PM 
Bill Master Value For Tax Data Initiated at 04/09/2020 1:25:16 PM 
Bill Master Value For Tax Data Completed at 04/09/2020 1:25:16 PM 
Bill Control Value For TDSType Data Initiated at 04/09/2020 1:25:16 PM 
Bill Control Value For TDSType Data Completed at 04/09/2020 1:25:16 PM 
Bill GridView For Class Data Initiated at 04/09/2020 1:25:16 PM 
Bill GridView For Class Data Completed at 04/09/2020 1:25:16 PM 
Bill Control Value For Shipping_Carrier Data Initiated at 04/09/2020 1:25:16 PM 
Bill Control Value For Shipping_Carrier Data Completed at 04/09/2020 1:25:16 PM 
Bill Control Value For Mode_Of_Transportation Data Initiated at 04/09/2020 1:25:16 PM 
Bill Control Value For Mode_Of_Transportation Data Completed at 04/09/2020 1:25:16 PM 
Bill Master Value For Packing_Tax Data Initiated at 04/09/2020 1:25:16 PM 
Bill Master Value For Packing_Tax Data Completed at 04/09/2020 1:25:16 PM 
Bill Master Value For Shipping_Tax Data Initiated at 04/09/2020 1:25:16 PM 
Bill Master Value For Shipping_Tax Data Completed at 04/09/2020 1:25:16 PM 
Bill Master Value For Other_Tax Data Initiated at 04/09/2020 1:25:16 PM 
Bill Master Value For Other_Tax Data Completed at 04/09/2020 1:25:16 PM 
Bill Feilds are Created at 04/09/2020 1:25:16 PM 
Bill Feilds Creation Completed For PUTABLE005 at 04/09/2020 1:25:17 PM 
Bill Feilds are Created at 04/09/2020 1:25:17 PM 
Bill Feilds Creation Completed For PUTABLE006 at 04/09/2020 1:25:17 PM 
Bill Total Fields Creation Completed at 04/09/2020 1:25:17 PM 
Bill Process Completed at 04/09/2020 1:25:17 PM 
 04/09/2020 1:25:17 PM
 
***********************TARGET1*********************** 
 
 Line Data Received . 04/09/2020 1:25:32 PM
 
***********************TARGET4*********************** 
 
 Header Data Created for Bill . 
 
 04/09/2020 1:25:34 PM
 
***********************TARGET7*********************** 
 
 Line Data 0 Created For Bill . 
 
 04/09/2020 1:25:36 PM
Bill Process Initiated at 04/09/2020 2:21:58 PM 
Bill Tabs are Created at 04/09/2020 2:21:58 PM 
Bill Master Value For Item_Receipt# Data Initiated at 04/09/2020 2:21:58 PM 
Bill Master Value For Item_Receipt# Data Completed at 04/09/2020 2:21:58 PM 
Bill Master Value For Item Data Initiated at 04/09/2020 2:21:58 PM 
Bill Master Value For Item Data Completed at 04/09/2020 2:21:58 PM 
Bill Control Value For Units Data Initiated at 04/09/2020 2:21:58 PM 
Bill Control Value For Units Data Completed at 04/09/2020 2:21:58 PM 
Bill Master Value For Lot# Data Initiated at 04/09/2020 2:21:58 PM 
Bill Master Value For Lot# Data Completed at 04/09/2020 2:21:58 PM 
Bill Master Value For Location Data Initiated at 04/09/2020 2:21:58 PM 
Bill Master Value For Location Data Completed at 04/09/2020 2:21:58 PM 
Bill Master Value For Tax_Type Data Initiated at 04/09/2020 2:21:58 PM 
Bill Master Value For Tax_Type Data Completed at 04/09/2020 2:21:58 PM 
Bill Control Value For Mode_Of_Discount Data Initiated at 04/09/2020 2:21:58 PM 
Bill Control Value For Mode_Of_Discount Data Completed at 04/09/2020 2:21:58 PM 
Bill Master Value For OperatingUnit Data Initiated at 04/09/2020 2:21:58 PM 
Bill Master Value For OperatingUnit Data Completed at 04/09/2020 2:21:58 PM 
Bill Master Value For Subsidary Data Initiated at 04/09/2020 2:21:58 PM 
Bill Master Value For Subsidary Data Completed at 04/09/2020 2:21:58 PM 
Bill Control Value For Classification Data Initiated at 04/09/2020 2:21:58 PM 
Bill Control Value For Classification Data Completed at 04/09/2020 2:21:58 PM 
Bill Control Value For Department Data Initiated at 04/09/2020 2:21:58 PM 
Bill Control Value For Department Data Completed at 04/09/2020 2:21:58 PM 
Bill Master Value For Refered_Form Data Initiated at 04/09/2020 2:21:58 PM 
Bill Master Value For Refered_Form Data Completed at 04/09/2020 2:21:58 PM 
Bill Control Value For Payee_Type Data Initiated at 04/09/2020 2:21:58 PM 
Bill Control Value For Payee_Type Data Completed at 04/09/2020 2:21:58 PM 
Bill Master Value For Vendor Data Initiated at 04/09/2020 2:21:58 PM 
Bill Master Value For Vendor Data Completed at 04/09/2020 2:21:58 PM 
Bill Master Value For Receipt_Type Data Initiated at 04/09/2020 2:21:58 PM 
Bill Master Value For Receipt_Type Data Completed at 04/09/2020 2:21:58 PM 
Bill Master Value For Payment_Terms Data Initiated at 04/09/2020 2:21:58 PM 
Bill Master Value For Payment_Terms Data Completed at 04/09/2020 2:21:58 PM 
Bill Master Value For Purchase_Order# Data Initiated at 04/09/2020 2:21:58 PM 
Bill Master Value For Purchase_Order# Data Completed at 04/09/2020 2:21:58 PM 
Bill Master Value For Quotation# Data Initiated at 04/09/2020 2:21:58 PM 
Bill Master Value For Quotation# Data Completed at 04/09/2020 2:21:58 PM 
Bill Control Value For GST_Category Data Initiated at 04/09/2020 2:21:58 PM 
Bill Control Value For GST_Category Data Completed at 04/09/2020 2:21:58 PM 
Bill Master Value For Place_Of_Supply Data Initiated at 04/09/2020 2:21:58 PM 
Bill Master Value For Place_Of_Supply Data Completed at 04/09/2020 2:21:58 PM 
Bill Control Value For Payment_Mode Data Initiated at 04/09/2020 2:21:58 PM 
Bill Control Value For Payment_Mode Data Completed at 04/09/2020 2:21:58 PM 
Bill Master Value For Project# Data Initiated at 04/09/2020 2:21:58 PM 
Bill Master Value For Project# Data Completed at 04/09/2020 2:21:58 PM 
Bill Master Value For Operating_Unit Data Initiated at 04/09/2020 2:21:58 PM 
Bill Master Value For Operating_Unit Data Completed at 04/09/2020 2:21:58 PM 
Bill Master Value For Location_ Data Initiated at 04/09/2020 2:21:58 PM 
Bill Master Value For Location_ Data Completed at 04/09/2020 2:21:58 PM 
Bill Control Value For Department Data Initiated at 04/09/2020 2:21:58 PM 
Bill Control Value For Department Data Completed at 04/09/2020 2:21:58 PM 
Bill Master Value For Subsidary Data Initiated at 04/09/2020 2:21:58 PM 
Bill Master Value For Subsidary Data Completed at 04/09/2020 2:21:58 PM 
Bill Control Value For Exclusive Data Initiated at 04/09/2020 2:21:58 PM 
Bill Control Value For Exclusive Data Completed at 04/09/2020 2:21:58 PM 
Bill Master Value For Tax Data Initiated at 04/09/2020 2:21:58 PM 
Bill Master Value For Tax Data Completed at 04/09/2020 2:21:58 PM 
Bill Control Value For TDSType Data Initiated at 04/09/2020 2:21:58 PM 
Bill Control Value For TDSType Data Completed at 04/09/2020 2:21:58 PM 
Bill GridView For Class Data Initiated at 04/09/2020 2:21:58 PM 
Bill GridView For Class Data Completed at 04/09/2020 2:21:58 PM 
Bill Control Value For Shipping_Carrier Data Initiated at 04/09/2020 2:21:58 PM 
Bill Control Value For Shipping_Carrier Data Completed at 04/09/2020 2:21:58 PM 
Bill Control Value For Mode_Of_Transportation Data Initiated at 04/09/2020 2:21:58 PM 
Bill Control Value For Mode_Of_Transportation Data Completed at 04/09/2020 2:21:58 PM 
Bill Master Value For Packing_Tax Data Initiated at 04/09/2020 2:21:58 PM 
Bill Master Value For Packing_Tax Data Completed at 04/09/2020 2:21:58 PM 
Bill Master Value For Shipping_Tax Data Initiated at 04/09/2020 2:21:58 PM 
Bill Master Value For Shipping_Tax Data Completed at 04/09/2020 2:21:58 PM 
Bill Master Value For Other_Tax Data Initiated at 04/09/2020 2:21:58 PM 
Bill Master Value For Other_Tax Data Completed at 04/09/2020 2:21:58 PM 
Bill Feilds are Created at 04/09/2020 2:21:58 PM 
Bill Feilds Creation Completed For PUTABLE005 at 04/09/2020 2:21:59 PM 
Bill Feilds are Created at 04/09/2020 2:21:59 PM 
Bill Feilds Creation Completed For PUTABLE006 at 04/09/2020 2:21:59 PM 
Bill Total Fields Creation Completed at 04/09/2020 2:21:59 PM 
Bill Process Completed at 04/09/2020 2:21:59 PM 
 04/09/2020 2:21:59 PM
Bill Process Initiated at 04/09/2020 4:25:55 PM 
Bill Tabs are Created at 04/09/2020 4:25:55 PM 
Bill Master Value For Item_Receipt# Data Initiated at 04/09/2020 4:25:55 PM 
Bill Master Value For Item_Receipt# Data Completed at 04/09/2020 4:25:55 PM 
Bill Master Value For Item Data Initiated at 04/09/2020 4:25:55 PM 
Bill Master Value For Item Data Completed at 04/09/2020 4:25:55 PM 
Bill Control Value For Units Data Initiated at 04/09/2020 4:25:55 PM 
Bill Control Value For Units Data Completed at 04/09/2020 4:25:55 PM 
Bill Master Value For Lot# Data Initiated at 04/09/2020 4:25:55 PM 
Bill Master Value For Lot# Data Completed at 04/09/2020 4:25:55 PM 
Bill Master Value For Location Data Initiated at 04/09/2020 4:25:55 PM 
Bill Master Value For Location Data Completed at 04/09/2020 4:25:55 PM 
Bill Master Value For Tax_Type Data Initiated at 04/09/2020 4:25:55 PM 
Bill Master Value For Tax_Type Data Completed at 04/09/2020 4:25:55 PM 
Bill Control Value For Mode_Of_Discount Data Initiated at 04/09/2020 4:25:55 PM 
Bill Control Value For Mode_Of_Discount Data Completed at 04/09/2020 4:25:55 PM 
Bill Master Value For OperatingUnit Data Initiated at 04/09/2020 4:25:55 PM 
Bill Master Value For OperatingUnit Data Completed at 04/09/2020 4:25:55 PM 
Bill Master Value For Subsidary Data Initiated at 04/09/2020 4:25:55 PM 
Bill Master Value For Subsidary Data Completed at 04/09/2020 4:25:55 PM 
Bill Control Value For Classification Data Initiated at 04/09/2020 4:25:55 PM 
Bill Control Value For Classification Data Completed at 04/09/2020 4:25:55 PM 
Bill Control Value For Department Data Initiated at 04/09/2020 4:25:55 PM 
Bill Control Value For Department Data Completed at 04/09/2020 4:25:55 PM 
Bill Master Value For Refered_Form Data Initiated at 04/09/2020 4:25:55 PM 
Bill Master Value For Refered_Form Data Completed at 04/09/2020 4:25:55 PM 
Bill Control Value For Payee_Type Data Initiated at 04/09/2020 4:25:55 PM 
Bill Control Value For Payee_Type Data Completed at 04/09/2020 4:25:55 PM 
Bill Master Value For Vendor Data Initiated at 04/09/2020 4:25:55 PM 
Bill Master Value For Vendor Data Completed at 04/09/2020 4:25:55 PM 
Bill Master Value For Receipt_Type Data Initiated at 04/09/2020 4:25:55 PM 
Bill Master Value For Receipt_Type Data Completed at 04/09/2020 4:25:55 PM 
Bill Master Value For Payment_Terms Data Initiated at 04/09/2020 4:25:55 PM 
Bill Master Value For Payment_Terms Data Completed at 04/09/2020 4:25:55 PM 
Bill Master Value For Purchase_Order# Data Initiated at 04/09/2020 4:25:55 PM 
Bill Master Value For Purchase_Order# Data Completed at 04/09/2020 4:25:55 PM 
Bill Master Value For Quotation# Data Initiated at 04/09/2020 4:25:55 PM 
Bill Master Value For Quotation# Data Completed at 04/09/2020 4:25:55 PM 
Bill Control Value For GST_Category Data Initiated at 04/09/2020 4:25:55 PM 
Bill Control Value For GST_Category Data Completed at 04/09/2020 4:25:55 PM 
Bill Master Value For Place_Of_Supply Data Initiated at 04/09/2020 4:25:55 PM 
Bill Master Value For Place_Of_Supply Data Completed at 04/09/2020 4:25:55 PM 
Bill Control Value For Payment_Mode Data Initiated at 04/09/2020 4:25:55 PM 
Bill Control Value For Payment_Mode Data Completed at 04/09/2020 4:25:55 PM 
Bill Master Value For Project# Data Initiated at 04/09/2020 4:25:55 PM 
Bill Master Value For Project# Data Completed at 04/09/2020 4:25:55 PM 
Bill Master Value For Operating_Unit Data Initiated at 04/09/2020 4:25:55 PM 
Bill Master Value For Operating_Unit Data Completed at 04/09/2020 4:25:55 PM 
Bill Master Value For Location_ Data Initiated at 04/09/2020 4:25:55 PM 
Bill Master Value For Location_ Data Completed at 04/09/2020 4:25:55 PM 
Bill Control Value For Department Data Initiated at 04/09/2020 4:25:55 PM 
Bill Control Value For Department Data Completed at 04/09/2020 4:25:55 PM 
Bill Master Value For Subsidary Data Initiated at 04/09/2020 4:25:55 PM 
Bill Master Value For Subsidary Data Completed at 04/09/2020 4:25:55 PM 
Bill Control Value For Exclusive Data Initiated at 04/09/2020 4:25:55 PM 
Bill Control Value For Exclusive Data Completed at 04/09/2020 4:25:55 PM 
Bill Master Value For Tax Data Initiated at 04/09/2020 4:25:55 PM 
Bill Master Value For Tax Data Completed at 04/09/2020 4:25:55 PM 
Bill Control Value For TDSType Data Initiated at 04/09/2020 4:25:55 PM 
Bill Control Value For TDSType Data Completed at 04/09/2020 4:25:55 PM 
Bill GridView For Class Data Initiated at 04/09/2020 4:25:55 PM 
Bill GridView For Class Data Completed at 04/09/2020 4:25:55 PM 
Bill Control Value For Shipping_Carrier Data Initiated at 04/09/2020 4:25:55 PM 
Bill Control Value For Shipping_Carrier Data Completed at 04/09/2020 4:25:55 PM 
Bill Control Value For Mode_Of_Transportation Data Initiated at 04/09/2020 4:25:55 PM 
Bill Control Value For Mode_Of_Transportation Data Completed at 04/09/2020 4:25:55 PM 
Bill Master Value For Packing_Tax Data Initiated at 04/09/2020 4:25:55 PM 
Bill Master Value For Packing_Tax Data Completed at 04/09/2020 4:25:55 PM 
Bill Master Value For Shipping_Tax Data Initiated at 04/09/2020 4:25:55 PM 
Bill Master Value For Shipping_Tax Data Completed at 04/09/2020 4:25:55 PM 
Bill Master Value For Other_Tax Data Initiated at 04/09/2020 4:25:55 PM 
Bill Master Value For Other_Tax Data Completed at 04/09/2020 4:25:55 PM 
Bill Feilds are Created at 04/09/2020 4:25:55 PM 
Bill Feilds Creation Completed For PUTABLE005 at 04/09/2020 4:25:55 PM 
Bill Feilds are Created at 04/09/2020 4:25:55 PM 
Bill Feilds Creation Completed For PUTABLE006 at 04/09/2020 4:25:55 PM 
Bill Total Fields Creation Completed at 04/09/2020 4:25:55 PM 
Bill Process Completed at 04/09/2020 4:25:56 PM 
 04/09/2020 4:25:56 PM
Bill Process Initiated at 04/09/2020 5:06:35 PM 
Bill Tabs are Created at 04/09/2020 5:06:35 PM 
Bill Master Value For Item_Receipt# Data Initiated at 04/09/2020 5:06:35 PM 
Bill Master Value For Item_Receipt# Data Completed at 04/09/2020 5:06:35 PM 
Bill Master Value For Item Data Initiated at 04/09/2020 5:06:35 PM 
Bill Master Value For Item Data Completed at 04/09/2020 5:06:35 PM 
Bill Control Value For Units Data Initiated at 04/09/2020 5:06:35 PM 
Bill Control Value For Units Data Completed at 04/09/2020 5:06:35 PM 
Bill Master Value For Lot# Data Initiated at 04/09/2020 5:06:35 PM 
Bill Master Value For Lot# Data Completed at 04/09/2020 5:06:35 PM 
Bill Master Value For Location Data Initiated at 04/09/2020 5:06:35 PM 
Bill Master Value For Location Data Completed at 04/09/2020 5:06:35 PM 
Bill Master Value For Tax_Type Data Initiated at 04/09/2020 5:06:35 PM 
Bill Master Value For Tax_Type Data Completed at 04/09/2020 5:06:35 PM 
Bill Control Value For Mode_Of_Discount Data Initiated at 04/09/2020 5:06:35 PM 
Bill Control Value For Mode_Of_Discount Data Completed at 04/09/2020 5:06:35 PM 
Bill Master Value For OperatingUnit Data Initiated at 04/09/2020 5:06:35 PM 
Bill Master Value For OperatingUnit Data Completed at 04/09/2020 5:06:35 PM 
Bill Master Value For Subsidary Data Initiated at 04/09/2020 5:06:35 PM 
Bill Master Value For Subsidary Data Completed at 04/09/2020 5:06:35 PM 
Bill Control Value For Classification Data Initiated at 04/09/2020 5:06:35 PM 
Bill Control Value For Classification Data Completed at 04/09/2020 5:06:35 PM 
Bill Control Value For Department Data Initiated at 04/09/2020 5:06:35 PM 
Bill Control Value For Department Data Completed at 04/09/2020 5:06:35 PM 
Bill Master Value For Refered_Form Data Initiated at 04/09/2020 5:06:35 PM 
Bill Master Value For Refered_Form Data Completed at 04/09/2020 5:06:35 PM 
Bill Control Value For Payee_Type Data Initiated at 04/09/2020 5:06:35 PM 
Bill Control Value For Payee_Type Data Completed at 04/09/2020 5:06:35 PM 
Bill Master Value For Vendor Data Initiated at 04/09/2020 5:06:35 PM 
Bill Master Value For Vendor Data Completed at 04/09/2020 5:06:35 PM 
Bill Master Value For Receipt_Type Data Initiated at 04/09/2020 5:06:35 PM 
Bill Master Value For Receipt_Type Data Completed at 04/09/2020 5:06:35 PM 
Bill Master Value For Payment_Terms Data Initiated at 04/09/2020 5:06:35 PM 
Bill Master Value For Payment_Terms Data Completed at 04/09/2020 5:06:35 PM 
Bill Master Value For Purchase_Order# Data Initiated at 04/09/2020 5:06:35 PM 
Bill Master Value For Purchase_Order# Data Completed at 04/09/2020 5:06:35 PM 
Bill Master Value For Quotation# Data Initiated at 04/09/2020 5:06:35 PM 
Bill Master Value For Quotation# Data Completed at 04/09/2020 5:06:35 PM 
Bill Control Value For GST_Category Data Initiated at 04/09/2020 5:06:35 PM 
Bill Control Value For GST_Category Data Completed at 04/09/2020 5:06:35 PM 
Bill Master Value For Place_Of_Supply Data Initiated at 04/09/2020 5:06:35 PM 
Bill Master Value For Place_Of_Supply Data Completed at 04/09/2020 5:06:35 PM 
Bill Control Value For Payment_Mode Data Initiated at 04/09/2020 5:06:35 PM 
Bill Control Value For Payment_Mode Data Completed at 04/09/2020 5:06:35 PM 
Bill Master Value For Project# Data Initiated at 04/09/2020 5:06:35 PM 
Bill Master Value For Project# Data Completed at 04/09/2020 5:06:35 PM 
Bill Master Value For Operating_Unit Data Initiated at 04/09/2020 5:06:35 PM 
Bill Master Value For Operating_Unit Data Completed at 04/09/2020 5:06:35 PM 
Bill Master Value For Location_ Data Initiated at 04/09/2020 5:06:35 PM 
Bill Master Value For Location_ Data Completed at 04/09/2020 5:06:35 PM 
Bill Control Value For Department Data Initiated at 04/09/2020 5:06:35 PM 
Bill Control Value For Department Data Completed at 04/09/2020 5:06:35 PM 
Bill Master Value For Subsidary Data Initiated at 04/09/2020 5:06:35 PM 
Bill Master Value For Subsidary Data Completed at 04/09/2020 5:06:35 PM 
Bill Control Value For Exclusive Data Initiated at 04/09/2020 5:06:35 PM 
Bill Control Value For Exclusive Data Completed at 04/09/2020 5:06:35 PM 
Bill Master Value For Tax Data Initiated at 04/09/2020 5:06:35 PM 
Bill Master Value For Tax Data Completed at 04/09/2020 5:06:35 PM 
Bill Control Value For TDSType Data Initiated at 04/09/2020 5:06:35 PM 
Bill Control Value For TDSType Data Completed at 04/09/2020 5:06:35 PM 
Bill GridView For Class Data Initiated at 04/09/2020 5:06:35 PM 
Bill GridView For Class Data Completed at 04/09/2020 5:06:35 PM 
Bill Control Value For Shipping_Carrier Data Initiated at 04/09/2020 5:06:35 PM 
Bill Control Value For Shipping_Carrier Data Completed at 04/09/2020 5:06:35 PM 
Bill Control Value For Mode_Of_Transportation Data Initiated at 04/09/2020 5:06:35 PM 
Bill Control Value For Mode_Of_Transportation Data Completed at 04/09/2020 5:06:35 PM 
Bill Master Value For Packing_Tax Data Initiated at 04/09/2020 5:06:35 PM 
Bill Master Value For Packing_Tax Data Completed at 04/09/2020 5:06:35 PM 
Bill Master Value For Shipping_Tax Data Initiated at 04/09/2020 5:06:35 PM 
Bill Master Value For Shipping_Tax Data Completed at 04/09/2020 5:06:35 PM 
Bill Master Value For Other_Tax Data Initiated at 04/09/2020 5:06:35 PM 
Bill Master Value For Other_Tax Data Completed at 04/09/2020 5:06:35 PM 
Bill Feilds are Created at 04/09/2020 5:06:36 PM 
Bill Feilds Creation Completed For PUTABLE005 at 04/09/2020 5:06:36 PM 
Bill Feilds are Created at 04/09/2020 5:06:36 PM 
Bill Feilds Creation Completed For PUTABLE006 at 04/09/2020 5:06:36 PM 
Bill Total Fields Creation Completed at 04/09/2020 5:06:36 PM 
Bill Process Completed at 04/09/2020 5:06:36 PM 
 04/09/2020 5:06:36 PM
 
***********************TARGET1*********************** 
 
 Line Data Received . 04/09/2020 5:07:02 PM
 
***********************TARGET4*********************** 
 
 Header Data Created for Bill . 
 
 04/09/2020 5:07:16 PM
 
***********************TARGET7*********************** 
 
 Line Data 0 Created For Bill . 
 
 04/09/2020 5:08:26 PM
Bill Process Initiated at 04/09/2020 6:26:54 PM 
Bill Tabs are Created at 04/09/2020 6:26:54 PM 
Bill Master Value For Item_Receipt# Data Initiated at 04/09/2020 6:26:54 PM 
Bill Master Value For Item_Receipt# Data Completed at 04/09/2020 6:26:54 PM 
Bill Master Value For Item Data Initiated at 04/09/2020 6:26:54 PM 
Bill Master Value For Item Data Completed at 04/09/2020 6:26:54 PM 
Bill Control Value For Units Data Initiated at 04/09/2020 6:26:54 PM 
Bill Control Value For Units Data Completed at 04/09/2020 6:26:54 PM 
Bill Master Value For Lot# Data Initiated at 04/09/2020 6:26:54 PM 
Bill Master Value For Lot# Data Completed at 04/09/2020 6:26:54 PM 
Bill Master Value For Location Data Initiated at 04/09/2020 6:26:54 PM 
Bill Master Value For Location Data Completed at 04/09/2020 6:26:54 PM 
Bill Master Value For Tax_Type Data Initiated at 04/09/2020 6:26:54 PM 
Bill Master Value For Tax_Type Data Completed at 04/09/2020 6:26:54 PM 
Bill Control Value For Mode_Of_Discount Data Initiated at 04/09/2020 6:26:54 PM 
Bill Control Value For Mode_Of_Discount Data Completed at 04/09/2020 6:26:54 PM 
Bill Master Value For OperatingUnit Data Initiated at 04/09/2020 6:26:54 PM 
Bill Master Value For OperatingUnit Data Completed at 04/09/2020 6:26:54 PM 
Bill Master Value For Subsidary Data Initiated at 04/09/2020 6:26:54 PM 
Bill Master Value For Subsidary Data Completed at 04/09/2020 6:26:54 PM 
Bill Control Value For Classification Data Initiated at 04/09/2020 6:26:54 PM 
Bill Control Value For Classification Data Completed at 04/09/2020 6:26:54 PM 
Bill Control Value For Department Data Initiated at 04/09/2020 6:26:54 PM 
Bill Control Value For Department Data Completed at 04/09/2020 6:26:54 PM 
Bill Master Value For Refered_Form Data Initiated at 04/09/2020 6:26:54 PM 
Bill Master Value For Refered_Form Data Completed at 04/09/2020 6:26:54 PM 
Bill Control Value For Payee_Type Data Initiated at 04/09/2020 6:26:54 PM 
Bill Control Value For Payee_Type Data Completed at 04/09/2020 6:26:54 PM 
Bill Master Value For Vendor Data Initiated at 04/09/2020 6:26:54 PM 
Bill Master Value For Vendor Data Completed at 04/09/2020 6:26:54 PM 
Bill Master Value For Receipt_Type Data Initiated at 04/09/2020 6:26:54 PM 
Bill Master Value For Receipt_Type Data Completed at 04/09/2020 6:26:54 PM 
Bill Master Value For Payment_Terms Data Initiated at 04/09/2020 6:26:54 PM 
Bill Master Value For Payment_Terms Data Completed at 04/09/2020 6:26:54 PM 
Bill Master Value For Purchase_Order# Data Initiated at 04/09/2020 6:26:54 PM 
Bill Master Value For Purchase_Order# Data Completed at 04/09/2020 6:26:55 PM 
Bill Master Value For Quotation# Data Initiated at 04/09/2020 6:26:55 PM 
Bill Master Value For Quotation# Data Completed at 04/09/2020 6:26:55 PM 
Bill Control Value For GST_Category Data Initiated at 04/09/2020 6:26:55 PM 
Bill Control Value For GST_Category Data Completed at 04/09/2020 6:26:55 PM 
Bill Master Value For Place_Of_Supply Data Initiated at 04/09/2020 6:26:55 PM 
Bill Master Value For Place_Of_Supply Data Completed at 04/09/2020 6:26:55 PM 
Bill Control Value For Payment_Mode Data Initiated at 04/09/2020 6:26:55 PM 
Bill Control Value For Payment_Mode Data Completed at 04/09/2020 6:26:55 PM 
Bill Master Value For Project# Data Initiated at 04/09/2020 6:26:55 PM 
Bill Master Value For Project# Data Completed at 04/09/2020 6:26:55 PM 
Bill Master Value For Operating_Unit Data Initiated at 04/09/2020 6:26:55 PM 
Bill Master Value For Operating_Unit Data Completed at 04/09/2020 6:26:55 PM 
Bill Master Value For Location_ Data Initiated at 04/09/2020 6:26:55 PM 
Bill Master Value For Location_ Data Completed at 04/09/2020 6:26:55 PM 
Bill Control Value For Department Data Initiated at 04/09/2020 6:26:55 PM 
Bill Control Value For Department Data Completed at 04/09/2020 6:26:55 PM 
Bill Master Value For Subsidary Data Initiated at 04/09/2020 6:26:55 PM 
Bill Master Value For Subsidary Data Completed at 04/09/2020 6:26:55 PM 
Bill Control Value For Exclusive Data Initiated at 04/09/2020 6:26:55 PM 
Bill Control Value For Exclusive Data Completed at 04/09/2020 6:26:55 PM 
Bill Master Value For Tax Data Initiated at 04/09/2020 6:26:55 PM 
Bill Master Value For Tax Data Completed at 04/09/2020 6:26:55 PM 
Bill Control Value For TDSType Data Initiated at 04/09/2020 6:26:55 PM 
Bill Control Value For TDSType Data Completed at 04/09/2020 6:26:55 PM 
Bill GridView For Class Data Initiated at 04/09/2020 6:26:55 PM 
Bill GridView For Class Data Completed at 04/09/2020 6:26:55 PM 
Bill Control Value For Shipping_Carrier Data Initiated at 04/09/2020 6:26:55 PM 
Bill Control Value For Shipping_Carrier Data Completed at 04/09/2020 6:26:55 PM 
Bill Control Value For Mode_Of_Transportation Data Initiated at 04/09/2020 6:26:55 PM 
Bill Control Value For Mode_Of_Transportation Data Completed at 04/09/2020 6:26:55 PM 
Bill Master Value For Packing_Tax Data Initiated at 04/09/2020 6:26:55 PM 
Bill Master Value For Packing_Tax Data Completed at 04/09/2020 6:26:55 PM 
Bill Master Value For Shipping_Tax Data Initiated at 04/09/2020 6:26:55 PM 
Bill Master Value For Shipping_Tax Data Completed at 04/09/2020 6:26:55 PM 
Bill Master Value For Other_Tax Data Initiated at 04/09/2020 6:26:55 PM 
Bill Master Value For Other_Tax Data Completed at 04/09/2020 6:26:55 PM 
Bill Feilds are Created at 04/09/2020 6:26:55 PM 
Bill Feilds Creation Completed For PUTABLE005 at 04/09/2020 6:26:55 PM 
Bill Feilds are Created at 04/09/2020 6:26:55 PM 
Bill Feilds Creation Completed For PUTABLE006 at 04/09/2020 6:26:55 PM 
Bill Total Fields Creation Completed at 04/09/2020 6:26:55 PM 
Bill Process Completed at 04/09/2020 6:26:55 PM 
 04/09/2020 6:26:55 PM
 
***********************TARGET1*********************** 
 
 Line Data Received . 04/09/2020 6:27:30 PM
 
***********************TARGET4*********************** 
 
 Header Data Created for Bill . 
 
 04/09/2020 6:27:36 PM
 
***********************TARGET7*********************** 
 
 Line Data 0 Created For Bill . 
 
 04/09/2020 6:27:40 PM
