
Debit Memo Process Initiated at 9/11/2018 12:51:09 PM 
Debit Memo Tabs are Created at 9/11/2018 12:51:09 PM 
Debit Memo Master Value For Item Data Initiated at 9/11/2018 12:51:09 PM 
Debit Memo Master Value For Item Data Completed at 9/11/2018 12:51:14 PM 
Debit Memo Control Value For Units Data Initiated at 9/11/2018 12:51:14 PM 
Debit Memo Control Value For Units Data Completed at 9/11/2018 12:51:14 PM 
Debit Memo Master Value For Lot Data Initiated at 9/11/2018 12:51:14 PM 
Debit Memo Master Value For Lot Data Completed at 9/11/2018 12:51:14 PM 
Debit Memo Master Value For Location Data Initiated at 9/11/2018 12:51:14 PM 
Debit Memo Master Value For Location Data Completed at 9/11/2018 12:51:14 PM 
Debit Memo Master Value For Tax Data Initiated at 9/11/2018 12:51:14 PM 
Debit Memo Master Value For Tax Data Completed at 9/11/2018 12:51:14 PM 
Debit Memo Master Value For Issue# Data Initiated at 9/11/2018 12:51:14 PM 
Debit Memo Master Value For Issue# Data Completed at 9/11/2018 12:51:14 PM 
Debit Memo Master Value For Refered_Form Data Initiated at 9/11/2018 12:51:14 PM 
Debit Memo Master Value For Refered_Form Data Completed at 9/11/2018 12:51:15 PM 
Debit Memo Control Value For Payee_Type Data Initiated at 9/11/2018 12:51:15 PM 
Debit Memo Control Value For Payee_Type Data Completed at 9/11/2018 12:51:15 PM 
Debit Memo Master Value For Vendor Data Initiated at 9/11/2018 12:51:15 PM 
Debit Memo Master Value For Vendor Data Completed at 9/11/2018 12:51:15 PM 
Debit Memo Master Value For Payment_Terms Data Initiated at 9/11/2018 12:51:15 PM 
Debit Memo Master Value For Payment_Terms Data Completed at 9/11/2018 12:51:15 PM 
Debit Memo Control Value For GST_Category Data Initiated at 9/11/2018 12:51:15 PM 
Debit Memo Control Value For GST_Category Data Completed at 9/11/2018 12:51:15 PM 
Debit Memo Master Value For Place_Of_Supply Data Initiated at 9/11/2018 12:51:15 PM 
Debit Memo Master Value For Place_Of_Supply Data Completed at 9/11/2018 12:51:15 PM 
Debit Memo Master Value For Project# Data Initiated at 9/11/2018 12:51:15 PM 
Debit Memo Master Value For Project# Data Completed at 9/11/2018 12:51:15 PM 
Debit Memo Master Value For Order_Type Data Initiated at 9/11/2018 12:51:15 PM 
Debit Memo Master Value For Order_Type Data Completed at 9/11/2018 12:51:15 PM 
Debit Memo Control Value For Payment_Mode Data Initiated at 9/11/2018 12:51:15 PM 
Debit Memo Control Value For Payment_Mode Data Completed at 9/11/2018 12:51:15 PM 
Debit Memo Control Value For Exclusive Data Initiated at 9/11/2018 12:51:15 PM 
Debit Memo Control Value For Exclusive Data Completed at 9/11/2018 12:51:15 PM 
Debit Memo Master Value For Tax_Type Data Initiated at 9/11/2018 12:51:15 PM 
Debit Memo Master Value For Tax_Type Data Completed at 9/11/2018 12:51:15 PM 
Debit Memo Master Value For Operating_Unit Data Initiated at 9/11/2018 12:51:15 PM 
Debit Memo Master Value For Operating_Unit Data Completed at 9/11/2018 12:51:15 PM 
Debit Memo Master Value For Location_ Data Initiated at 9/11/2018 12:51:15 PM 
Debit Memo Master Value For Location_ Data Completed at 9/11/2018 12:51:15 PM 
Debit Memo Master Value For Subsidary Data Initiated at 9/11/2018 12:51:15 PM 
Debit Memo Master Value For Subsidary Data Completed at 9/11/2018 12:51:15 PM 
Debit Memo Control Value For Class Data Initiated at 9/11/2018 12:51:15 PM 
Debit Memo Control Value For Class Data Completed at 9/11/2018 12:51:15 PM 
Debit Memo Control Value For Department Data Initiated at 9/11/2018 12:51:15 PM 
Debit Memo Control Value For Department Data Completed at 9/11/2018 12:51:15 PM 
Debit Memo Master Value For Bill# Data Initiated at 9/11/2018 12:51:15 PM 
Debit Memo Master Value For Bill# Data Completed at 9/11/2018 12:51:15 PM 
Debit Memo Master Value For Country Data Initiated at 9/11/2018 12:51:15 PM 
Debit Memo Master Value For Country Data Completed at 9/11/2018 12:51:15 PM 
Debit Memo Master Value For State Data Initiated at 9/11/2018 12:51:15 PM 
Debit Memo Master Value For State Data Completed at 9/11/2018 12:51:15 PM 
Debit Memo Feilds are Created at 9/11/2018 12:51:15 PM 
Debit Memo Feilds Creation Completed For PUTABLE001 at 9/11/2018 12:51:15 PM 
Debit Memo Feilds are Created at 9/11/2018 12:51:15 PM 
Debit Memo Feilds Creation Completed For PUTABLE002 at 9/11/2018 12:51:16 PM 
Debit Memo Feilds are Created at 9/11/2018 12:51:16 PM 
Debit Memo Feilds Creation Completed For PUTABLE009 at 9/11/2018 12:51:16 PM 
Debit Memo Total Fields Creation Completed at 9/11/2018 12:51:16 PM 
Debit Memo Process Completed at 9/11/2018 12:51:16 PM 
 9/11/2018 12:51:16 PMDebit Memo Process Initiated at 9/11/2018 12:58:59 PM 
Debit Memo Tabs are Created at 9/11/2018 12:58:59 PM 
Debit Memo Master Value For Item Data Initiated at 9/11/2018 12:58:59 PM 
Debit Memo Master Value For Item Data Completed at 9/11/2018 12:58:59 PM 
Debit Memo Control Value For Units Data Initiated at 9/11/2018 12:58:59 PM 
Debit Memo Control Value For Units Data Completed at 9/11/2018 12:58:59 PM 
Debit Memo Master Value For Lot Data Initiated at 9/11/2018 12:58:59 PM 
Debit Memo Master Value For Lot Data Completed at 9/11/2018 12:58:59 PM 
Debit Memo Master Value For Location Data Initiated at 9/11/2018 12:58:59 PM 
Debit Memo Master Value For Location Data Completed at 9/11/2018 12:58:59 PM 
Debit Memo Master Value For Tax Data Initiated at 9/11/2018 12:58:59 PM 
Debit Memo Master Value For Tax Data Completed at 9/11/2018 12:58:59 PM 
Debit Memo Master Value For Issue# Data Initiated at 9/11/2018 12:58:59 PM 
Debit Memo Master Value For Issue# Data Completed at 9/11/2018 12:58:59 PM 
Debit Memo Master Value For Refered_Form Data Initiated at 9/11/2018 12:58:59 PM 
Debit Memo Master Value For Refered_Form Data Completed at 9/11/2018 12:58:59 PM 
Debit Memo Control Value For Payee_Type Data Initiated at 9/11/2018 12:58:59 PM 
Debit Memo Control Value For Payee_Type Data Completed at 9/11/2018 12:58:59 PM 
Debit Memo Master Value For Vendor Data Initiated at 9/11/2018 12:58:59 PM 
Debit Memo Master Value For Vendor Data Completed at 9/11/2018 12:58:59 PM 
Debit Memo Master Value For Payment_Terms Data Initiated at 9/11/2018 12:58:59 PM 
Debit Memo Master Value For Payment_Terms Data Completed at 9/11/2018 12:58:59 PM 
Debit Memo Control Value For GST_Category Data Initiated at 9/11/2018 12:58:59 PM 
Debit Memo Control Value For GST_Category Data Completed at 9/11/2018 12:58:59 PM 
Debit Memo Master Value For Place_Of_Supply Data Initiated at 9/11/2018 12:58:59 PM 
Debit Memo Master Value For Place_Of_Supply Data Completed at 9/11/2018 12:58:59 PM 
Debit Memo Master Value For Project# Data Initiated at 9/11/2018 12:58:59 PM 
Debit Memo Master Value For Project# Data Completed at 9/11/2018 12:58:59 PM 
Debit Memo Master Value For Order_Type Data Initiated at 9/11/2018 12:58:59 PM 
Debit Memo Master Value For Order_Type Data Completed at 9/11/2018 12:58:59 PM 
Debit Memo Control Value For Payment_Mode Data Initiated at 9/11/2018 12:58:59 PM 
Debit Memo Control Value For Payment_Mode Data Completed at 9/11/2018 12:58:59 PM 
Debit Memo Control Value For Exclusive Data Initiated at 9/11/2018 12:58:59 PM 
Debit Memo Control Value For Exclusive Data Completed at 9/11/2018 12:58:59 PM 
Debit Memo Master Value For Tax_Type Data Initiated at 9/11/2018 12:58:59 PM 
Debit Memo Master Value For Tax_Type Data Completed at 9/11/2018 12:58:59 PM 
Debit Memo Master Value For Operating_Unit Data Initiated at 9/11/2018 12:58:59 PM 
Debit Memo Master Value For Operating_Unit Data Completed at 9/11/2018 12:58:59 PM 
Debit Memo Master Value For Location_ Data Initiated at 9/11/2018 12:58:59 PM 
Debit Memo Master Value For Location_ Data Completed at 9/11/2018 12:58:59 PM 
Debit Memo Master Value For Subsidary Data Initiated at 9/11/2018 12:58:59 PM 
Debit Memo Master Value For Subsidary Data Completed at 9/11/2018 12:58:59 PM 
Debit Memo Control Value For Class Data Initiated at 9/11/2018 12:58:59 PM 
Debit Memo Control Value For Class Data Completed at 9/11/2018 12:58:59 PM 
Debit Memo Control Value For Department Data Initiated at 9/11/2018 12:58:59 PM 
Debit Memo Control Value For Department Data Completed at 9/11/2018 12:58:59 PM 
Debit Memo Master Value For Bill# Data Initiated at 9/11/2018 12:58:59 PM 
Debit Memo Master Value For Bill# Data Completed at 9/11/2018 12:58:59 PM 
Debit Memo Master Value For Country Data Initiated at 9/11/2018 12:58:59 PM 
Debit Memo Master Value For Country Data Completed at 9/11/2018 12:58:59 PM 
Debit Memo Master Value For State Data Initiated at 9/11/2018 12:58:59 PM 
Debit Memo Master Value For State Data Completed at 9/11/2018 12:58:59 PM 
Debit Memo Feilds are Created at 9/11/2018 12:59:00 PM 
Debit Memo Feilds Creation Completed For PUTABLE001 at 9/11/2018 12:59:00 PM 
Debit Memo Feilds are Created at 9/11/2018 12:59:00 PM 
Debit Memo Feilds Creation Completed For PUTABLE002 at 9/11/2018 12:59:00 PM 
Debit Memo Feilds are Created at 9/11/2018 12:59:00 PM 
Debit Memo Feilds Creation Completed For PUTABLE009 at 9/11/2018 12:59:00 PM 
Debit Memo Total Fields Creation Completed at 9/11/2018 12:59:00 PM 
Debit Memo Process Completed at 9/11/2018 12:59:00 PM 
 9/11/2018 12:59:00 PM
