
Item Alias Process Initiated at 9/11/2018 2:40:14 PM 
Item Alias Tabs are Created at 9/11/2018 2:40:14 PM 
Item Alias Master Value For Item Data Initiated at 9/11/2018 2:40:14 PM 
Item Alias Master Value For Item Data Completed at 9/11/2018 2:40:14 PM 
Item Alias Control Value For Units Data Initiated at 9/11/2018 2:40:14 PM 
Item Alias Control Value For Units Data Completed at 9/11/2018 2:40:14 PM 
Item Alias Master Value For Vendor Data Initiated at 9/11/2018 2:40:14 PM 
Item Alias Master Value For Vendor Data Completed at 9/11/2018 2:40:14 PM 
Item Alias Control Value For Type Data Initiated at 9/11/2018 2:40:14 PM 
Item Alias Control Value For Type Data Completed at 9/11/2018 2:40:14 PM 
Item Alias Master Value For Operating_Unit Data Initiated at 9/11/2018 2:40:14 PM 
Item Alias Master Value For Operating_Unit Data Completed at 9/11/2018 2:40:14 PM 
Item Alias Control Value For RefID Data Initiated at 9/11/2018 2:40:14 PM 
Item Alias Control Value For RefID Data Completed at 9/11/2018 2:40:14 PM 
Item Alias Master Value For Refered_Form Data Initiated at 9/11/2018 2:40:14 PM 
Item Alias Master Value For Refered_Form Data Completed at 9/11/2018 2:40:14 PM 
Item Alias Feilds are Created at 9/11/2018 2:40:14 PM 
Item Alias Feilds Creation Completed For MATABLE021 at 9/11/2018 2:40:14 PM 
Item Alias Total Fields Creation Completed at 9/11/2018 2:40:14 PM 
Item Alias Process Completed at 9/11/2018 2:40:14 PM 
 9/11/2018 2:40:14 PM