
 8/16/2019 4:21:11 PM 8/16/2019 4:23:21 PM
 8/16/2019 6:00:23 PM
 8/16/2019 6:00:34 PM
 8/16/2019 6:01:07 PM
 8/16/2019 6:01:15 PM
 8/16/2019 6:03:14 PM
 8/16/2019 6:03:18 PM
 8/16/2019 6:03:31 PM
 8/16/2019 6:03:37 PM
 8/16/2019 6:03:44 PM
 8/16/2019 6:03:52 PM
 8/16/2019 6:04:17 PM
 8/16/2019 6:04:27 PM
 8/16/2019 6:04:44 PM
 8/16/2019 6:04:51 PM
 8/16/2019 6:05:01 PM
 8/16/2019 6:05:10 PM
 8/16/2019 6:05:16 PM
 8/16/2019 6:05:21 PM
 8/16/2019 6:05:33 PM
 8/16/2019 6:05:44 PM
 8/16/2019 6:05:57 PM
 8/16/2019 6:06:08 PM
 8/16/2019 6:21:50 PM
 8/16/2019 6:21:51 PM
 8/16/2019 6:21:59 PM
 8/16/2019 6:22:06 PM
 8/16/2019 6:23:26 PM
 8/16/2019 6:24:41 PM
 8/16/2019 6:25:14 PM
 8/16/2019 6:26:02 PM
 8/16/2019 6:27:01 PM
 8/16/2019 6:28:16 PM
 8/16/2019 6:28:42 PM
 8/16/2019 6:29:26 PM
 8/16/2019 6:30:02 PM
 8/16/2019 6:30:14 PM
 8/16/2019 6:30:37 PM
