
NOAUTH Authentication required., sPort: 5973, LastCommand:  8/16/2019 4:14:37 PMNOAUTH Authentication required., sPort: 6670, LastCommand:  8/16/2019 5:14:58 PM
NOAUTH Authentication required., sPort: 6872, LastCommand:  8/16/2019 5:49:25 PM
