
Item Process Initiated at 04/21/2020 11:55:49 AM 
Item Tabs are Created at 04/21/2020 11:55:49 AM 
Item GridView For Qty_OnHand Data Initiated at 04/21/2020 11:55:49 AM 
Item GridView For Qty_OnHand Data Completed at 04/21/2020 11:55:49 AM 
Item GridView For Qty_OnOrder Data Initiated at 04/21/2020 11:55:49 AM 
Item GridView For Qty_OnOrder Data Completed at 04/21/2020 11:55:49 AM 
Item GridView For Qty_Committed Data Initiated at 04/21/2020 11:55:49 AM 
Item GridView For Qty_Committed Data Completed at 04/21/2020 11:55:49 AM 
Item GridView For Qty_Available Data Initiated at 04/21/2020 11:55:49 AM 
Item GridView For Qty_Available Data Completed at 04/21/2020 11:55:49 AM 
Item Control Value For Price_ Type Data Initiated at 04/21/2020 11:55:49 AM 
Item Control Value For Price_ Type Data Completed at 04/21/2020 11:55:49 AM 
Item Master Value For Refered_Form Data Initiated at 04/21/2020 11:55:49 AM 
Item Master Value For Refered_Form Data Completed at 04/21/2020 11:55:49 AM 
Item Master Value For Type Data Initiated at 04/21/2020 11:55:49 AM 
Item Master Value For Type Data Completed at 04/21/2020 11:55:49 AM 
Item Master Value For Brand/Company Data Initiated at 04/21/2020 11:55:49 AM 
Item Master Value For Brand/Company Data Completed at 04/21/2020 11:55:49 AM 
Item Master Value For Vendor# Data Initiated at 04/21/2020 11:55:49 AM 
Item Master Value For Vendor# Data Completed at 04/21/2020 11:55:49 AM 
Item Control Value For Units Data Initiated at 04/21/2020 11:55:49 AM 
Item Control Value For Units Data Completed at 04/21/2020 11:55:49 AM 
Item Master Value For Family Data Initiated at 04/21/2020 11:55:49 AM 
Item Master Value For Family Data Completed at 04/21/2020 11:55:49 AM 
Item Master Value For Group Data Initiated at 04/21/2020 11:55:49 AM 
Item Master Value For Group Data Completed at 04/21/2020 11:55:49 AM 
Item Control Value For Color Data Initiated at 04/21/2020 11:55:49 AM 
Item Control Value For Color Data Completed at 04/21/2020 11:55:49 AM 
Item Control Value For Style Data Initiated at 04/21/2020 11:55:49 AM 
Item Control Value For Style Data Completed at 04/21/2020 11:55:49 AM 
Item Master Value For Operating_Unit Data Initiated at 04/21/2020 11:55:49 AM 
Item Master Value For Operating_Unit Data Completed at 04/21/2020 11:55:49 AM 
Item Master Value For Subsidary Data Initiated at 04/21/2020 11:55:49 AM 
Item Master Value For Subsidary Data Completed at 04/21/2020 11:55:49 AM 
Item Control Value For Classification Data Initiated at 04/21/2020 11:55:49 AM 
Item Control Value For Classification Data Completed at 04/21/2020 11:55:49 AM 
Item Control Value For Department Data Initiated at 04/21/2020 11:55:49 AM 
Item Control Value For Department Data Completed at 04/21/2020 11:55:49 AM 
Item Master Value For Purchase_Account Data Initiated at 04/21/2020 11:55:49 AM 
Item Master Value For Purchase_Account Data Completed at 04/21/2020 11:55:49 AM 
Item Master Value For Expense_Account Data Initiated at 04/21/2020 11:55:49 AM 
Item Master Value For Expense_Account Data Completed at 04/21/2020 11:55:49 AM 
Item Master Value For Purchase_Tax Data Initiated at 04/21/2020 11:55:49 AM 
Item Master Value For Purchase_Tax Data Completed at 04/21/2020 11:55:49 AM 
Item Control Value For UOM Data Initiated at 04/21/2020 11:55:49 AM 
Item Control Value For UOM Data Completed at 04/21/2020 11:55:49 AM 
Item Control Value For Sales_Unit Data Initiated at 04/21/2020 11:55:49 AM 
Item Control Value For Sales_Unit Data Completed at 04/21/2020 11:55:49 AM 
Item Control Value For Purchase_Unit Data Initiated at 04/21/2020 11:55:49 AM 
Item Control Value For Purchase_Unit Data Completed at 04/21/2020 11:55:49 AM 
Item Master Value For Income_Account Data Initiated at 04/21/2020 11:55:49 AM 
Item Master Value For Income_Account Data Completed at 04/21/2020 11:55:49 AM 
Item Master Value For Tax Data Initiated at 04/21/2020 11:55:49 AM 
Item Master Value For Tax Data Completed at 04/21/2020 11:55:49 AM 
Item Master Value For Jobber_Tax Data Initiated at 04/21/2020 11:55:49 AM 
Item Master Value For Jobber_Tax Data Completed at 04/21/2020 11:55:49 AM 
Item Master Value For Raw_Material Data Initiated at 04/21/2020 11:55:49 AM 
Item Master Value For Raw_Material Data Completed at 04/21/2020 11:55:49 AM 
Item Control Value For Transaction_Type Data Initiated at 04/21/2020 11:55:49 AM 
Item Control Value For Transaction_Type Data Completed at 04/21/2020 11:55:49 AM 
Item GridView For Item_Desc Data Initiated at 04/21/2020 11:55:49 AM 
Item GridView For Item_Desc Data Completed at 04/21/2020 11:55:49 AM 
Item Master Value For OperatingUnit Data Initiated at 04/21/2020 11:55:49 AM 
Item Master Value For OperatingUnit Data Completed at 04/21/2020 11:55:49 AM 
Item Master Value For SAC_Code Data Initiated at 04/21/2020 11:55:49 AM 
Item Master Value For SAC_Code Data Completed at 04/21/2020 11:55:57 AM 
Item Master Value For Item_Tax Data Initiated at 04/21/2020 11:55:57 AM 
Item Master Value For Item_Tax Data Completed at 04/21/2020 11:55:57 AM 
Item Feilds are Created at 04/21/2020 11:55:57 AM 
Item Feilds Creation Completed For MATABLE007 at 04/21/2020 11:55:57 AM 
Item Feilds are Created at 04/21/2020 11:55:57 AM 
Item Feilds Creation Completed For FITABLE013 at 04/21/2020 11:55:57 AM 
Item Total Fields Creation Completed at 04/21/2020 11:55:57 AM 
Item Process Completed at 04/21/2020 11:55:57 AM 
 04/21/2020 11:55:57 AM 
***********************TARGET4*********************** 
 
 Header Data Created for Item . 
 
 04/21/2020 12:00:07 PM
 
***********************TARGET4*********************** 
 
 Header Data Updated for Item . 
 
 04/21/2020 12:03:06 PM
 
***********************TARGET4*********************** 
 
 Header Data Updated for Item . 
 
 04/21/2020 12:04:39 PM
Item Process Initiated at 04/21/2020 7:36:20 PM 
Item Tabs are Created at 04/21/2020 7:36:20 PM 
Item GridView For Qty_OnHand Data Initiated at 04/21/2020 7:36:20 PM 
Item GridView For Qty_OnHand Data Completed at 04/21/2020 7:36:20 PM 
Item GridView For Qty_OnOrder Data Initiated at 04/21/2020 7:36:20 PM 
Item GridView For Qty_OnOrder Data Completed at 04/21/2020 7:36:20 PM 
Item GridView For Qty_Committed Data Initiated at 04/21/2020 7:36:20 PM 
Item GridView For Qty_Committed Data Completed at 04/21/2020 7:36:20 PM 
Item GridView For Qty_Available Data Initiated at 04/21/2020 7:36:20 PM 
Item GridView For Qty_Available Data Completed at 04/21/2020 7:36:20 PM 
Item Control Value For Price_ Type Data Initiated at 04/21/2020 7:36:20 PM 
Item Control Value For Price_ Type Data Completed at 04/21/2020 7:36:20 PM 
Item Master Value For Refered_Form Data Initiated at 04/21/2020 7:36:20 PM 
Item Master Value For Refered_Form Data Completed at 04/21/2020 7:36:20 PM 
Item Master Value For Type Data Initiated at 04/21/2020 7:36:20 PM 
Item Master Value For Type Data Completed at 04/21/2020 7:36:20 PM 
Item Master Value For Brand/Company Data Initiated at 04/21/2020 7:36:20 PM 
Item Master Value For Brand/Company Data Completed at 04/21/2020 7:36:20 PM 
Item Master Value For Vendor# Data Initiated at 04/21/2020 7:36:20 PM 
Item Master Value For Vendor# Data Completed at 04/21/2020 7:36:20 PM 
Item Control Value For Units Data Initiated at 04/21/2020 7:36:20 PM 
Item Control Value For Units Data Completed at 04/21/2020 7:36:20 PM 
Item Master Value For Family Data Initiated at 04/21/2020 7:36:20 PM 
Item Master Value For Family Data Completed at 04/21/2020 7:36:20 PM 
Item Master Value For Group Data Initiated at 04/21/2020 7:36:20 PM 
Item Master Value For Group Data Completed at 04/21/2020 7:36:20 PM 
Item Control Value For Color Data Initiated at 04/21/2020 7:36:20 PM 
Item Control Value For Color Data Completed at 04/21/2020 7:36:20 PM 
Item Control Value For Style Data Initiated at 04/21/2020 7:36:20 PM 
Item Control Value For Style Data Completed at 04/21/2020 7:36:20 PM 
Item Master Value For Operating_Unit Data Initiated at 04/21/2020 7:36:20 PM 
Item Master Value For Operating_Unit Data Completed at 04/21/2020 7:36:20 PM 
Item Master Value For Subsidary Data Initiated at 04/21/2020 7:36:20 PM 
Item Master Value For Subsidary Data Completed at 04/21/2020 7:36:20 PM 
Item Control Value For Classification Data Initiated at 04/21/2020 7:36:20 PM 
Item Control Value For Classification Data Completed at 04/21/2020 7:36:20 PM 
Item Control Value For Department Data Initiated at 04/21/2020 7:36:20 PM 
Item Control Value For Department Data Completed at 04/21/2020 7:36:20 PM 
Item Master Value For Purchase_Account Data Initiated at 04/21/2020 7:36:20 PM 
Item Master Value For Purchase_Account Data Completed at 04/21/2020 7:36:20 PM 
Item Master Value For Expense_Account Data Initiated at 04/21/2020 7:36:20 PM 
Item Master Value For Expense_Account Data Completed at 04/21/2020 7:36:20 PM 
Item Master Value For Purchase_Tax Data Initiated at 04/21/2020 7:36:20 PM 
Item Master Value For Purchase_Tax Data Completed at 04/21/2020 7:36:20 PM 
Item Control Value For UOM Data Initiated at 04/21/2020 7:36:20 PM 
Item Control Value For UOM Data Completed at 04/21/2020 7:36:20 PM 
Item Control Value For Sales_Unit Data Initiated at 04/21/2020 7:36:20 PM 
Item Control Value For Sales_Unit Data Completed at 04/21/2020 7:36:20 PM 
Item Control Value For Purchase_Unit Data Initiated at 04/21/2020 7:36:20 PM 
Item Control Value For Purchase_Unit Data Completed at 04/21/2020 7:36:20 PM 
Item Master Value For Income_Account Data Initiated at 04/21/2020 7:36:20 PM 
Item Master Value For Income_Account Data Completed at 04/21/2020 7:36:20 PM 
Item Master Value For Tax Data Initiated at 04/21/2020 7:36:20 PM 
Item Master Value For Tax Data Completed at 04/21/2020 7:36:20 PM 
Item Master Value For Jobber_Tax Data Initiated at 04/21/2020 7:36:20 PM 
Item Master Value For Jobber_Tax Data Completed at 04/21/2020 7:36:20 PM 
Item Master Value For Raw_Material Data Initiated at 04/21/2020 7:36:20 PM 
Item Master Value For Raw_Material Data Completed at 04/21/2020 7:36:20 PM 
Item Control Value For Transaction_Type Data Initiated at 04/21/2020 7:36:20 PM 
Item Control Value For Transaction_Type Data Completed at 04/21/2020 7:36:20 PM 
Item GridView For Item_Desc Data Initiated at 04/21/2020 7:36:20 PM 
Item GridView For Item_Desc Data Completed at 04/21/2020 7:36:20 PM 
Item Master Value For OperatingUnit Data Initiated at 04/21/2020 7:36:20 PM 
Item Master Value For OperatingUnit Data Completed at 04/21/2020 7:36:20 PM 
Item Master Value For SAC_Code Data Initiated at 04/21/2020 7:36:20 PM 
Item Master Value For SAC_Code Data Completed at 04/21/2020 7:36:23 PM 
Item Master Value For Item_Tax Data Initiated at 04/21/2020 7:36:23 PM 
Item Master Value For Item_Tax Data Completed at 04/21/2020 7:36:23 PM 
Item Feilds are Created at 04/21/2020 7:36:23 PM 
Item Feilds Creation Completed For MATABLE007 at 04/21/2020 7:36:23 PM 
Item Feilds are Created at 04/21/2020 7:36:23 PM 
Item Feilds Creation Completed For FITABLE013 at 04/21/2020 7:36:23 PM 
Item Total Fields Creation Completed at 04/21/2020 7:36:23 PM 
Item Process Completed at 04/21/2020 7:36:23 PM 
 04/21/2020 7:36:23 PM
 
***********************TARGET4*********************** 
 
 Header Data Created for Item . 
 
 04/21/2020 7:37:25 PM
