
 8/17/2019 10:54:02 AM 8/17/2019 10:54:22 AM
 8/17/2019 11:49:18 AM
 8/17/2019 11:49:34 AM
 8/17/2019 11:50:36 AM
 8/17/2019 11:53:04 AM
 8/17/2019 11:53:17 AM
 8/17/2019 11:54:06 AM
 8/17/2019 12:10:38 PM
 8/17/2019 12:10:48 PM
 8/17/2019 1:13:23 PM
 8/17/2019 1:13:30 PM
