
Stock Transfer Process Initiated at 04/10/2020 2:46:45 PM 
Stock Transfer Tabs are Created at 04/10/2020 2:46:45 PM 
Stock Transfer Master Value For Item Data Initiated at 04/10/2020 2:46:45 PM 
Stock Transfer Master Value For Item Data Completed at 04/10/2020 2:46:45 PM 
Stock Transfer Control Value For UOM Data Initiated at 04/10/2020 2:46:45 PM 
Stock Transfer Control Value For UOM Data Completed at 04/10/2020 2:46:45 PM 
Stock Transfer Master Value For LOT Data Initiated at 04/10/2020 2:46:45 PM 
Stock Transfer Master Value For LOT Data Completed at 04/10/2020 2:46:45 PM 
Stock Transfer Master Value For Project Data Initiated at 04/10/2020 2:46:45 PM 
Stock Transfer Master Value For Project Data Completed at 04/10/2020 2:46:45 PM 
Stock Transfer Master Value For Source_Operating_Unit Data Initiated at 04/10/2020 2:46:45 PM 
Stock Transfer Master Value For Source_Operating_Unit Data Completed at 04/10/2020 2:46:45 PM 
Stock Transfer Master Value For Source_Location Data Initiated at 04/10/2020 2:46:45 PM 
Stock Transfer Master Value For Source_Location Data Completed at 04/10/2020 2:46:45 PM 
Stock Transfer Master Value For Source_Project Data Initiated at 04/10/2020 2:46:45 PM 
Stock Transfer Master Value For Source_Project Data Completed at 04/10/2020 2:46:45 PM 
Stock Transfer Master Value For Destination_Operating_Unit Data Initiated at 04/10/2020 2:46:45 PM 
Stock Transfer Master Value For Destination_Operating_Unit Data Completed at 04/10/2020 2:46:45 PM 
Stock Transfer Master Value For Destination_Location Data Initiated at 04/10/2020 2:46:45 PM 
Stock Transfer Master Value For Destination_Location Data Completed at 04/10/2020 2:46:45 PM 
Stock Transfer Master Value For Destination_Project Data Initiated at 04/10/2020 2:46:45 PM 
Stock Transfer Master Value For Destination_Project Data Completed at 04/10/2020 2:46:45 PM 
Stock Transfer Feilds are Created at 04/10/2020 2:46:45 PM 
Stock Transfer Feilds Creation Completed For PRTABLE003 at 04/10/2020 2:46:45 PM 
Stock Transfer Feilds are Created at 04/10/2020 2:46:45 PM 
Stock Transfer Feilds Creation Completed For PRTABLE004 at 04/10/2020 2:46:45 PM 
Stock Transfer Total Fields Creation Completed at 04/10/2020 2:46:45 PM 
Stock Transfer Process Completed at 04/10/2020 2:46:45 PM 
 04/10/2020 2:46:45 PM 
***********************TARGET1*********************** 
 
 Line Data Received . 04/10/2020 2:47:15 PM
 
***********************TARGET4*********************** 
 
 Header Data Created for Stock Transfer . 
 
 04/10/2020 2:47:16 PM
 
***********************TARGET7*********************** 
 
 Line Data 0 Created For Stock Transfer . 
 
 04/10/2020 2:47:16 PM
Stock Transfer Process Initiated at 04/10/2020 8:37:47 PM 
Stock Transfer Tabs are Created at 04/10/2020 8:37:48 PM 
Stock Transfer Master Value For Item Data Initiated at 04/10/2020 8:37:48 PM 
Stock Transfer Master Value For Item Data Completed at 04/10/2020 8:37:48 PM 
Stock Transfer Control Value For UOM Data Initiated at 04/10/2020 8:37:48 PM 
Stock Transfer Control Value For UOM Data Completed at 04/10/2020 8:37:48 PM 
Stock Transfer Master Value For LOT Data Initiated at 04/10/2020 8:37:48 PM 
Stock Transfer Master Value For LOT Data Completed at 04/10/2020 8:37:48 PM 
Stock Transfer Master Value For Project Data Initiated at 04/10/2020 8:37:48 PM 
Stock Transfer Master Value For Project Data Completed at 04/10/2020 8:37:48 PM 
Stock Transfer Master Value For Source_Operating_Unit Data Initiated at 04/10/2020 8:37:48 PM 
Stock Transfer Master Value For Source_Operating_Unit Data Completed at 04/10/2020 8:37:48 PM 
Stock Transfer Master Value For Source_Location Data Initiated at 04/10/2020 8:37:48 PM 
Stock Transfer Master Value For Source_Location Data Completed at 04/10/2020 8:37:48 PM 
Stock Transfer Master Value For Source_Project Data Initiated at 04/10/2020 8:37:48 PM 
Stock Transfer Master Value For Source_Project Data Completed at 04/10/2020 8:37:48 PM 
Stock Transfer Master Value For Destination_Operating_Unit Data Initiated at 04/10/2020 8:37:48 PM 
Stock Transfer Master Value For Destination_Operating_Unit Data Completed at 04/10/2020 8:37:48 PM 
Stock Transfer Master Value For Destination_Location Data Initiated at 04/10/2020 8:37:48 PM 
Stock Transfer Master Value For Destination_Location Data Completed at 04/10/2020 8:37:48 PM 
Stock Transfer Master Value For Destination_Project Data Initiated at 04/10/2020 8:37:48 PM 
Stock Transfer Master Value For Destination_Project Data Completed at 04/10/2020 8:37:48 PM 
Stock Transfer Feilds are Created at 04/10/2020 8:37:48 PM 
Stock Transfer Feilds Creation Completed For PRTABLE003 at 04/10/2020 8:37:48 PM 
Stock Transfer Feilds are Created at 04/10/2020 8:37:48 PM 
Stock Transfer Feilds Creation Completed For PRTABLE004 at 04/10/2020 8:37:48 PM 
Stock Transfer Total Fields Creation Completed at 04/10/2020 8:37:48 PM 
Stock Transfer Process Completed at 04/10/2020 8:37:48 PM 
 04/10/2020 8:37:48 PM
 
***********************TARGET1*********************** 
 
 Line Data Received . 04/10/2020 8:38:25 PM
 
***********************TARGET4*********************** 
 
 Header Data Created for Stock Transfer . 
 
 04/10/2020 8:38:26 PM
 
***********************TARGET7*********************** 
 
 Line Data 0 Created For Stock Transfer . 
 
 04/10/2020 8:38:28 PM
Stock Transfer Process Initiated at 04/10/2020 8:38:56 PM 
Stock Transfer Tabs are Created at 04/10/2020 8:38:56 PM 
Stock Transfer Master Value For Item Data Initiated at 04/10/2020 8:38:56 PM 
Stock Transfer Master Value For Item Data Completed at 04/10/2020 8:38:56 PM 
Stock Transfer Control Value For UOM Data Initiated at 04/10/2020 8:38:56 PM 
Stock Transfer Control Value For UOM Data Completed at 04/10/2020 8:38:56 PM 
Stock Transfer Master Value For LOT Data Initiated at 04/10/2020 8:38:56 PM 
Stock Transfer Master Value For LOT Data Completed at 04/10/2020 8:38:56 PM 
Stock Transfer Master Value For Project Data Initiated at 04/10/2020 8:38:56 PM 
Stock Transfer Master Value For Project Data Completed at 04/10/2020 8:38:56 PM 
Stock Transfer Master Value For Source_Operating_Unit Data Initiated at 04/10/2020 8:38:56 PM 
Stock Transfer Master Value For Source_Operating_Unit Data Completed at 04/10/2020 8:38:56 PM 
Stock Transfer Master Value For Source_Location Data Initiated at 04/10/2020 8:38:56 PM 
Stock Transfer Master Value For Source_Location Data Completed at 04/10/2020 8:38:56 PM 
Stock Transfer Master Value For Source_Project Data Initiated at 04/10/2020 8:38:56 PM 
Stock Transfer Master Value For Source_Project Data Completed at 04/10/2020 8:38:56 PM 
Stock Transfer Master Value For Destination_Operating_Unit Data Initiated at 04/10/2020 8:38:56 PM 
Stock Transfer Master Value For Destination_Operating_Unit Data Completed at 04/10/2020 8:38:56 PM 
Stock Transfer Master Value For Destination_Location Data Initiated at 04/10/2020 8:38:56 PM 
Stock Transfer Master Value For Destination_Location Data Completed at 04/10/2020 8:38:56 PM 
Stock Transfer Master Value For Destination_Project Data Initiated at 04/10/2020 8:38:56 PM 
Stock Transfer Master Value For Destination_Project Data Completed at 04/10/2020 8:38:56 PM 
Stock Transfer Feilds are Created at 04/10/2020 8:38:56 PM 
Stock Transfer Feilds Creation Completed For PRTABLE003 at 04/10/2020 8:38:56 PM 
Stock Transfer Feilds are Created at 04/10/2020 8:38:57 PM 
Stock Transfer Feilds Creation Completed For PRTABLE004 at 04/10/2020 8:38:57 PM 
Stock Transfer Total Fields Creation Completed at 04/10/2020 8:38:57 PM 
Stock Transfer Process Completed at 04/10/2020 8:38:57 PM 
 04/10/2020 8:38:57 PM
Stock Transfer Process Initiated at 04/10/2020 8:57:27 PM 
Stock Transfer Tabs are Created at 04/10/2020 8:57:27 PM 
Stock Transfer Master Value For Item Data Initiated at 04/10/2020 8:57:27 PM 
Stock Transfer Master Value For Item Data Completed at 04/10/2020 8:57:27 PM 
Stock Transfer Control Value For UOM Data Initiated at 04/10/2020 8:57:27 PM 
Stock Transfer Control Value For UOM Data Completed at 04/10/2020 8:57:27 PM 
Stock Transfer Master Value For LOT Data Initiated at 04/10/2020 8:57:27 PM 
Stock Transfer Master Value For LOT Data Completed at 04/10/2020 8:57:27 PM 
Stock Transfer Master Value For Project Data Initiated at 04/10/2020 8:57:27 PM 
Stock Transfer Master Value For Project Data Completed at 04/10/2020 8:57:27 PM 
Stock Transfer Master Value For Source_Operating_Unit Data Initiated at 04/10/2020 8:57:27 PM 
Stock Transfer Master Value For Source_Operating_Unit Data Completed at 04/10/2020 8:57:27 PM 
Stock Transfer Master Value For Source_Location Data Initiated at 04/10/2020 8:57:27 PM 
Stock Transfer Master Value For Source_Location Data Completed at 04/10/2020 8:57:27 PM 
Stock Transfer Master Value For Source_Project Data Initiated at 04/10/2020 8:57:27 PM 
Stock Transfer Master Value For Source_Project Data Completed at 04/10/2020 8:57:27 PM 
Stock Transfer Master Value For Destination_Operating_Unit Data Initiated at 04/10/2020 8:57:27 PM 
Stock Transfer Master Value For Destination_Operating_Unit Data Completed at 04/10/2020 8:57:27 PM 
Stock Transfer Master Value For Destination_Location Data Initiated at 04/10/2020 8:57:27 PM 
Stock Transfer Master Value For Destination_Location Data Completed at 04/10/2020 8:57:27 PM 
Stock Transfer Master Value For Destination_Project Data Initiated at 04/10/2020 8:57:27 PM 
Stock Transfer Master Value For Destination_Project Data Completed at 04/10/2020 8:57:27 PM 
Stock Transfer Feilds are Created at 04/10/2020 8:57:28 PM 
Stock Transfer Feilds Creation Completed For PRTABLE003 at 04/10/2020 8:57:28 PM 
Stock Transfer Feilds are Created at 04/10/2020 8:57:28 PM 
Stock Transfer Feilds Creation Completed For PRTABLE004 at 04/10/2020 8:57:28 PM 
Stock Transfer Total Fields Creation Completed at 04/10/2020 8:57:28 PM 
Stock Transfer Process Completed at 04/10/2020 8:57:28 PM 
 04/10/2020 8:57:28 PM
