
NOAUTH Authentication required., sPort: 3317, LastCommand:  4/25/2019 11:09:48 AMNOAUTH Authentication required., sPort: 10766, LastCommand:  4/25/2019 11:31:42 AM
NOAUTH Authentication required., sPort: 49297, LastCommand:  4/25/2019 11:38:04 AM
NOAUTH Authentication required., sPort: 52623, LastCommand:  4/25/2019 12:00:14 PM
NOAUTH Authentication required., sPort: 11140, LastCommand:  4/25/2019 12:58:49 PM
NOAUTH Authentication required., sPort: 19804, LastCommand:  4/25/2019 2:05:44 PM
NOAUTH Authentication required., sPort: 3820, LastCommand:  4/25/2019 3:20:03 PM
NOAUTH Authentication required., sPort: 40208, LastCommand:  4/25/2019 3:58:34 PM
