
 8/1/2019 10:21:17 AM 8/1/2019 10:21:21 AM
 8/1/2019 10:30:46 AM
 8/1/2019 10:30:49 AM
 8/1/2019 11:09:42 AM
 8/1/2019 11:10:01 AM
 8/1/2019 11:11:06 AM
 8/1/2019 11:11:11 AM
 8/1/2019 11:11:27 AM
 8/1/2019 11:11:31 AM
 8/1/2019 11:11:42 AM
 8/1/2019 11:11:47 AM
 8/1/2019 11:11:56 AM
 8/1/2019 11:12:00 AM
 8/1/2019 11:12:12 AM
 8/1/2019 11:12:19 AM
 8/1/2019 11:12:37 AM
 8/1/2019 11:12:49 AM
 8/1/2019 11:12:51 AM
 8/1/2019 11:13:03 AM
 8/1/2019 11:13:09 AM
 8/1/2019 11:13:19 AM
 8/1/2019 11:13:28 AM
 8/1/2019 11:13:40 AM
 8/1/2019 11:13:46 AM
 8/1/2019 11:14:00 AM
 8/1/2019 11:14:07 AM
 8/1/2019 11:14:20 AM
 8/1/2019 11:14:27 AM
 8/1/2019 11:14:40 AM
 8/1/2019 11:15:14 AM
 8/1/2019 11:15:29 AM
 8/1/2019 11:15:33 AM
 8/1/2019 11:15:47 AM
 8/1/2019 11:15:52 AM
 8/1/2019 11:16:26 AM
 8/1/2019 11:16:33 AM
 8/1/2019 11:16:49 AM
 8/1/2019 11:16:56 AM
 8/1/2019 11:17:11 AM
 8/1/2019 11:17:17 AM
 8/1/2019 11:17:30 AM
 8/1/2019 11:17:37 AM
 8/1/2019 11:17:52 AM
 8/1/2019 11:30:12 AM
 8/1/2019 11:30:16 AM
 8/1/2019 11:44:59 AM
 8/1/2019 12:56:17 PM
 8/1/2019 12:56:22 PM
