
 
***********************TARGET4*********************** 
 
 Header Data Updated for Item . 
 
 8/1/2019 11:11:26 AM 
***********************TARGET4*********************** 
 
 Header Data Updated for Item . 
 
 8/1/2019 11:11:40 AM
 
***********************TARGET4*********************** 
 
 Header Data Updated for Item . 
 
 8/1/2019 11:11:55 AM
 
***********************TARGET4*********************** 
 
 Header Data Updated for Item . 
 
 8/1/2019 11:12:11 AM
 
***********************TARGET4*********************** 
 
 Header Data Updated for Item . 
 
 8/1/2019 11:12:35 AM
 
***********************TARGET4*********************** 
 
 Header Data Updated for Item . 
 
 8/1/2019 11:13:01 AM
 
***********************TARGET4*********************** 
 
 Header Data Updated for Item . 
 
 8/1/2019 11:13:18 AM
 
***********************TARGET4*********************** 
 
 Header Data Updated for Item . 
 
 8/1/2019 11:13:38 AM
 
***********************TARGET4*********************** 
 
 Header Data Updated for Item . 
 
 8/1/2019 11:13:58 AM
 
***********************TARGET4*********************** 
 
 Header Data Updated for Item . 
 
 8/1/2019 11:14:18 AM
 
***********************TARGET4*********************** 
 
 Header Data Updated for Item . 
 
 8/1/2019 11:14:38 AM
 
***********************TARGET4*********************** 
 
 Header Data Updated for Item . 
 
 8/1/2019 11:15:27 AM
 
***********************TARGET4*********************** 
 
 Header Data Updated for Item . 
 
 8/1/2019 11:15:45 AM
 
***********************TARGET4*********************** 
 
 Header Data Updated for Item . 
 
 8/1/2019 11:16:23 AM
 
***********************TARGET4*********************** 
 
 Header Data Updated for Item . 
 
 8/1/2019 11:16:47 AM
 
***********************TARGET4*********************** 
 
 Header Data Updated for Item . 
 
 8/1/2019 11:17:09 AM
 
***********************TARGET4*********************** 
 
 Header Data Updated for Item . 
 
 8/1/2019 11:17:27 AM
 
***********************TARGET4*********************** 
 
 Header Data Updated for Item . 
 
 8/1/2019 11:17:48 AM
