
NOAUTH Authentication required., sPort: 5363, LastCommand:  8/1/2019 10:21:05 AMNOAUTH Authentication required., sPort: 6278, LastCommand:  8/1/2019 11:09:23 AM
NOAUTH Authentication required., sPort: 6435, LastCommand:  8/1/2019 11:44:54 AM
NOAUTH Authentication required., sPort: 7607, LastCommand:  8/1/2019 12:56:08 PM
