
could not connect to redis Instance at 202.65.131.29:6379 10/19/2019 12:05:54 PMcould not connect to redis Instance at 202.65.131.29:6379 10/19/2019 12:14:00 PM
could not connect to redis Instance at 202.65.131.29:6379 10/19/2019 2:36:51 PM
could not connect to redis Instance at 202.65.131.29:6379 10/19/2019 2:38:16 PM
could not connect to redis Instance at 202.65.131.29:6379 10/19/2019 2:41:24 PM
