
could not connect to redis Instance at 202.65.131.29:6379 04/27/2020 3:52:08 PMcould not connect to redis Instance at 202.65.131.29:6379 04/27/2020 5:03:32 PM
could not connect to redis Instance at 202.65.131.29:6379 04/27/2020 5:21:48 PM
could not connect to redis Instance at 202.65.131.29:6379 04/27/2020 5:37:45 PM
could not connect to redis Instance at 202.65.131.29:6379 04/27/2020 5:55:18 PM
could not connect to redis Instance at 202.65.131.29:6379 04/27/2020 5:59:58 PM
could not connect to redis Instance at 202.65.131.29:6379 04/27/2020 6:07:35 PM
could not connect to redis Instance at 202.65.131.29:6379 04/27/2020 6:15:07 PM
could not connect to redis Instance at 202.65.131.29:6379 04/27/2020 6:32:35 PM
could not connect to redis Instance at 202.65.131.29:6379 04/27/2020 6:36:25 PM
could not connect to redis Instance at 202.65.131.29:6379 04/27/2020 6:41:23 PM
could not connect to redis Instance at 202.65.131.29:6379 04/27/2020 6:48:02 PM
could not connect to redis Instance at 202.65.131.29:6379 04/27/2020 6:51:47 PM
could not connect to redis Instance at 202.65.131.29:6379 04/27/2020 7:12:56 PM
could not connect to redis Instance at 202.65.131.29:6379 04/27/2020 7:24:18 PM
could not connect to redis Instance at 202.65.131.29:6379 04/27/2020 7:36:23 PM
could not connect to redis Instance at 202.65.131.29:6379 04/27/2020 7:38:28 PM
could not connect to redis Instance at 202.65.131.29:6379 04/27/2020 10:00:39 PM
