
Journal Entry Process Initiated at 11/3/2018 6:48:44 PM 
Journal Entry Process Initiated at 11/3/2018 6:48:44 PM 
Journal Entry Tabs are Created at 11/3/2018 6:48:44 PM 
Journal Entry Master Value For Account Data Initiated at 11/3/2018 6:48:44 PM 
Journal Entry Master Value For Account Data Completed at 11/3/2018 6:48:44 PM 
Journal Entry Control Value For Payee_Type Data Initiated at 11/3/2018 6:48:44 PM 
Journal Entry Control Value For Payee_Type Data Completed at 11/3/2018 6:48:44 PM 
Journal Entry Master Value For Name Data Initiated at 11/3/2018 6:48:44 PM 
Journal Entry Master Value For Name Data Completed at 11/3/2018 6:48:44 PM 
Journal Entry Master Value For Project Data Initiated at 11/3/2018 6:48:44 PM 
Journal Entry Master Value For Project Data Completed at 11/3/2018 6:48:44 PM 
Journal Entry Master Value For Refered_Form Data Initiated at 11/3/2018 6:48:44 PM 
Journal Entry Master Value For Refered_Form Data Completed at 11/3/2018 6:48:44 PM 
Journal Entry Control Value For Payee_Type Data Initiated at 11/3/2018 6:48:44 PM 
Journal Entry Control Value For Payee_Type Data Completed at 11/3/2018 6:48:44 PM 
Journal Entry Master Value For Operating_Unit Data Initiated at 11/3/2018 6:48:44 PM 
Journal Entry Master Value For Operating_Unit Data Completed at 11/3/2018 6:48:44 PM 
Journal Entry Master Value For Project# Data Initiated at 11/3/2018 6:48:44 PM 
Journal Entry Master Value For Project# Data Completed at 11/3/2018 6:48:44 PM 
Journal Entry Feilds are Created at 11/3/2018 6:48:44 PM 
Journal Entry Feilds Creation Completed For FITABLE031 at 11/3/2018 6:48:44 PM 
Journal Entry Feilds are Created at 11/3/2018 6:48:45 PM 
Journal Entry Feilds Creation Completed For FITABLE032 at 11/3/2018 6:48:45 PM 
Journal Entry Total Fields Creation Completed at 11/3/2018 6:48:45 PM 
Journal Entry Process Completed at 11/3/2018 6:48:45 PM 
 11/3/2018 6:48:45 PM 
***********************TARGET1*********************** 
 
 Line Data Received . 11/3/2018 6:51:03 PM
 
***********************TARGET4*********************** 
 
 Header Data Created for Journal Entry . 
 
 11/3/2018 6:51:07 PM
 
***********************TARGET7*********************** 
 
 Line Data 0 Created For Journal Entry . 
 
 11/3/2018 6:51:09 PM
 
***********************TARGET7*********************** 
 
 Line Data 1 Created For Journal Entry . 
 
 11/3/2018 6:51:09 PM
Journal Entry Process Initiated at 11/3/2018 6:51:17 PM 
Journal Entry Process Completed at 11/3/2018 6:51:17 PM 
 11/3/2018 6:51:17 PM
 
***********************TARGET1*********************** 
 
 Line Data Received . 11/3/2018 6:51:52 PM
 
***********************TARGET4*********************** 
 
 Header Data Created for Journal Entry . 
 
 11/3/2018 6:51:53 PM
 
***********************TARGET7*********************** 
 
 Line Data 0 Created For Journal Entry . 
 
 11/3/2018 6:51:53 PM
 
***********************TARGET7*********************** 
 
 Line Data 1 Created For Journal Entry . 
 
 11/3/2018 6:51:54 PM
