
 
***********************TARGET1*********************** 
 
 Line Data Received . 11/3/2018 4:04:14 PM 
***********************TARGET4*********************** 
 
 Header Data Updated for Project . 
 
 11/3/2018 4:04:15 PM
 
***********************TARGET7*********************** 
 
 Line Data 0 Updated For Project . 
 
 11/3/2018 4:04:15 PM
 
***********************TARGET4*********************** 
 
 Header Data Updated for Project . 
 
 11/3/2018 4:04:15 PM
