
Stock Transfer Process Initiated at 11/3/2018 4:31:47 PM 
Stock Transfer Tabs are Created at 11/3/2018 4:31:47 PM 
Stock Transfer Master Value For Item Data Initiated at 11/3/2018 4:31:47 PM 
Stock Transfer Master Value For Item Data Completed at 11/3/2018 4:31:47 PM 
Stock Transfer Control Value For UOM Data Initiated at 11/3/2018 4:31:47 PM 
Stock Transfer Control Value For UOM Data Completed at 11/3/2018 4:31:47 PM 
Stock Transfer Master Value For LOT Data Initiated at 11/3/2018 4:31:47 PM 
Stock Transfer Master Value For LOT Data Completed at 11/3/2018 4:31:47 PM 
Stock Transfer Master Value For Project Data Initiated at 11/3/2018 4:31:47 PM 
Stock Transfer Master Value For Project Data Completed at 11/3/2018 4:31:47 PM 
Stock Transfer Master Value For Source_Operating_Unit Data Initiated at 11/3/2018 4:31:47 PM 
Stock Transfer Master Value For Source_Operating_Unit Data Completed at 11/3/2018 4:31:47 PM 
Stock Transfer Master Value For Source_Location Data Initiated at 11/3/2018 4:31:47 PM 
Stock Transfer Master Value For Source_Location Data Completed at 11/3/2018 4:31:47 PM 
Stock Transfer Master Value For Source_Project Data Initiated at 11/3/2018 4:31:47 PM 
Stock Transfer Master Value For Source_Project Data Completed at 11/3/2018 4:31:47 PM 
Stock Transfer Master Value For Destination_Operating_Unit Data Initiated at 11/3/2018 4:31:47 PM 
Stock Transfer Master Value For Destination_Operating_Unit Data Completed at 11/3/2018 4:31:47 PM 
Stock Transfer Master Value For Destination_Location Data Initiated at 11/3/2018 4:31:47 PM 
Stock Transfer Master Value For Destination_Location Data Completed at 11/3/2018 4:31:47 PM 
Stock Transfer Master Value For Destination_Project Data Initiated at 11/3/2018 4:31:47 PM 
Stock Transfer Master Value For Destination_Project Data Completed at 11/3/2018 4:31:47 PM 
Stock Transfer Feilds are Created at 11/3/2018 4:31:47 PM 
Stock Transfer Feilds Creation Completed For PRTABLE003 at 11/3/2018 4:31:47 PM 
Stock Transfer Feilds are Created at 11/3/2018 4:31:47 PM 
Stock Transfer Feilds Creation Completed For PRTABLE004 at 11/3/2018 4:31:47 PM 
Stock Transfer Total Fields Creation Completed at 11/3/2018 4:31:47 PM 
Stock Transfer Process Completed at 11/3/2018 4:31:47 PM 
 11/3/2018 4:31:47 PM 
***********************TARGET1*********************** 
 
 Line Data Received . 11/3/2018 4:32:37 PM
 
***********************TARGET4*********************** 
 
 Header Data Created for Stock Transfer . 
 
 11/3/2018 4:32:41 PM
 
***********************TARGET7*********************** 
 
 Line Data 0 Created For Stock Transfer . 
 
 11/3/2018 4:32:58 PM
 
***********************TARGET7*********************** 
 
 Line Data 1 Created For Stock Transfer . 
 
 11/3/2018 4:33:01 PM
 
***********************TARGET1*********************** 
 
 Line Data Received . 11/3/2018 4:41:48 PM
 
***********************TARGET4*********************** 
 
 Header Data Updated for Stock Transfer . 
 
 11/3/2018 4:41:51 PM
 
***********************TARGET7*********************** 
 
 Line Data 0 Updated For Stock Transfer . 
 
 11/3/2018 4:41:52 PM
 
***********************TARGET7*********************** 
 
 Line Data 1 Updated For Stock Transfer . 
 
 11/3/2018 4:41:52 PM
Stock Transfer Process Initiated at 11/3/2018 4:42:48 PM 
Stock Transfer Tabs are Created at 11/3/2018 4:42:48 PM 
Stock Transfer Master Value For Item Data Initiated at 11/3/2018 4:42:48 PM 
Stock Transfer Master Value For Item Data Completed at 11/3/2018 4:42:48 PM 
Stock Transfer Control Value For UOM Data Initiated at 11/3/2018 4:42:48 PM 
Stock Transfer Control Value For UOM Data Completed at 11/3/2018 4:42:49 PM 
Stock Transfer Master Value For LOT Data Initiated at 11/3/2018 4:42:49 PM 
Stock Transfer Master Value For LOT Data Completed at 11/3/2018 4:42:49 PM 
Stock Transfer Master Value For Project Data Initiated at 11/3/2018 4:42:49 PM 
Stock Transfer Master Value For Project Data Completed at 11/3/2018 4:42:49 PM 
Stock Transfer Master Value For Source_Operating_Unit Data Initiated at 11/3/2018 4:42:49 PM 
Stock Transfer Master Value For Source_Operating_Unit Data Completed at 11/3/2018 4:42:49 PM 
Stock Transfer Master Value For Source_Location Data Initiated at 11/3/2018 4:42:49 PM 
Stock Transfer Master Value For Source_Location Data Completed at 11/3/2018 4:42:49 PM 
Stock Transfer Master Value For Source_Project Data Initiated at 11/3/2018 4:42:49 PM 
Stock Transfer Master Value For Source_Project Data Completed at 11/3/2018 4:42:49 PM 
Stock Transfer Master Value For Destination_Operating_Unit Data Initiated at 11/3/2018 4:42:49 PM 
Stock Transfer Master Value For Destination_Operating_Unit Data Completed at 11/3/2018 4:42:49 PM 
Stock Transfer Master Value For Destination_Location Data Initiated at 11/3/2018 4:42:49 PM 
Stock Transfer Master Value For Destination_Location Data Completed at 11/3/2018 4:42:49 PM 
Stock Transfer Master Value For Destination_Project Data Initiated at 11/3/2018 4:42:49 PM 
Stock Transfer Master Value For Destination_Project Data Completed at 11/3/2018 4:42:49 PM 
Stock Transfer Feilds are Created at 11/3/2018 4:42:49 PM 
Stock Transfer Feilds Creation Completed For PRTABLE003 at 11/3/2018 4:42:49 PM 
Stock Transfer Feilds are Created at 11/3/2018 4:42:49 PM 
Stock Transfer Feilds Creation Completed For PRTABLE004 at 11/3/2018 4:42:49 PM 
Stock Transfer Total Fields Creation Completed at 11/3/2018 4:42:49 PM 
Stock Transfer Process Completed at 11/3/2018 4:42:49 PM 
 11/3/2018 4:42:49 PM
 
***********************TARGET1*********************** 
 
 Line Data Received . 11/3/2018 4:43:19 PM
 
***********************TARGET4*********************** 
 
 Header Data Created for Stock Transfer . 
 
 11/3/2018 4:43:20 PM
 
***********************TARGET7*********************** 
 
 Line Data 0 Created For Stock Transfer . 
 
 11/3/2018 4:43:20 PM
 
***********************TARGET7*********************** 
 
 Line Data 1 Created For Stock Transfer . 
 
 11/3/2018 4:43:20 PM
 
***********************TARGET1*********************** 
 
 Line Data Received . 11/3/2018 4:47:44 PM
 
***********************TARGET4*********************** 
 
 Header Data Updated for Stock Transfer . 
 
 11/3/2018 4:47:44 PM
 
***********************TARGET7*********************** 
 
 Line Data 0 Updated For Stock Transfer . 
 
 11/3/2018 4:47:44 PM
 
***********************TARGET7*********************** 
 
 Line Data 1 Updated For Stock Transfer . 
 
 11/3/2018 4:47:44 PM
 
***********************TARGET1*********************** 
 
 Line Data Received . 11/3/2018 4:53:41 PM
 
***********************TARGET4*********************** 
 
 Header Data Updated for Stock Transfer . 
 
 11/3/2018 4:53:48 PM
 
***********************TARGET7*********************** 
 
 Line Data 0 Updated For Stock Transfer . 
 
 11/3/2018 4:54:10 PM
 
***********************TARGET7*********************** 
 
 Line Data 1 Updated For Stock Transfer . 
 
 11/3/2018 4:54:14 PM
