
 
***********************TARGET1*********************** 
 
 Line Data Received . 11/5/2018 12:34:44 PM 
***********************TARGET4*********************** 
 
 Header Data Updated for Bill . 
 
 11/5/2018 12:39:23 PM
 
***********************TARGET7*********************** 
 
 Line Data 0 Updated For Bill . 
 
 11/5/2018 12:40:04 PM
 
***********************TARGET1*********************** 
 
 Line Data Received . 11/5/2018 12:41:14 PM
 
***********************TARGET4*********************** 
 
 Header Data Updated for Bill . 
 
 11/5/2018 12:41:19 PM
 
***********************TARGET7*********************** 
 
 Line Data 0 Updated For Bill . 
 
 11/5/2018 12:41:20 PM
