
 
***********************TARGET1*********************** 
 
 Line Data Received . 11/5/2018 1:08:05 PM 
***********************TARGET4*********************** 
 
 Header Data Updated for Inventory Adjustments . 
 
 11/5/2018 1:08:13 PM
 
***********************TARGET7*********************** 
 
 Line Data 0 Updated For Inventory Adjustments . 
 
 11/5/2018 1:08:16 PM
 
***********************TARGET1*********************** 
 
 Line Data Received . 11/5/2018 1:12:14 PM
 
***********************TARGET4*********************** 
 
 Header Data Updated for Inventory Adjustments . 
 
 11/5/2018 1:12:16 PM
 
***********************TARGET7*********************** 
 
 Line Data 0 Updated For Inventory Adjustments . 
 
 11/5/2018 1:12:16 PM
 
***********************TARGET7*********************** 
 
 Line Data 1 Updated For Inventory Adjustments . 
 
 11/5/2018 1:12:16 PM
 
***********************TARGET7*********************** 
 
 Line Data 2 Updated For Inventory Adjustments . 
 
 11/5/2018 1:12:17 PM
 
***********************TARGET7*********************** 
 
 Line Data 3 Updated For Inventory Adjustments . 
 
 11/5/2018 1:12:18 PM
 
***********************TARGET1*********************** 
 
 Line Data Received . 11/5/2018 3:35:34 PM
 
***********************TARGET4*********************** 
 
 Header Data Updated for Inventory Adjustments . 
 
 11/5/2018 3:36:34 PM
 
***********************TARGET7*********************** 
 
 Line Data 0 Updated For Inventory Adjustments . 
 
 11/5/2018 3:36:38 PM
 
***********************TARGET7*********************** 
 
 Line Data 1 Updated For Inventory Adjustments . 
 
 11/5/2018 3:36:38 PM
 
***********************TARGET7*********************** 
 
 Line Data 2 Updated For Inventory Adjustments . 
 
 11/5/2018 3:36:38 PM
 
***********************TARGET7*********************** 
 
 Line Data 3 Updated For Inventory Adjustments . 
 
 11/5/2018 3:36:39 PM
 
***********************TARGET7*********************** 
 
 Line Data 4 Updated For Inventory Adjustments . 
 
 11/5/2018 3:36:39 PM
 
***********************TARGET7*********************** 
 
 Line Data 5 Updated For Inventory Adjustments . 
 
 11/5/2018 3:36:39 PM
 
***********************TARGET7*********************** 
 
 Line Data 6 Updated For Inventory Adjustments . 
 
 11/5/2018 3:36:40 PM
 
***********************TARGET7*********************** 
 
 Line Data 7 Updated For Inventory Adjustments . 
 
 11/5/2018 3:36:41 PM
 
***********************TARGET7*********************** 
 
 Line Data 8 Updated For Inventory Adjustments . 
 
 11/5/2018 3:36:51 PM
 
***********************TARGET7*********************** 
 
 Line Data 9 Updated For Inventory Adjustments . 
 
 11/5/2018 3:36:51 PM
 
***********************TARGET7*********************** 
 
 Line Data 10 Updated For Inventory Adjustments . 
 
 11/5/2018 3:36:53 PM
 
***********************TARGET7*********************** 
 
 Line Data 11 Updated For Inventory Adjustments . 
 
 11/5/2018 3:36:54 PM
 
***********************TARGET7*********************** 
 
 Line Data 12 Updated For Inventory Adjustments . 
 
 11/5/2018 3:36:55 PM
 
***********************TARGET7*********************** 
 
 Line Data 13 Updated For Inventory Adjustments . 
 
 11/5/2018 3:36:55 PM
 
***********************TARGET7*********************** 
 
 Line Data 14 Updated For Inventory Adjustments . 
 
 11/5/2018 3:36:56 PM
 
***********************TARGET7*********************** 
 
 Line Data 15 Updated For Inventory Adjustments . 
 
 11/5/2018 3:36:56 PM
 
***********************TARGET7*********************** 
 
 Line Data 16 Updated For Inventory Adjustments . 
 
 11/5/2018 3:36:57 PM
 
***********************TARGET7*********************** 
 
 Line Data 17 Updated For Inventory Adjustments . 
 
 11/5/2018 3:36:58 PM
 
***********************TARGET7*********************** 
 
 Line Data 18 Updated For Inventory Adjustments . 
 
 11/5/2018 3:36:59 PM
 
***********************TARGET7*********************** 
 
 Line Data 19 Updated For Inventory Adjustments . 
 
 11/5/2018 3:36:59 PM
 
***********************TARGET7*********************** 
 
 Line Data 20 Updated For Inventory Adjustments . 
 
 11/5/2018 3:37:05 PM
 
***********************TARGET7*********************** 
 
 Line Data 21 Updated For Inventory Adjustments . 
 
 11/5/2018 3:37:05 PM
 
***********************TARGET7*********************** 
 
 Line Data 22 Updated For Inventory Adjustments . 
 
 11/5/2018 3:37:06 PM
 
***********************TARGET7*********************** 
 
 Line Data 23 Updated For Inventory Adjustments . 
 
 11/5/2018 3:37:07 PM
 
***********************TARGET7*********************** 
 
 Line Data 24 Updated For Inventory Adjustments . 
 
 11/5/2018 3:37:08 PM
 
***********************TARGET7*********************** 
 
 Line Data 25 Updated For Inventory Adjustments . 
 
 11/5/2018 3:37:09 PM
 
***********************TARGET7*********************** 
 
 Line Data 26 Updated For Inventory Adjustments . 
 
 11/5/2018 3:37:10 PM
 
***********************TARGET7*********************** 
 
 Line Data 27 Updated For Inventory Adjustments . 
 
 11/5/2018 3:37:10 PM
 
***********************TARGET7*********************** 
 
 Line Data 28 Updated For Inventory Adjustments . 
 
 11/5/2018 3:37:11 PM
 
***********************TARGET7*********************** 
 
 Line Data 29 Updated For Inventory Adjustments . 
 
 11/5/2018 3:37:11 PM
 
***********************TARGET7*********************** 
 
 Line Data 30 Updated For Inventory Adjustments . 
 
 11/5/2018 3:37:12 PM
 
***********************TARGET7*********************** 
 
 Line Data 31 Updated For Inventory Adjustments . 
 
 11/5/2018 3:37:12 PM
 
***********************TARGET7*********************** 
 
 Line Data 32 Updated For Inventory Adjustments . 
 
 11/5/2018 3:37:13 PM
 
***********************TARGET7*********************** 
 
 Line Data 33 Updated For Inventory Adjustments . 
 
 11/5/2018 3:37:14 PM
 
***********************TARGET7*********************** 
 
 Line Data 34 Updated For Inventory Adjustments . 
 
 11/5/2018 3:37:14 PM
 
***********************TARGET7*********************** 
 
 Line Data 35 Updated For Inventory Adjustments . 
 
 11/5/2018 3:37:15 PM
 
***********************TARGET7*********************** 
 
 Line Data 36 Updated For Inventory Adjustments . 
 
 11/5/2018 3:37:16 PM
 
***********************TARGET7*********************** 
 
 Line Data 37 Updated For Inventory Adjustments . 
 
 11/5/2018 3:37:16 PM
 
***********************TARGET7*********************** 
 
 Line Data 38 Updated For Inventory Adjustments . 
 
 11/5/2018 3:37:17 PM
 
***********************TARGET7*********************** 
 
 Line Data 39 Updated For Inventory Adjustments . 
 
 11/5/2018 3:37:17 PM
 
***********************TARGET7*********************** 
 
 Line Data 40 Updated For Inventory Adjustments . 
 
 11/5/2018 3:37:18 PM
 
***********************TARGET7*********************** 
 
 Line Data 41 Updated For Inventory Adjustments . 
 
 11/5/2018 3:37:19 PM
 
***********************TARGET7*********************** 
 
 Line Data 42 Updated For Inventory Adjustments . 
 
 11/5/2018 3:37:20 PM
 
***********************TARGET7*********************** 
 
 Line Data 43 Updated For Inventory Adjustments . 
 
 11/5/2018 3:37:20 PM
 
***********************TARGET7*********************** 
 
 Line Data 44 Updated For Inventory Adjustments . 
 
 11/5/2018 3:37:21 PM
 
***********************TARGET7*********************** 
 
 Line Data 45 Updated For Inventory Adjustments . 
 
 11/5/2018 3:37:22 PM
 
***********************TARGET7*********************** 
 
 Line Data 46 Updated For Inventory Adjustments . 
 
 11/5/2018 3:37:23 PM
 
***********************TARGET7*********************** 
 
 Line Data 47 Updated For Inventory Adjustments . 
 
 11/5/2018 3:37:23 PM
 
***********************TARGET7*********************** 
 
 Line Data 48 Updated For Inventory Adjustments . 
 
 11/5/2018 3:37:23 PM
 
***********************TARGET7*********************** 
 
 Line Data 49 Updated For Inventory Adjustments . 
 
 11/5/2018 3:37:24 PM
 
***********************TARGET7*********************** 
 
 Line Data 50 Updated For Inventory Adjustments . 
 
 11/5/2018 3:37:24 PM
 
***********************TARGET7*********************** 
 
 Line Data 51 Updated For Inventory Adjustments . 
 
 11/5/2018 3:37:25 PM
 
***********************TARGET7*********************** 
 
 Line Data 52 Updated For Inventory Adjustments . 
 
 11/5/2018 3:37:25 PM
 
***********************TARGET7*********************** 
 
 Line Data 53 Updated For Inventory Adjustments . 
 
 11/5/2018 3:37:26 PM
 
***********************TARGET7*********************** 
 
 Line Data 54 Updated For Inventory Adjustments . 
 
 11/5/2018 3:37:27 PM
 
***********************TARGET7*********************** 
 
 Line Data 55 Updated For Inventory Adjustments . 
 
 11/5/2018 3:37:28 PM
 
***********************TARGET7*********************** 
 
 Line Data 56 Updated For Inventory Adjustments . 
 
 11/5/2018 3:37:29 PM
 
***********************TARGET7*********************** 
 
 Line Data 57 Updated For Inventory Adjustments . 
 
 11/5/2018 3:37:31 PM
 
***********************TARGET7*********************** 
 
 Line Data 58 Updated For Inventory Adjustments . 
 
 11/5/2018 3:37:32 PM
 
***********************TARGET7*********************** 
 
 Line Data 59 Updated For Inventory Adjustments . 
 
 11/5/2018 3:37:34 PM
 
***********************TARGET7*********************** 
 
 Line Data 60 Updated For Inventory Adjustments . 
 
 11/5/2018 3:37:36 PM
 
***********************TARGET7*********************** 
 
 Line Data 61 Updated For Inventory Adjustments . 
 
 11/5/2018 3:37:37 PM
 
***********************TARGET7*********************** 
 
 Line Data 62 Updated For Inventory Adjustments . 
 
 11/5/2018 3:37:38 PM
 
***********************TARGET7*********************** 
 
 Line Data 63 Updated For Inventory Adjustments . 
 
 11/5/2018 3:37:41 PM
 
***********************TARGET7*********************** 
 
 Line Data 64 Updated For Inventory Adjustments . 
 
 11/5/2018 3:37:43 PM
 
***********************TARGET7*********************** 
 
 Line Data 65 Updated For Inventory Adjustments . 
 
 11/5/2018 3:37:44 PM
 
***********************TARGET7*********************** 
 
 Line Data 66 Updated For Inventory Adjustments . 
 
 11/5/2018 3:37:45 PM
 
***********************TARGET7*********************** 
 
 Line Data 67 Updated For Inventory Adjustments . 
 
 11/5/2018 3:37:46 PM
 
***********************TARGET7*********************** 
 
 Line Data 68 Updated For Inventory Adjustments . 
 
 11/5/2018 3:37:47 PM
 
***********************TARGET7*********************** 
 
 Line Data 69 Updated For Inventory Adjustments . 
 
 11/5/2018 3:37:48 PM
 
***********************TARGET1*********************** 
 
 Line Data Received . 11/5/2018 4:34:37 PM
 
***********************TARGET4*********************** 
 
 Header Data Updated for Inventory Adjustments . 
 
 11/5/2018 4:35:03 PM
 
***********************TARGET7*********************** 
 
 Line Data 0 Updated For Inventory Adjustments . 
 
 11/5/2018 4:35:03 PM
 
***********************TARGET7*********************** 
 
 Line Data 1 Updated For Inventory Adjustments . 
 
 11/5/2018 4:35:04 PM
 
***********************TARGET7*********************** 
 
 Line Data 2 Updated For Inventory Adjustments . 
 
 11/5/2018 4:35:04 PM
 
***********************TARGET7*********************** 
 
 Line Data 3 Updated For Inventory Adjustments . 
 
 11/5/2018 4:35:04 PM
 
***********************TARGET7*********************** 
 
 Line Data 4 Updated For Inventory Adjustments . 
 
 11/5/2018 4:35:04 PM
 
***********************TARGET7*********************** 
 
 Line Data 5 Updated For Inventory Adjustments . 
 
 11/5/2018 4:35:05 PM
 
***********************TARGET7*********************** 
 
 Line Data 6 Updated For Inventory Adjustments . 
 
 11/5/2018 4:35:05 PM
 
***********************TARGET7*********************** 
 
 Line Data 7 Updated For Inventory Adjustments . 
 
 11/5/2018 4:35:05 PM
 
***********************TARGET7*********************** 
 
 Line Data 8 Updated For Inventory Adjustments . 
 
 11/5/2018 4:35:06 PM
 
***********************TARGET7*********************** 
 
 Line Data 9 Updated For Inventory Adjustments . 
 
 11/5/2018 4:35:06 PM
 
***********************TARGET7*********************** 
 
 Line Data 10 Updated For Inventory Adjustments . 
 
 11/5/2018 4:35:06 PM
 
***********************TARGET7*********************** 
 
 Line Data 11 Updated For Inventory Adjustments . 
 
 11/5/2018 4:35:06 PM
 
***********************TARGET7*********************** 
 
 Line Data 12 Updated For Inventory Adjustments . 
 
 11/5/2018 4:35:07 PM
 
***********************TARGET7*********************** 
 
 Line Data 13 Updated For Inventory Adjustments . 
 
 11/5/2018 4:35:07 PM
 
***********************TARGET7*********************** 
 
 Line Data 14 Updated For Inventory Adjustments . 
 
 11/5/2018 4:35:08 PM
 
***********************TARGET7*********************** 
 
 Line Data 15 Updated For Inventory Adjustments . 
 
 11/5/2018 4:35:08 PM
 
***********************TARGET7*********************** 
 
 Line Data 16 Updated For Inventory Adjustments . 
 
 11/5/2018 4:35:08 PM
 
***********************TARGET7*********************** 
 
 Line Data 17 Updated For Inventory Adjustments . 
 
 11/5/2018 4:35:08 PM
 
***********************TARGET7*********************** 
 
 Line Data 18 Updated For Inventory Adjustments . 
 
 11/5/2018 4:35:09 PM
 
***********************TARGET7*********************** 
 
 Line Data 19 Updated For Inventory Adjustments . 
 
 11/5/2018 4:35:09 PM
 
***********************TARGET7*********************** 
 
 Line Data 20 Updated For Inventory Adjustments . 
 
 11/5/2018 4:35:09 PM
 
***********************TARGET7*********************** 
 
 Line Data 21 Updated For Inventory Adjustments . 
 
 11/5/2018 4:35:09 PM
 
***********************TARGET7*********************** 
 
 Line Data 22 Updated For Inventory Adjustments . 
 
 11/5/2018 4:35:09 PM
 
***********************TARGET7*********************** 
 
 Line Data 23 Updated For Inventory Adjustments . 
 
 11/5/2018 4:35:09 PM
 
***********************TARGET7*********************** 
 
 Line Data 24 Updated For Inventory Adjustments . 
 
 11/5/2018 4:35:10 PM
 
***********************TARGET7*********************** 
 
 Line Data 25 Updated For Inventory Adjustments . 
 
 11/5/2018 4:35:10 PM
 
***********************TARGET7*********************** 
 
 Line Data 26 Updated For Inventory Adjustments . 
 
 11/5/2018 4:35:10 PM
 
***********************TARGET7*********************** 
 
 Line Data 27 Updated For Inventory Adjustments . 
 
 11/5/2018 4:35:10 PM
 
***********************TARGET7*********************** 
 
 Line Data 28 Updated For Inventory Adjustments . 
 
 11/5/2018 4:35:11 PM
 
***********************TARGET7*********************** 
 
 Line Data 29 Updated For Inventory Adjustments . 
 
 11/5/2018 4:35:11 PM
 
***********************TARGET7*********************** 
 
 Line Data 30 Updated For Inventory Adjustments . 
 
 11/5/2018 4:35:11 PM
 
***********************TARGET7*********************** 
 
 Line Data 31 Updated For Inventory Adjustments . 
 
 11/5/2018 4:35:12 PM
 
***********************TARGET7*********************** 
 
 Line Data 32 Updated For Inventory Adjustments . 
 
 11/5/2018 4:35:13 PM
 
***********************TARGET7*********************** 
 
 Line Data 33 Updated For Inventory Adjustments . 
 
 11/5/2018 4:35:13 PM
 
***********************TARGET7*********************** 
 
 Line Data 34 Updated For Inventory Adjustments . 
 
 11/5/2018 4:35:13 PM
 
***********************TARGET7*********************** 
 
 Line Data 35 Updated For Inventory Adjustments . 
 
 11/5/2018 4:35:13 PM
 
***********************TARGET7*********************** 
 
 Line Data 36 Updated For Inventory Adjustments . 
 
 11/5/2018 4:35:13 PM
 
***********************TARGET7*********************** 
 
 Line Data 37 Updated For Inventory Adjustments . 
 
 11/5/2018 4:35:14 PM
 
***********************TARGET7*********************** 
 
 Line Data 38 Updated For Inventory Adjustments . 
 
 11/5/2018 4:35:14 PM
 
***********************TARGET7*********************** 
 
 Line Data 39 Updated For Inventory Adjustments . 
 
 11/5/2018 4:35:14 PM
 
***********************TARGET7*********************** 
 
 Line Data 40 Updated For Inventory Adjustments . 
 
 11/5/2018 4:35:14 PM
 
***********************TARGET7*********************** 
 
 Line Data 41 Updated For Inventory Adjustments . 
 
 11/5/2018 4:35:15 PM
 
***********************TARGET7*********************** 
 
 Line Data 42 Updated For Inventory Adjustments . 
 
 11/5/2018 4:35:15 PM
 
***********************TARGET7*********************** 
 
 Line Data 43 Updated For Inventory Adjustments . 
 
 11/5/2018 4:35:15 PM
 
***********************TARGET7*********************** 
 
 Line Data 44 Updated For Inventory Adjustments . 
 
 11/5/2018 4:35:15 PM
 
***********************TARGET7*********************** 
 
 Line Data 45 Updated For Inventory Adjustments . 
 
 11/5/2018 4:35:15 PM
 
***********************TARGET7*********************** 
 
 Line Data 46 Updated For Inventory Adjustments . 
 
 11/5/2018 4:35:16 PM
 
***********************TARGET7*********************** 
 
 Line Data 47 Updated For Inventory Adjustments . 
 
 11/5/2018 4:35:16 PM
 
***********************TARGET7*********************** 
 
 Line Data 48 Updated For Inventory Adjustments . 
 
 11/5/2018 4:35:16 PM
 
***********************TARGET7*********************** 
 
 Line Data 49 Updated For Inventory Adjustments . 
 
 11/5/2018 4:35:16 PM
 
***********************TARGET7*********************** 
 
 Line Data 50 Updated For Inventory Adjustments . 
 
 11/5/2018 4:35:16 PM
 
***********************TARGET7*********************** 
 
 Line Data 51 Updated For Inventory Adjustments . 
 
 11/5/2018 4:35:17 PM
 
***********************TARGET7*********************** 
 
 Line Data 52 Updated For Inventory Adjustments . 
 
 11/5/2018 4:35:17 PM
 
***********************TARGET7*********************** 
 
 Line Data 53 Updated For Inventory Adjustments . 
 
 11/5/2018 4:35:17 PM
 
***********************TARGET7*********************** 
 
 Line Data 54 Updated For Inventory Adjustments . 
 
 11/5/2018 4:35:18 PM
 
***********************TARGET7*********************** 
 
 Line Data 55 Updated For Inventory Adjustments . 
 
 11/5/2018 4:35:18 PM
 
***********************TARGET7*********************** 
 
 Line Data 56 Updated For Inventory Adjustments . 
 
 11/5/2018 4:35:18 PM
 
***********************TARGET7*********************** 
 
 Line Data 57 Updated For Inventory Adjustments . 
 
 11/5/2018 4:35:18 PM
 
***********************TARGET7*********************** 
 
 Line Data 58 Updated For Inventory Adjustments . 
 
 11/5/2018 4:35:18 PM
 
***********************TARGET7*********************** 
 
 Line Data 59 Updated For Inventory Adjustments . 
 
 11/5/2018 4:35:18 PM
 
***********************TARGET7*********************** 
 
 Line Data 60 Updated For Inventory Adjustments . 
 
 11/5/2018 4:35:18 PM
 
***********************TARGET7*********************** 
 
 Line Data 61 Updated For Inventory Adjustments . 
 
 11/5/2018 4:35:19 PM
 
***********************TARGET7*********************** 
 
 Line Data 62 Updated For Inventory Adjustments . 
 
 11/5/2018 4:35:19 PM
 
***********************TARGET7*********************** 
 
 Line Data 63 Updated For Inventory Adjustments . 
 
 11/5/2018 4:35:19 PM
 
***********************TARGET7*********************** 
 
 Line Data 64 Updated For Inventory Adjustments . 
 
 11/5/2018 4:35:19 PM
 
***********************TARGET7*********************** 
 
 Line Data 65 Updated For Inventory Adjustments . 
 
 11/5/2018 4:35:19 PM
 
***********************TARGET7*********************** 
 
 Line Data 66 Updated For Inventory Adjustments . 
 
 11/5/2018 4:35:19 PM
 
***********************TARGET7*********************** 
 
 Line Data 67 Updated For Inventory Adjustments . 
 
 11/5/2018 4:35:20 PM
 
***********************TARGET7*********************** 
 
 Line Data 68 Updated For Inventory Adjustments . 
 
 11/5/2018 4:35:20 PM
 
***********************TARGET7*********************** 
 
 Line Data 69 Updated For Inventory Adjustments . 
 
 11/5/2018 4:35:20 PM
