
could not connect to redis Instance at 202.65.131.29:6379 8/18/2020 9:54:37 AMcould not connect to redis Instance at 202.65.131.29:6379 8/18/2020 9:55:25 AM
could not connect to redis Instance at 202.65.131.29:6379 8/18/2020 2:41:10 PM
could not connect to redis Instance at 202.65.131.29:6379 8/18/2020 2:54:16 PM
could not connect to redis Instance at 202.65.131.29:6379 8/18/2020 3:01:47 PM
could not connect to redis Instance at 202.65.131.29:6379 8/18/2020 3:19:18 PM
could not connect to redis Instance at 202.65.131.29:6379 8/18/2020 3:23:49 PM
could not connect to redis Instance at 202.65.131.29:6379 8/18/2020 3:30:20 PM
could not connect to redis Instance at 202.65.131.29:6379 8/18/2020 4:31:58 PM
