
NOAUTH Authentication required., sPort: 24937, LastCommand:  7/9/2019 3:54:23 PMNOAUTH Authentication required., sPort: 24951, LastCommand:  7/9/2019 3:58:06 PM
NOAUTH Authentication required., sPort: 25130, LastCommand:  7/9/2019 4:17:06 PM
