
 8/17/2018 10:12:39 AM 8/17/2018 10:13:14 AM
 8/17/2018 11:29:32 AM
 8/17/2018 11:32:34 AM
 8/17/2018 11:32:52 AM
 8/17/2018 11:33:37 AM
 8/17/2018 11:33:45 AM
 8/17/2018 11:33:47 AM
 8/17/2018 11:33:49 AM
 8/17/2018 11:33:54 AM
 8/17/2018 11:34:36 AM
 8/17/2018 11:34:40 AM
 8/17/2018 11:34:52 AM
 8/17/2018 11:34:58 AM
 8/17/2018 11:35:07 AM
 8/17/2018 11:35:10 AM
 8/17/2018 11:35:13 AM
 8/17/2018 11:35:27 AM
 8/17/2018 11:35:31 AM
 8/17/2018 11:35:36 AM
 8/17/2018 11:35:57 AM
 8/17/2018 11:36:12 AM
 8/17/2018 11:36:42 AM
 8/17/2018 11:37:57 AM
 8/17/2018 11:38:02 AM
 8/17/2018 11:38:38 AM
 8/17/2018 11:38:42 AM
 8/17/2018 11:39:04 AM
 8/17/2018 11:39:06 AM
 8/17/2018 11:39:10 AM
 8/17/2018 11:39:50 AM
 8/17/2018 11:40:41 AM
 8/17/2018 11:40:47 AM
 8/17/2018 11:41:14 AM
 8/17/2018 11:41:17 AM
 8/17/2018 11:41:34 AM
 8/17/2018 11:42:00 AM
 8/17/2018 11:44:34 AM
 8/17/2018 11:45:33 AM
 8/17/2018 11:45:52 AM
 8/17/2018 11:45:56 AM
 8/17/2018 11:46:03 AM
 8/17/2018 11:46:07 AM
 8/17/2018 11:57:39 AM
 8/17/2018 11:57:44 AM
 8/17/2018 11:58:04 AM
 8/17/2018 11:58:09 AM
 8/17/2018 11:58:09 AM
 8/17/2018 11:58:48 AM
 8/17/2018 12:04:48 PM
 8/17/2018 12:13:03 PM
 8/17/2018 12:13:10 PM
 8/17/2018 12:16:34 PM
 8/17/2018 12:16:43 PM
 8/17/2018 3:22:25 PM
 8/17/2018 3:22:29 PM
 8/17/2018 3:22:35 PM
 8/17/2018 3:22:38 PM
 8/17/2018 3:22:55 PM
 8/17/2018 3:23:14 PM
 8/17/2018 3:24:24 PM
 8/17/2018 3:24:27 PM
 8/17/2018 3:24:29 PM
 8/17/2018 3:25:37 PM
 8/17/2018 3:25:41 PM
 8/17/2018 3:26:01 PM
 8/17/2018 3:26:09 PM
 8/17/2018 3:26:44 PM
 8/17/2018 3:28:55 PM
