
 11/4/2018 11:00:13 AM 11/4/2018 11:00:26 AM
 11/4/2018 11:04:39 AM
 11/4/2018 11:04:56 AM
 11/4/2018 11:06:41 AM
 11/4/2018 11:07:44 AM
 11/4/2018 11:27:20 AM
 11/4/2018 11:27:40 AM
 11/4/2018 11:27:50 AM
 11/4/2018 11:27:57 AM
 11/4/2018 11:28:03 AM
 11/4/2018 11:29:36 AM
 11/4/2018 11:31:42 AM
 11/4/2018 11:31:49 AM
 11/4/2018 11:32:13 AM
 11/4/2018 11:32:21 AM
 11/4/2018 11:32:31 AM
 11/4/2018 11:32:37 AM
 11/4/2018 11:33:19 AM
 11/4/2018 11:33:32 AM
 11/4/2018 11:33:39 AM
 11/4/2018 11:34:27 AM
 11/4/2018 11:34:39 AM
 11/4/2018 11:40:53 AM
 11/4/2018 11:40:59 AM
 11/4/2018 11:41:37 AM
 11/4/2018 11:45:56 AM
 11/4/2018 11:46:06 AM
 11/4/2018 11:46:15 AM
 11/4/2018 11:46:42 AM
 11/4/2018 11:46:54 AM
 11/4/2018 11:48:51 AM
 11/4/2018 11:49:01 AM
 11/4/2018 11:49:53 AM
 11/4/2018 11:51:12 AM
 11/4/2018 11:51:52 AM
 11/4/2018 11:56:17 AM
 11/4/2018 11:57:39 AM
 11/4/2018 11:58:19 AM
 11/4/2018 11:58:34 AM
 11/4/2018 11:58:42 AM
 11/4/2018 11:59:13 AM
 11/4/2018 12:02:40 PM
 11/4/2018 12:02:50 PM
 11/4/2018 12:03:01 PM
 11/4/2018 12:03:33 PM
 11/4/2018 12:05:05 PM
 11/4/2018 12:05:13 PM
 11/4/2018 12:06:11 PM
 11/4/2018 12:07:10 PM
 11/4/2018 12:07:24 PM
 11/4/2018 12:07:32 PM
 11/4/2018 12:08:09 PM
 11/4/2018 12:11:48 PM
 11/4/2018 12:12:06 PM
 11/4/2018 12:12:12 PM
 11/4/2018 12:13:01 PM
 11/4/2018 12:13:31 PM
 11/4/2018 12:22:58 PM
 11/4/2018 12:23:09 PM
 11/4/2018 12:23:21 PM
 11/4/2018 12:50:00 PM
 11/4/2018 12:51:17 PM
 11/4/2018 12:51:26 PM
 11/4/2018 12:52:27 PM
 11/4/2018 12:52:34 PM
 11/4/2018 12:53:26 PM
 11/4/2018 12:55:12 PM
 11/4/2018 12:55:20 PM
 11/4/2018 12:55:27 PM
 11/4/2018 12:55:52 PM
 11/4/2018 12:56:52 PM
 11/4/2018 12:57:04 PM
 11/4/2018 12:57:10 PM
 11/4/2018 12:57:37 PM
 11/4/2018 12:57:48 PM
 11/4/2018 12:58:00 PM
 11/4/2018 12:58:06 PM
 11/4/2018 12:58:37 PM
 11/4/2018 12:59:32 PM
 11/4/2018 12:59:40 PM
 11/4/2018 12:59:49 PM
 11/4/2018 1:01:35 PM
 11/4/2018 1:02:22 PM
 11/4/2018 1:03:08 PM
 11/4/2018 1:03:14 PM
 11/4/2018 1:03:53 PM
 11/4/2018 1:04:21 PM
 11/4/2018 1:06:16 PM
 11/4/2018 1:06:26 PM
 11/4/2018 1:23:06 PM
 11/4/2018 1:23:14 PM
 11/4/2018 1:23:25 PM
 11/4/2018 1:24:42 PM
 11/4/2018 1:25:38 PM
 11/4/2018 1:25:45 PM
 11/4/2018 1:25:57 PM
 11/4/2018 1:42:07 PM
 11/4/2018 1:42:13 PM
 11/4/2018 1:43:20 PM
 11/4/2018 1:43:26 PM
 11/4/2018 2:47:09 PM
 11/4/2018 2:47:10 PM
 11/4/2018 2:47:26 PM
 11/4/2018 2:48:26 PM
 11/4/2018 2:48:35 PM
 11/4/2018 2:49:01 PM
 11/4/2018 2:50:01 PM
 11/4/2018 2:51:04 PM
 11/4/2018 2:53:17 PM
 11/4/2018 2:53:25 PM
 11/4/2018 2:53:33 PM
 11/4/2018 2:54:05 PM
 11/4/2018 2:54:35 PM
 11/4/2018 2:54:52 PM
 11/4/2018 2:55:02 PM
 11/4/2018 2:55:09 PM
 11/4/2018 2:55:43 PM
 11/4/2018 2:55:51 PM
 11/4/2018 2:56:22 PM
 11/4/2018 2:56:31 PM
 11/4/2018 2:57:26 PM
 11/4/2018 2:57:47 PM
 11/4/2018 2:57:58 PM
 11/4/2018 2:58:08 PM
 11/4/2018 2:58:31 PM
 11/4/2018 2:58:39 PM
 11/4/2018 2:59:17 PM
 11/4/2018 3:01:47 PM
 11/4/2018 3:02:55 PM
 11/4/2018 3:03:03 PM
 11/4/2018 3:03:16 PM
 11/4/2018 3:04:08 PM
 11/4/2018 3:04:11 PM
 11/4/2018 3:04:14 PM
 11/4/2018 3:08:23 PM
 11/4/2018 3:08:32 PM
 11/4/2018 3:08:38 PM
 11/4/2018 3:08:48 PM
 11/4/2018 3:11:35 PM
 11/4/2018 3:11:54 PM
 11/4/2018 3:12:04 PM
 11/4/2018 3:14:07 PM
 11/4/2018 3:14:22 PM
 11/4/2018 3:14:22 PM
 11/4/2018 3:15:10 PM
 11/4/2018 3:15:12 PM
 11/4/2018 3:15:14 PM
 11/4/2018 3:17:00 PM
 11/4/2018 3:17:12 PM
 11/4/2018 3:18:20 PM
 11/4/2018 3:18:27 PM
 11/4/2018 3:18:35 PM
 11/4/2018 3:19:56 PM
 11/4/2018 3:20:19 PM
 11/4/2018 3:20:38 PM
 11/4/2018 3:20:48 PM
 11/4/2018 3:22:50 PM
 11/4/2018 3:23:01 PM
 11/4/2018 3:23:10 PM
 11/4/2018 3:23:20 PM
 11/4/2018 3:25:15 PM
 11/4/2018 3:25:23 PM
 11/4/2018 3:25:32 PM
 11/4/2018 3:27:17 PM
 11/4/2018 3:28:25 PM
 11/4/2018 3:28:33 PM
 11/4/2018 3:28:40 PM
 11/4/2018 3:29:05 PM
 11/4/2018 3:29:28 PM
 11/4/2018 3:33:35 PM
 11/4/2018 3:36:16 PM
 11/4/2018 3:36:22 PM
 11/4/2018 3:36:31 PM
 11/4/2018 3:37:57 PM
 11/4/2018 3:38:07 PM
 11/4/2018 3:38:15 PM
 11/4/2018 3:38:27 PM
 11/4/2018 3:41:51 PM
 11/4/2018 3:42:00 PM
 11/4/2018 3:42:12 PM
 11/4/2018 3:45:30 PM
 11/4/2018 3:45:36 PM
 11/4/2018 3:46:53 PM
 11/4/2018 3:47:00 PM
 11/4/2018 3:47:09 PM
 11/4/2018 3:52:06 PM
 11/4/2018 3:52:20 PM
 11/4/2018 3:56:03 PM
 11/4/2018 3:56:11 PM
 11/4/2018 3:56:58 PM
 11/4/2018 3:57:14 PM
 11/4/2018 4:07:09 PM
 11/4/2018 4:07:16 PM
 11/4/2018 4:07:29 PM
 11/4/2018 4:08:15 PM
 11/4/2018 4:08:22 PM
 11/4/2018 4:23:15 PM
 11/4/2018 4:23:16 PM
 11/4/2018 4:23:27 PM
 11/4/2018 4:23:42 PM
 11/4/2018 4:23:52 PM
 11/4/2018 4:23:59 PM
 11/4/2018 4:24:20 PM
 11/4/2018 4:24:22 PM
 11/4/2018 4:24:30 PM
 11/4/2018 4:24:38 PM
 11/4/2018 4:25:17 PM
 11/4/2018 4:25:31 PM
 11/4/2018 4:25:37 PM
 11/4/2018 4:26:18 PM
 11/4/2018 4:26:26 PM
 11/4/2018 4:29:05 PM
 11/4/2018 4:29:11 PM
 11/4/2018 4:29:47 PM
 11/4/2018 4:29:55 PM
 11/4/2018 4:30:01 PM
 11/4/2018 4:31:05 PM
 11/4/2018 4:31:18 PM
 11/4/2018 4:35:54 PM
 11/4/2018 4:36:00 PM
 11/4/2018 4:38:08 PM
 11/4/2018 4:38:15 PM
 11/4/2018 4:39:25 PM
 11/4/2018 4:39:34 PM
 11/4/2018 5:13:00 PM
 11/4/2018 5:19:55 PM
 11/4/2018 5:20:03 PM
 11/4/2018 5:20:39 PM
 11/4/2018 5:21:01 PM
 11/4/2018 5:21:08 PM
 11/4/2018 5:21:48 PM
 11/4/2018 5:22:21 PM
 11/4/2018 5:22:25 PM
 11/4/2018 5:24:00 PM
 11/4/2018 5:24:30 PM
 11/4/2018 5:25:31 PM
 11/4/2018 5:30:18 PM
 11/4/2018 5:30:31 PM
 11/4/2018 5:30:46 PM
 11/4/2018 5:30:54 PM
 11/4/2018 5:30:59 PM
 11/4/2018 5:31:08 PM
 11/4/2018 5:31:18 PM
 11/4/2018 5:31:33 PM
 11/4/2018 5:31:42 PM
 11/4/2018 5:31:51 PM
 11/4/2018 5:31:52 PM
 11/4/2018 5:31:58 PM
 11/4/2018 5:32:20 PM
 11/4/2018 5:32:34 PM
 11/4/2018 5:33:05 PM
 11/4/2018 5:33:11 PM
 11/4/2018 5:33:39 PM
 11/4/2018 5:33:46 PM
 11/4/2018 5:34:20 PM
 11/4/2018 5:34:27 PM
 11/4/2018 5:34:44 PM
 11/4/2018 5:35:10 PM
 11/4/2018 5:37:02 PM
 11/4/2018 5:37:12 PM
 11/4/2018 5:37:21 PM
 11/4/2018 5:40:42 PM
 11/4/2018 5:40:53 PM
 11/4/2018 5:41:23 PM
 11/4/2018 5:41:39 PM
 11/4/2018 5:42:04 PM
 11/4/2018 5:42:14 PM
 11/4/2018 5:42:46 PM
 11/4/2018 5:42:56 PM
 11/4/2018 5:42:56 PM
 11/4/2018 5:43:12 PM
 11/4/2018 5:44:34 PM
 11/4/2018 5:44:50 PM
 11/4/2018 5:49:54 PM
 11/4/2018 5:50:37 PM
 11/4/2018 5:50:54 PM
 11/4/2018 5:51:01 PM
 11/4/2018 5:51:39 PM
 11/4/2018 5:51:45 PM
 11/4/2018 5:52:11 PM
 11/4/2018 5:53:05 PM
 11/4/2018 5:53:31 PM
 11/4/2018 5:53:41 PM
 11/4/2018 5:54:20 PM
 11/4/2018 5:54:26 PM
 11/4/2018 5:54:58 PM
 11/4/2018 5:55:22 PM
 11/4/2018 5:55:27 PM
 11/4/2018 9:31:43 PM
 11/4/2018 9:32:12 PM
 11/4/2018 9:32:24 PM
 11/4/2018 9:32:54 PM
 11/4/2018 9:34:48 PM
 11/4/2018 9:35:20 PM
 11/4/2018 9:35:27 PM
 11/4/2018 9:35:35 PM
 11/4/2018 9:37:28 PM
 11/4/2018 9:40:26 PM
 11/4/2018 9:41:15 PM
 11/4/2018 9:44:56 PM
 11/4/2018 9:45:11 PM
 11/4/2018 9:45:44 PM
 11/4/2018 9:48:26 PM
 11/4/2018 9:51:34 PM
 11/4/2018 9:58:22 PM
 11/4/2018 9:58:30 PM
 11/4/2018 9:59:38 PM
 11/4/2018 10:01:15 PM
 11/4/2018 10:01:21 PM
 11/4/2018 10:03:32 PM
