
Customer Process Initiated at 8/24/2018 5:17:11 PM 
Customer Tabs are Created at 8/24/2018 5:17:11 PM 
Customer GridView For Order_Message Data Initiated at 8/24/2018 5:17:11 PM 
Customer GridView For Order_Message Data Completed at 8/24/2018 5:17:11 PM 
Customer Master Value For OperatingUnit Data Initiated at 8/24/2018 5:17:11 PM 
Customer Master Value For OperatingUnit Data Completed at 8/24/2018 5:17:11 PM 
Customer Master Value For Item Data Initiated at 8/24/2018 5:17:11 PM 
Customer Master Value For Item Data Completed at 8/24/2018 5:17:11 PM 
Customer Master Value For Price_Level Data Initiated at 8/24/2018 5:17:11 PM 
Customer Master Value For Price_Level Data Completed at 8/24/2018 5:17:11 PM 
Customer Master Value For Address_ID Data Initiated at 8/24/2018 5:17:11 PM 
Customer Master Value For Address_ID Data Completed at 8/24/2018 5:17:11 PM 
Customer Master Value For Brand Data Initiated at 8/24/2018 5:17:11 PM 
Customer Master Value For Brand Data Completed at 8/24/2018 5:17:11 PM 
Customer Control Value For Category Data Initiated at 8/24/2018 5:17:11 PM 
Customer Control Value For Category Data Completed at 8/24/2018 5:17:11 PM 
Customer Control Value For Sub_Category Data Initiated at 8/24/2018 5:17:11 PM 
Customer Control Value For Sub_Category Data Completed at 8/24/2018 5:17:11 PM 
Customer Master Value For Operating_Unit Data Initiated at 8/24/2018 5:17:11 PM 
Customer Master Value For Operating_Unit Data Completed at 8/24/2018 5:17:11 PM 
Customer Master Value For Payment_Terms Data Initiated at 8/24/2018 5:17:11 PM 
Customer Master Value For Payment_Terms Data Completed at 8/24/2018 5:17:11 PM 
Customer Control Value For Payment_Mode Data Initiated at 8/24/2018 5:17:11 PM 
Customer Control Value For Payment_Mode Data Completed at 8/24/2018 5:17:11 PM 
Customer Master Value For Parent_Customer Data Initiated at 8/24/2018 5:17:11 PM 
Customer Master Value For Parent_Customer Data Completed at 8/24/2018 5:17:11 PM 
Customer Control Value For Department Data Initiated at 8/24/2018 5:17:11 PM 
Customer Control Value For Department Data Completed at 8/24/2018 5:17:11 PM 
Customer Master Value For Subsidary Data Initiated at 8/24/2018 5:17:11 PM 
Customer Master Value For Subsidary Data Completed at 8/24/2018 5:17:11 PM 
Customer Control Value For Classification Data Initiated at 8/24/2018 5:17:11 PM 
Customer Control Value For Classification Data Completed at 8/24/2018 5:17:11 PM 
Customer Control Value For Section Data Initiated at 8/24/2018 5:17:11 PM 
Customer Control Value For Section Data Completed at 8/24/2018 5:17:11 PM 
Customer Master Value For Sales_ Rep Data Initiated at 8/24/2018 5:17:11 PM 
Customer Master Value For Sales_ Rep Data Completed at 8/24/2018 5:17:11 PM 
Customer Control Value For Type Data Initiated at 8/24/2018 5:17:11 PM 
Customer Control Value For Type Data Completed at 8/24/2018 5:17:11 PM 
Customer Control Value For GST_Category Data Initiated at 8/24/2018 5:17:11 PM 
Customer Control Value For GST_Category Data Completed at 8/24/2018 5:17:11 PM 
Customer Master Value For State_Code Data Initiated at 8/24/2018 5:17:11 PM 
Customer Master Value For State_Code Data Completed at 8/24/2018 5:17:11 PM 
Customer Master Value For Country Data Initiated at 8/24/2018 5:17:11 PM 
Customer Master Value For Country Data Completed at 8/24/2018 5:17:11 PM 
Customer Master Value For State Data Initiated at 8/24/2018 5:17:11 PM 
Customer Master Value For State Data Completed at 8/24/2018 5:17:11 PM 
Customer Master Value For Country_ Data Initiated at 8/24/2018 5:17:11 PM 
Customer Master Value For Country_ Data Completed at 8/24/2018 5:17:11 PM 
Customer Master Value For State_ Data Initiated at 8/24/2018 5:17:11 PM 
Customer Master Value For State_ Data Completed at 8/24/2018 5:17:11 PM 
Customer Feilds are Created at 8/24/2018 5:17:11 PM 
Customer Feilds Creation Completed For SATABLE002 at 8/24/2018 5:17:11 PM 
Customer Feilds are Created at 8/24/2018 5:17:11 PM 
Customer Feilds Creation Completed For SATABLE003 at 8/24/2018 5:17:11 PM 
Customer Feilds are Created at 8/24/2018 5:17:11 PM 
Customer Feilds Creation Completed For MATABLE026 at 8/24/2018 5:17:11 PM 
Customer Feilds are Created at 8/24/2018 5:17:11 PM 
Customer Feilds Creation Completed For MATABLE027 at 8/24/2018 5:17:11 PM 
Customer Total Fields Creation Completed at 8/24/2018 5:17:11 PM 
Customer Process Completed at 8/24/2018 5:17:11 PM 
 8/24/2018 5:17:11 PM 
***********************TARGET1*********************** 
 
 Line Data Received . 8/24/2018 5:17:52 PM
 
***********************TARGET4*********************** 
 
 Header Data Created for Customer . 
 
 8/24/2018 5:17:53 PM
 
***********************TARGET7*********************** 
 
 Line Data 0 Created For Customer . 
 
 8/24/2018 5:17:53 PM
 
***********************TARGET4*********************** 
 
 Header Data Created for Customer . 
 
 8/24/2018 5:17:53 PM
 
***********************TARGET4*********************** 
 
 Header Data Created for Customer . 
 
 8/24/2018 5:17:53 PM
