
 
***********************TARGET4*********************** 
 
 Header Data Updated for Employee . 
 
 8/24/2018 5:20:36 PM 
***********************TARGET4*********************** 
 
 Header Data Updated for Employee . 
 
 8/24/2018 5:20:36 PM
 
***********************TARGET4*********************** 
 
 Header Data Updated for Employee . 
 
 8/24/2018 5:20:36 PM
 
***********************TARGET4*********************** 
 
 Header Data Updated for Employee . 
 
 8/24/2018 5:20:36 PM
