
NOAUTH Authentication required., sPort: 46611, LastCommand:  1/17/2019 3:43:13 PMNOAUTH Authentication required., sPort: 56054, LastCommand:  1/17/2019 3:48:26 PM
NOAUTH Authentication required., sPort: 18004, LastCommand:  1/17/2019 4:03:03 PM
NOAUTH Authentication required., sPort: 38111, LastCommand:  1/17/2019 4:14:09 PM
