
 04/17/2020 10:46:23 AM 04/17/2020 10:52:59 AM
 04/17/2020 10:54:12 AM
 04/17/2020 10:54:48 AM
 04/17/2020 11:17:57 AM
 04/17/2020 11:24:51 AM
 04/17/2020 11:26:15 AM
 04/17/2020 3:43:06 PM
 04/17/2020 3:43:17 PM
 04/17/2020 3:45:38 PM
 04/17/2020 3:46:37 PM
 04/17/2020 3:50:47 PM
 04/17/2020 3:51:06 PM
 04/17/2020 3:55:40 PM
 04/17/2020 3:55:45 PM
 04/17/2020 3:55:49 PM
 04/17/2020 3:57:32 PM
 04/17/2020 3:57:37 PM
 04/17/2020 3:58:16 PM
 04/17/2020 3:58:21 PM
 04/17/2020 3:59:02 PM
 04/17/2020 3:59:13 PM
 04/17/2020 3:59:28 PM
 04/17/2020 3:59:37 PM
 04/17/2020 3:59:50 PM
 04/17/2020 3:59:59 PM
 04/17/2020 4:00:17 PM
 04/17/2020 4:00:21 PM
 04/17/2020 4:00:27 PM
 04/17/2020 4:00:34 PM
 04/17/2020 4:00:45 PM
 04/17/2020 4:00:51 PM
 04/17/2020 4:02:02 PM
 04/17/2020 4:02:10 PM
 04/17/2020 4:02:25 PM
 04/17/2020 4:02:30 PM
 04/17/2020 4:02:35 PM
 04/17/2020 4:02:54 PM
 04/17/2020 4:03:09 PM
 04/17/2020 4:04:34 PM
 04/17/2020 5:08:02 PM
 04/17/2020 5:08:07 PM
 04/17/2020 5:08:36 PM
 04/17/2020 5:08:44 PM
 04/17/2020 5:08:51 PM
 04/17/2020 5:08:57 PM
 04/17/2020 5:09:01 PM
 04/17/2020 5:09:12 PM
 04/17/2020 5:09:16 PM
 04/17/2020 5:09:34 PM
 04/17/2020 5:10:10 PM
 04/17/2020 5:10:16 PM
 04/17/2020 5:10:22 PM
 04/17/2020 5:13:15 PM
 04/17/2020 5:14:36 PM
 04/17/2020 5:15:27 PM
 04/17/2020 5:16:23 PM
 04/17/2020 5:19:49 PM
 04/17/2020 5:19:54 PM
 04/17/2020 5:20:00 PM
 04/17/2020 5:20:05 PM
 04/17/2020 5:20:25 PM
 04/17/2020 5:20:45 PM
 04/17/2020 5:20:51 PM
 04/17/2020 5:21:01 PM
 04/17/2020 5:21:13 PM
 04/17/2020 5:24:42 PM
 04/17/2020 5:25:55 PM
 04/17/2020 5:26:06 PM
 04/17/2020 5:26:13 PM
 04/17/2020 5:26:24 PM
 04/17/2020 5:27:32 PM
 04/17/2020 5:28:21 PM
 04/17/2020 5:29:46 PM
 04/17/2020 5:30:05 PM
 04/17/2020 5:30:18 PM
 04/17/2020 5:30:23 PM
 04/17/2020 5:31:14 PM
 04/17/2020 5:32:00 PM
 04/17/2020 5:32:10 PM
 04/17/2020 5:32:16 PM
 04/17/2020 5:38:56 PM
 04/17/2020 5:39:03 PM
 04/17/2020 5:39:48 PM
 04/17/2020 5:40:33 PM
 04/17/2020 5:40:37 PM
 04/17/2020 5:40:59 PM
 04/17/2020 5:41:03 PM
 04/17/2020 5:41:23 PM
 04/17/2020 5:41:30 PM
 04/17/2020 5:41:38 PM
 04/17/2020 6:16:59 PM
 04/17/2020 6:17:04 PM
 04/17/2020 6:21:46 PM
 04/17/2020 6:21:50 PM
 04/17/2020 7:10:00 PM
 04/17/2020 7:10:05 PM
 04/17/2020 7:10:20 PM
 04/17/2020 7:10:25 PM
 04/17/2020 7:11:20 PM
 04/17/2020 7:11:34 PM
