
 the  values 17152`1284`2121`1000`20484`JOI00017`04/17/20``add,
add1,
Andhra Pradesh,
India.```57416```56578`04/17/2020 2:43:21 PM`04/17/2020 2:43:21 PM`1`0`1035 of form Issue(Out) and Table SATABLE007 has succeeded at  04/17/2020 2:43:21 PM the  values  of form Issue(Out) and Table SATABLE008 succeeded at  04/17/2020 2:43:45 PM
 the  values 17154`1284`8199`1000`20487`JOI00018`04/17/20`` ,
 ,
 ,
India.```57416```56578`04/17/2020 7:03:30 PM`04/17/2020 7:03:30 PM`1`0`1035 of form Issue(Out) and Table SATABLE007 has succeeded at  04/17/2020 7:03:31 PM
 the  values  of form Issue(Out) and Table SATABLE008 succeeded at  04/17/2020 7:03:32 PM
