
Failed........ Due to Violation of PRIMARY KEY constraint 'PK__CONTABLE__8723CF0F40B302C8'. Cannot insert duplicate key in object 'dbo.CONTABLE020'. The duplicate key value is (104967). The statement has been terminated. at line no : e 416At04/17/2020 11:20:44 AM 
 04/17/2020 11:20:44 AMFailed........ Due to Violation of PRIMARY KEY constraint 'PK__CONTABLE__8723CF0F40B302C8'. Cannot insert duplicate key in object 'dbo.CONTABLE020'. The duplicate key value is (104978). The statement has been terminated. at line no : e 416At04/17/2020 10:10:25 PM 
 04/17/2020 10:10:25 PM
