

 Line Tax Amount = Total (0.00)  * Tax (0.00) 
 Header Total Amount  = Sub Total (0.00) Tax (0.00)+ PackingCharges (0.00)+ ShippingCharges (0.00) 
 5/26/2020 4:38:13 PM
 Line Tax Amount = Total (0.00)  * Tax (0.00) 
 Header Total Amount  = Sub Total (0.00) Tax (0.00)+ PackingCharges (0.00)+ ShippingCharges (0.00) 
 Header Tax Amount = Subtotal (0.00)  - PackingCharges (0) - ShippingCharges (0) * Tax (0.00) 
 Line Tax Amount Item 1= (0.00) 
 Total Tax Amount = Heder Tax (0.00) + Line Tax (0) 
 Total Amount = Sub Total (0.00)  + Heder Tax (0.00) + Line Tax (0) 
 Line Tax Amount = Total (240.00)  * Tax (0.00) 
 Line Amount = Total (240)  
 Line Total Amount = Amount (240) + Tax Amount (0.00)  
 Header Total Amount  = Sub Total (240.00) Tax (0.00)+ PackingCharges (0.00)+ ShippingCharges (0.00) 
 5/26/2020 4:38:56 PM
