

 Line Tax Amount = Total (500.00)  * Tax (0.00) 
 Line Amount = Total (500)  
 Line Total Amount = Amount (500) + Tax Amount (0.00)  
 Header Total Amount  = Sub Total (500.00) Tax (0.00)+ PackingCharges (0.00)+ ShippingCharges (0.00) 
 04/13/2020 10:40:55 PM