
could not connect to redis Instance at 202.65.131.29:6379 04/13/2020 11:04:59 AMcould not connect to redis Instance at 202.65.131.29:6379 04/13/2020 1:34:43 PM
could not connect to redis Instance at 202.65.131.29:6379 04/13/2020 4:46:03 PM
could not connect to redis Instance at 202.65.131.29:6379 04/13/2020 5:51:52 PM
could not connect to redis Instance at 202.65.131.29:6379 04/13/2020 5:58:27 PM
could not connect to redis Instance at 202.65.131.29:6379 04/13/2020 5:58:49 PM
could not connect to redis Instance at 202.65.131.29:6379 04/13/2020 6:07:05 PM
could not connect to redis Instance at 202.65.131.29:6379 04/13/2020 6:44:02 PM
could not connect to redis Instance at 202.65.131.29:6379 04/13/2020 6:44:25 PM
could not connect to redis Instance at 202.65.131.29:6379 04/13/2020 9:33:51 PM
