
Stock Transfer Process Initiated at 04/13/2020 11:57:16 AM 
Stock Transfer Tabs are Created at 04/13/2020 11:57:16 AM 
Stock Transfer Master Value For Item Data Initiated at 04/13/2020 11:57:16 AM 
Stock Transfer Master Value For Item Data Completed at 04/13/2020 11:57:17 AM 
Stock Transfer Control Value For UOM Data Initiated at 04/13/2020 11:57:17 AM 
Stock Transfer Control Value For UOM Data Completed at 04/13/2020 11:57:17 AM 
Stock Transfer Master Value For LOT Data Initiated at 04/13/2020 11:57:17 AM 
Stock Transfer Master Value For LOT Data Completed at 04/13/2020 11:57:17 AM 
Stock Transfer Master Value For Project Data Initiated at 04/13/2020 11:57:17 AM 
Stock Transfer Master Value For Project Data Completed at 04/13/2020 11:57:17 AM 
Stock Transfer Master Value For Source_Operating_Unit Data Initiated at 04/13/2020 11:57:17 AM 
Stock Transfer Master Value For Source_Operating_Unit Data Completed at 04/13/2020 11:57:17 AM 
Stock Transfer Master Value For Source_Location Data Initiated at 04/13/2020 11:57:17 AM 
Stock Transfer Master Value For Source_Location Data Completed at 04/13/2020 11:57:17 AM 
Stock Transfer Master Value For Source_Project Data Initiated at 04/13/2020 11:57:17 AM 
Stock Transfer Master Value For Source_Project Data Completed at 04/13/2020 11:57:17 AM 
Stock Transfer Master Value For Destination_Operating_Unit Data Initiated at 04/13/2020 11:57:17 AM 
Stock Transfer Master Value For Destination_Operating_Unit Data Completed at 04/13/2020 11:57:17 AM 
Stock Transfer Master Value For Destination_Location Data Initiated at 04/13/2020 11:57:17 AM 
Stock Transfer Master Value For Destination_Location Data Completed at 04/13/2020 11:57:17 AM 
Stock Transfer Master Value For Destination_Project Data Initiated at 04/13/2020 11:57:17 AM 
Stock Transfer Master Value For Destination_Project Data Completed at 04/13/2020 11:57:17 AM 
Stock Transfer Feilds are Created at 04/13/2020 11:57:17 AM 
Stock Transfer Feilds Creation Completed For PRTABLE003 at 04/13/2020 11:57:17 AM 
Stock Transfer Feilds are Created at 04/13/2020 11:57:17 AM 
Stock Transfer Feilds Creation Completed For PRTABLE004 at 04/13/2020 11:57:17 AM 
Stock Transfer Total Fields Creation Completed at 04/13/2020 11:57:17 AM 
Stock Transfer Process Completed at 04/13/2020 11:57:17 AM 
 04/13/2020 11:57:17 AMStock Transfer Process Initiated at 04/13/2020 11:58:29 AM 
Stock Transfer Tabs are Created at 04/13/2020 11:58:29 AM 
Stock Transfer Master Value For Item Data Initiated at 04/13/2020 11:58:29 AM 
Stock Transfer Master Value For Item Data Completed at 04/13/2020 11:58:29 AM 
Stock Transfer Control Value For UOM Data Initiated at 04/13/2020 11:58:29 AM 
Stock Transfer Control Value For UOM Data Completed at 04/13/2020 11:58:29 AM 
Stock Transfer Master Value For LOT Data Initiated at 04/13/2020 11:58:29 AM 
Stock Transfer Master Value For LOT Data Completed at 04/13/2020 11:58:29 AM 
Stock Transfer Master Value For Project Data Initiated at 04/13/2020 11:58:29 AM 
Stock Transfer Master Value For Project Data Completed at 04/13/2020 11:58:29 AM 
Stock Transfer Master Value For Source_Operating_Unit Data Initiated at 04/13/2020 11:58:29 AM 
Stock Transfer Master Value For Source_Operating_Unit Data Completed at 04/13/2020 11:58:29 AM 
Stock Transfer Master Value For Source_Location Data Initiated at 04/13/2020 11:58:29 AM 
Stock Transfer Master Value For Source_Location Data Completed at 04/13/2020 11:58:29 AM 
Stock Transfer Master Value For Source_Project Data Initiated at 04/13/2020 11:58:29 AM 
Stock Transfer Master Value For Source_Project Data Completed at 04/13/2020 11:58:29 AM 
Stock Transfer Master Value For Destination_Operating_Unit Data Initiated at 04/13/2020 11:58:29 AM 
Stock Transfer Master Value For Destination_Operating_Unit Data Completed at 04/13/2020 11:58:29 AM 
Stock Transfer Master Value For Destination_Location Data Initiated at 04/13/2020 11:58:29 AM 
Stock Transfer Master Value For Destination_Location Data Completed at 04/13/2020 11:58:29 AM 
Stock Transfer Master Value For Destination_Project Data Initiated at 04/13/2020 11:58:29 AM 
Stock Transfer Master Value For Destination_Project Data Completed at 04/13/2020 11:58:29 AM 
Stock Transfer Feilds are Created at 04/13/2020 11:58:29 AM 
Stock Transfer Feilds Creation Completed For PRTABLE003 at 04/13/2020 11:58:29 AM 
Stock Transfer Feilds are Created at 04/13/2020 11:58:29 AM 
Stock Transfer Feilds Creation Completed For PRTABLE004 at 04/13/2020 11:58:29 AM 
Stock Transfer Total Fields Creation Completed at 04/13/2020 11:58:29 AM 
Stock Transfer Process Completed at 04/13/2020 11:58:29 AM 
 04/13/2020 11:58:29 AM
 
***********************TARGET1*********************** 
 
 Line Data Received . 04/13/2020 11:59:03 AM
 
***********************TARGET4*********************** 
 
 Header Data Created for Stock Transfer . 
 
 04/13/2020 11:59:04 AM
 
***********************TARGET7*********************** 
 
 Line Data 0 Created For Stock Transfer . 
 
 04/13/2020 11:59:04 AM
Stock Transfer Process Initiated at 04/13/2020 2:14:45 PM 
Stock Transfer Tabs are Created at 04/13/2020 2:14:45 PM 
Stock Transfer Master Value For Item Data Initiated at 04/13/2020 2:14:45 PM 
Stock Transfer Master Value For Item Data Completed at 04/13/2020 2:14:45 PM 
Stock Transfer Control Value For UOM Data Initiated at 04/13/2020 2:14:45 PM 
Stock Transfer Control Value For UOM Data Completed at 04/13/2020 2:14:45 PM 
Stock Transfer Master Value For LOT Data Initiated at 04/13/2020 2:14:45 PM 
Stock Transfer Master Value For LOT Data Completed at 04/13/2020 2:14:45 PM 
Stock Transfer Master Value For Project Data Initiated at 04/13/2020 2:14:45 PM 
Stock Transfer Master Value For Project Data Completed at 04/13/2020 2:14:45 PM 
Stock Transfer Master Value For Source_Operating_Unit Data Initiated at 04/13/2020 2:14:45 PM 
Stock Transfer Master Value For Source_Operating_Unit Data Completed at 04/13/2020 2:14:45 PM 
Stock Transfer Master Value For Source_Location Data Initiated at 04/13/2020 2:14:45 PM 
Stock Transfer Master Value For Source_Location Data Completed at 04/13/2020 2:14:45 PM 
Stock Transfer Master Value For Source_Project Data Initiated at 04/13/2020 2:14:45 PM 
Stock Transfer Master Value For Source_Project Data Completed at 04/13/2020 2:14:45 PM 
Stock Transfer Master Value For Destination_Operating_Unit Data Initiated at 04/13/2020 2:14:45 PM 
Stock Transfer Master Value For Destination_Operating_Unit Data Completed at 04/13/2020 2:14:45 PM 
Stock Transfer Master Value For Destination_Location Data Initiated at 04/13/2020 2:14:45 PM 
Stock Transfer Master Value For Destination_Location Data Completed at 04/13/2020 2:14:45 PM 
Stock Transfer Master Value For Destination_Project Data Initiated at 04/13/2020 2:14:45 PM 
Stock Transfer Master Value For Destination_Project Data Completed at 04/13/2020 2:14:45 PM 
Stock Transfer Feilds are Created at 04/13/2020 2:14:45 PM 
Stock Transfer Feilds Creation Completed For PRTABLE003 at 04/13/2020 2:14:45 PM 
Stock Transfer Feilds are Created at 04/13/2020 2:14:45 PM 
Stock Transfer Feilds Creation Completed For PRTABLE004 at 04/13/2020 2:14:45 PM 
Stock Transfer Total Fields Creation Completed at 04/13/2020 2:14:45 PM 
Stock Transfer Process Completed at 04/13/2020 2:14:45 PM 
 04/13/2020 2:14:45 PM
Stock Transfer Process Initiated at 04/13/2020 2:32:20 PM 
Stock Transfer Tabs are Created at 04/13/2020 2:32:20 PM 
Stock Transfer Master Value For Item Data Initiated at 04/13/2020 2:32:20 PM 
Stock Transfer Master Value For Item Data Completed at 04/13/2020 2:32:20 PM 
Stock Transfer Control Value For UOM Data Initiated at 04/13/2020 2:32:20 PM 
Stock Transfer Control Value For UOM Data Completed at 04/13/2020 2:32:20 PM 
Stock Transfer Master Value For LOT Data Initiated at 04/13/2020 2:32:20 PM 
Stock Transfer Master Value For LOT Data Completed at 04/13/2020 2:32:20 PM 
Stock Transfer Master Value For Project Data Initiated at 04/13/2020 2:32:20 PM 
Stock Transfer Master Value For Project Data Completed at 04/13/2020 2:32:20 PM 
Stock Transfer Master Value For Source_Operating_Unit Data Initiated at 04/13/2020 2:32:20 PM 
Stock Transfer Master Value For Source_Operating_Unit Data Completed at 04/13/2020 2:32:20 PM 
Stock Transfer Master Value For Source_Location Data Initiated at 04/13/2020 2:32:20 PM 
Stock Transfer Master Value For Source_Location Data Completed at 04/13/2020 2:32:20 PM 
Stock Transfer Master Value For Source_Project Data Initiated at 04/13/2020 2:32:20 PM 
Stock Transfer Master Value For Source_Project Data Completed at 04/13/2020 2:32:20 PM 
Stock Transfer Master Value For Destination_Operating_Unit Data Initiated at 04/13/2020 2:32:20 PM 
Stock Transfer Master Value For Destination_Operating_Unit Data Completed at 04/13/2020 2:32:20 PM 
Stock Transfer Master Value For Destination_Location Data Initiated at 04/13/2020 2:32:20 PM 
Stock Transfer Master Value For Destination_Location Data Completed at 04/13/2020 2:32:20 PM 
Stock Transfer Master Value For Destination_Project Data Initiated at 04/13/2020 2:32:20 PM 
Stock Transfer Master Value For Destination_Project Data Completed at 04/13/2020 2:32:20 PM 
Stock Transfer Feilds are Created at 04/13/2020 2:32:20 PM 
Stock Transfer Feilds Creation Completed For PRTABLE003 at 04/13/2020 2:32:20 PM 
Stock Transfer Feilds are Created at 04/13/2020 2:32:20 PM 
Stock Transfer Feilds Creation Completed For PRTABLE004 at 04/13/2020 2:32:20 PM 
Stock Transfer Total Fields Creation Completed at 04/13/2020 2:32:20 PM 
Stock Transfer Process Completed at 04/13/2020 2:32:20 PM 
 04/13/2020 2:32:20 PM
 
***********************TARGET1*********************** 
 
 Line Data Received . 04/13/2020 2:33:04 PM
 
***********************TARGET4*********************** 
 
 Header Data Created for Stock Transfer . 
 
 04/13/2020 2:42:30 PM
 
***********************TARGET7*********************** 
 
 Line Data 0 Created For Stock Transfer . 
 
 04/13/2020 2:42:31 PM
Stock Transfer Process Initiated at 04/13/2020 5:05:05 PM 
Stock Transfer Tabs are Created at 04/13/2020 5:05:05 PM 
Stock Transfer Master Value For Item Data Initiated at 04/13/2020 5:05:05 PM 
Stock Transfer Master Value For Item Data Completed at 04/13/2020 5:05:05 PM 
Stock Transfer Control Value For UOM Data Initiated at 04/13/2020 5:05:05 PM 
Stock Transfer Control Value For UOM Data Completed at 04/13/2020 5:05:05 PM 
Stock Transfer Master Value For LOT Data Initiated at 04/13/2020 5:05:05 PM 
Stock Transfer Master Value For LOT Data Completed at 04/13/2020 5:05:05 PM 
Stock Transfer Master Value For Project Data Initiated at 04/13/2020 5:05:05 PM 
Stock Transfer Master Value For Project Data Completed at 04/13/2020 5:05:05 PM 
Stock Transfer Master Value For Source_Operating_Unit Data Initiated at 04/13/2020 5:05:05 PM 
Stock Transfer Master Value For Source_Operating_Unit Data Completed at 04/13/2020 5:05:05 PM 
Stock Transfer Master Value For Source_Location Data Initiated at 04/13/2020 5:05:05 PM 
Stock Transfer Master Value For Source_Location Data Completed at 04/13/2020 5:05:05 PM 
Stock Transfer Master Value For Source_Project Data Initiated at 04/13/2020 5:05:05 PM 
Stock Transfer Master Value For Source_Project Data Completed at 04/13/2020 5:05:05 PM 
Stock Transfer Master Value For Destination_Operating_Unit Data Initiated at 04/13/2020 5:05:05 PM 
Stock Transfer Master Value For Destination_Operating_Unit Data Completed at 04/13/2020 5:05:05 PM 
Stock Transfer Master Value For Destination_Location Data Initiated at 04/13/2020 5:05:05 PM 
Stock Transfer Master Value For Destination_Location Data Completed at 04/13/2020 5:05:05 PM 
Stock Transfer Master Value For Destination_Project Data Initiated at 04/13/2020 5:05:05 PM 
Stock Transfer Master Value For Destination_Project Data Completed at 04/13/2020 5:05:05 PM 
Stock Transfer Feilds are Created at 04/13/2020 5:05:05 PM 
Stock Transfer Feilds Creation Completed For PRTABLE003 at 04/13/2020 5:05:05 PM 
Stock Transfer Feilds are Created at 04/13/2020 5:05:05 PM 
Stock Transfer Feilds Creation Completed For PRTABLE004 at 04/13/2020 5:05:05 PM 
Stock Transfer Total Fields Creation Completed at 04/13/2020 5:05:05 PM 
Stock Transfer Process Completed at 04/13/2020 5:05:05 PM 
 04/13/2020 5:05:05 PM
Stock Transfer Process Initiated at 04/13/2020 6:00:06 PM 
Stock Transfer Tabs are Created at 04/13/2020 6:00:06 PM 
Stock Transfer Master Value For Item Data Initiated at 04/13/2020 6:00:06 PM 
Stock Transfer Master Value For Item Data Completed at 04/13/2020 6:00:06 PM 
Stock Transfer Control Value For UOM Data Initiated at 04/13/2020 6:00:06 PM 
Stock Transfer Control Value For UOM Data Completed at 04/13/2020 6:00:06 PM 
Stock Transfer Master Value For LOT Data Initiated at 04/13/2020 6:00:06 PM 
Stock Transfer Master Value For LOT Data Completed at 04/13/2020 6:00:06 PM 
Stock Transfer Master Value For Project Data Initiated at 04/13/2020 6:00:06 PM 
Stock Transfer Master Value For Project Data Completed at 04/13/2020 6:00:06 PM 
Stock Transfer Master Value For Source_Operating_Unit Data Initiated at 04/13/2020 6:00:06 PM 
Stock Transfer Master Value For Source_Operating_Unit Data Completed at 04/13/2020 6:00:06 PM 
Stock Transfer Master Value For Source_Location Data Initiated at 04/13/2020 6:00:06 PM 
Stock Transfer Master Value For Source_Location Data Completed at 04/13/2020 6:00:06 PM 
Stock Transfer Master Value For Source_Project Data Initiated at 04/13/2020 6:00:06 PM 
Stock Transfer Master Value For Source_Project Data Completed at 04/13/2020 6:00:06 PM 
Stock Transfer Master Value For Destination_Operating_Unit Data Initiated at 04/13/2020 6:00:06 PM 
Stock Transfer Master Value For Destination_Operating_Unit Data Completed at 04/13/2020 6:00:06 PM 
Stock Transfer Master Value For Destination_Location Data Initiated at 04/13/2020 6:00:06 PM 
Stock Transfer Master Value For Destination_Location Data Completed at 04/13/2020 6:00:06 PM 
Stock Transfer Master Value For Destination_Project Data Initiated at 04/13/2020 6:00:06 PM 
Stock Transfer Master Value For Destination_Project Data Completed at 04/13/2020 6:00:06 PM 
Stock Transfer Feilds are Created at 04/13/2020 6:00:07 PM 
Stock Transfer Feilds Creation Completed For PRTABLE003 at 04/13/2020 6:00:07 PM 
Stock Transfer Feilds are Created at 04/13/2020 6:00:07 PM 
Stock Transfer Feilds Creation Completed For PRTABLE004 at 04/13/2020 6:00:07 PM 
Stock Transfer Total Fields Creation Completed at 04/13/2020 6:00:07 PM 
Stock Transfer Process Completed at 04/13/2020 6:00:07 PM 
 04/13/2020 6:00:07 PM
 
***********************TARGET1*********************** 
 
 Line Data Received . 04/13/2020 6:00:34 PM
 
***********************TARGET4*********************** 
 
 Header Data Created for Stock Transfer . 
 
 04/13/2020 6:00:44 PM
 
***********************TARGET7*********************** 
 
 Line Data 0 Created For Stock Transfer . 
 
 04/13/2020 6:00:51 PM
Stock Transfer Process Initiated at 04/13/2020 6:07:39 PM 
Stock Transfer Tabs are Created at 04/13/2020 6:07:39 PM 
Stock Transfer Master Value For Item Data Initiated at 04/13/2020 6:07:39 PM 
Stock Transfer Master Value For Item Data Completed at 04/13/2020 6:07:39 PM 
Stock Transfer Control Value For UOM Data Initiated at 04/13/2020 6:07:39 PM 
Stock Transfer Control Value For UOM Data Completed at 04/13/2020 6:07:39 PM 
Stock Transfer Master Value For LOT Data Initiated at 04/13/2020 6:07:39 PM 
Stock Transfer Master Value For LOT Data Completed at 04/13/2020 6:07:39 PM 
Stock Transfer Master Value For Project Data Initiated at 04/13/2020 6:07:39 PM 
Stock Transfer Master Value For Project Data Completed at 04/13/2020 6:07:39 PM 
Stock Transfer Master Value For Source_Operating_Unit Data Initiated at 04/13/2020 6:07:39 PM 
Stock Transfer Master Value For Source_Operating_Unit Data Completed at 04/13/2020 6:07:39 PM 
Stock Transfer Master Value For Source_Location Data Initiated at 04/13/2020 6:07:39 PM 
Stock Transfer Master Value For Source_Location Data Completed at 04/13/2020 6:07:39 PM 
Stock Transfer Master Value For Source_Project Data Initiated at 04/13/2020 6:07:39 PM 
Stock Transfer Master Value For Source_Project Data Completed at 04/13/2020 6:07:39 PM 
Stock Transfer Master Value For Destination_Operating_Unit Data Initiated at 04/13/2020 6:07:39 PM 
Stock Transfer Master Value For Destination_Operating_Unit Data Completed at 04/13/2020 6:07:39 PM 
Stock Transfer Master Value For Destination_Location Data Initiated at 04/13/2020 6:07:39 PM 
Stock Transfer Master Value For Destination_Location Data Completed at 04/13/2020 6:07:39 PM 
Stock Transfer Master Value For Destination_Project Data Initiated at 04/13/2020 6:07:39 PM 
Stock Transfer Master Value For Destination_Project Data Completed at 04/13/2020 6:07:39 PM 
Stock Transfer Feilds are Created at 04/13/2020 6:07:39 PM 
Stock Transfer Feilds Creation Completed For PRTABLE003 at 04/13/2020 6:07:40 PM 
Stock Transfer Feilds are Created at 04/13/2020 6:07:40 PM 
Stock Transfer Feilds Creation Completed For PRTABLE004 at 04/13/2020 6:07:40 PM 
Stock Transfer Total Fields Creation Completed at 04/13/2020 6:07:40 PM 
Stock Transfer Process Completed at 04/13/2020 6:07:40 PM 
 04/13/2020 6:07:40 PM
 
***********************TARGET1*********************** 
 
 Line Data Received . 04/13/2020 6:08:14 PM
 
***********************TARGET4*********************** 
 
 Header Data Created for Stock Transfer . 
 
 04/13/2020 6:15:26 PM
 
***********************TARGET7*********************** 
 
 Line Data 0 Created For Stock Transfer . 
 
 04/13/2020 6:27:04 PM
Stock Transfer Process Initiated at 04/13/2020 6:39:24 PM 
Stock Transfer Tabs are Created at 04/13/2020 6:39:24 PM 
Stock Transfer Master Value For Item Data Initiated at 04/13/2020 6:39:24 PM 
Stock Transfer Master Value For Item Data Completed at 04/13/2020 6:39:24 PM 
Stock Transfer Control Value For UOM Data Initiated at 04/13/2020 6:39:24 PM 
Stock Transfer Control Value For UOM Data Completed at 04/13/2020 6:39:24 PM 
Stock Transfer Master Value For LOT Data Initiated at 04/13/2020 6:39:24 PM 
Stock Transfer Master Value For LOT Data Completed at 04/13/2020 6:39:25 PM 
Stock Transfer Master Value For Project Data Initiated at 04/13/2020 6:39:25 PM 
Stock Transfer Master Value For Project Data Completed at 04/13/2020 6:39:25 PM 
Stock Transfer Master Value For Source_Operating_Unit Data Initiated at 04/13/2020 6:39:25 PM 
Stock Transfer Master Value For Source_Operating_Unit Data Completed at 04/13/2020 6:39:25 PM 
Stock Transfer Master Value For Source_Location Data Initiated at 04/13/2020 6:39:25 PM 
Stock Transfer Master Value For Source_Location Data Completed at 04/13/2020 6:39:25 PM 
Stock Transfer Master Value For Source_Project Data Initiated at 04/13/2020 6:39:25 PM 
Stock Transfer Master Value For Source_Project Data Completed at 04/13/2020 6:39:25 PM 
Stock Transfer Master Value For Destination_Operating_Unit Data Initiated at 04/13/2020 6:39:25 PM 
Stock Transfer Master Value For Destination_Operating_Unit Data Completed at 04/13/2020 6:39:25 PM 
Stock Transfer Master Value For Destination_Location Data Initiated at 04/13/2020 6:39:25 PM 
Stock Transfer Master Value For Destination_Location Data Completed at 04/13/2020 6:39:25 PM 
Stock Transfer Master Value For Destination_Project Data Initiated at 04/13/2020 6:39:25 PM 
Stock Transfer Master Value For Destination_Project Data Completed at 04/13/2020 6:39:25 PM 
Stock Transfer Feilds are Created at 04/13/2020 6:39:25 PM 
Stock Transfer Feilds Creation Completed For PRTABLE003 at 04/13/2020 6:39:25 PM 
Stock Transfer Feilds are Created at 04/13/2020 6:39:25 PM 
Stock Transfer Feilds Creation Completed For PRTABLE004 at 04/13/2020 6:39:25 PM 
Stock Transfer Total Fields Creation Completed at 04/13/2020 6:39:25 PM 
Stock Transfer Process Completed at 04/13/2020 6:39:25 PM 
 04/13/2020 6:39:25 PM
 
***********************TARGET1*********************** 
 
 Line Data Received . 04/13/2020 6:39:52 PM
 
***********************TARGET4*********************** 
 
 Header Data Created for Stock Transfer . 
 
 04/13/2020 6:40:00 PM
 
***********************TARGET7*********************** 
 
 Line Data 0 Created For Stock Transfer . 
 
 04/13/2020 6:40:07 PM
Stock Transfer Process Initiated at 04/13/2020 6:45:05 PM 
Stock Transfer Tabs are Created at 04/13/2020 6:45:06 PM 
Stock Transfer Master Value For Item Data Initiated at 04/13/2020 6:45:06 PM 
Stock Transfer Master Value For Item Data Completed at 04/13/2020 6:45:06 PM 
Stock Transfer Control Value For UOM Data Initiated at 04/13/2020 6:45:06 PM 
Stock Transfer Control Value For UOM Data Completed at 04/13/2020 6:45:06 PM 
Stock Transfer Master Value For LOT Data Initiated at 04/13/2020 6:45:06 PM 
Stock Transfer Master Value For LOT Data Completed at 04/13/2020 6:45:06 PM 
Stock Transfer Master Value For Project Data Initiated at 04/13/2020 6:45:06 PM 
Stock Transfer Master Value For Project Data Completed at 04/13/2020 6:45:07 PM 
Stock Transfer Master Value For Source_Operating_Unit Data Initiated at 04/13/2020 6:45:07 PM 
Stock Transfer Master Value For Source_Operating_Unit Data Completed at 04/13/2020 6:45:07 PM 
Stock Transfer Master Value For Source_Location Data Initiated at 04/13/2020 6:45:07 PM 
Stock Transfer Master Value For Source_Location Data Completed at 04/13/2020 6:45:08 PM 
Stock Transfer Master Value For Source_Project Data Initiated at 04/13/2020 6:45:08 PM 
Stock Transfer Master Value For Source_Project Data Completed at 04/13/2020 6:45:09 PM 
Stock Transfer Master Value For Destination_Operating_Unit Data Initiated at 04/13/2020 6:45:09 PM 
Stock Transfer Master Value For Destination_Operating_Unit Data Completed at 04/13/2020 6:45:09 PM 
Stock Transfer Master Value For Destination_Location Data Initiated at 04/13/2020 6:45:09 PM 
Stock Transfer Master Value For Destination_Location Data Completed at 04/13/2020 6:45:09 PM 
Stock Transfer Master Value For Destination_Project Data Initiated at 04/13/2020 6:45:09 PM 
Stock Transfer Master Value For Destination_Project Data Completed at 04/13/2020 6:45:09 PM 
Stock Transfer Feilds are Created at 04/13/2020 6:45:09 PM 
Stock Transfer Feilds Creation Completed For PRTABLE003 at 04/13/2020 6:45:09 PM 
Stock Transfer Feilds are Created at 04/13/2020 6:45:09 PM 
Stock Transfer Feilds Creation Completed For PRTABLE004 at 04/13/2020 6:45:09 PM 
Stock Transfer Total Fields Creation Completed at 04/13/2020 6:45:10 PM 
Stock Transfer Process Completed at 04/13/2020 6:45:10 PM 
 04/13/2020 6:45:10 PM
Stock Transfer Process Initiated at 04/13/2020 6:45:23 PM 
Stock Transfer Tabs are Created at 04/13/2020 6:45:23 PM 
Stock Transfer Master Value For Item Data Initiated at 04/13/2020 6:45:23 PM 
Stock Transfer Master Value For Item Data Completed at 04/13/2020 6:45:23 PM 
Stock Transfer Control Value For UOM Data Initiated at 04/13/2020 6:45:23 PM 
Stock Transfer Control Value For UOM Data Completed at 04/13/2020 6:45:23 PM 
Stock Transfer Master Value For LOT Data Initiated at 04/13/2020 6:45:23 PM 
Stock Transfer Master Value For LOT Data Completed at 04/13/2020 6:45:23 PM 
Stock Transfer Master Value For Project Data Initiated at 04/13/2020 6:45:23 PM 
Stock Transfer Master Value For Project Data Completed at 04/13/2020 6:45:23 PM 
Stock Transfer Master Value For Source_Operating_Unit Data Initiated at 04/13/2020 6:45:23 PM 
Stock Transfer Master Value For Source_Operating_Unit Data Completed at 04/13/2020 6:45:23 PM 
Stock Transfer Master Value For Source_Location Data Initiated at 04/13/2020 6:45:23 PM 
Stock Transfer Master Value For Source_Location Data Completed at 04/13/2020 6:45:23 PM 
Stock Transfer Master Value For Source_Project Data Initiated at 04/13/2020 6:45:23 PM 
Stock Transfer Master Value For Source_Project Data Completed at 04/13/2020 6:45:23 PM 
Stock Transfer Master Value For Destination_Operating_Unit Data Initiated at 04/13/2020 6:45:23 PM 
Stock Transfer Master Value For Destination_Operating_Unit Data Completed at 04/13/2020 6:45:23 PM 
Stock Transfer Master Value For Destination_Location Data Initiated at 04/13/2020 6:45:23 PM 
Stock Transfer Master Value For Destination_Location Data Completed at 04/13/2020 6:45:23 PM 
Stock Transfer Master Value For Destination_Project Data Initiated at 04/13/2020 6:45:23 PM 
Stock Transfer Master Value For Destination_Project Data Completed at 04/13/2020 6:45:23 PM 
Stock Transfer Feilds are Created at 04/13/2020 6:45:23 PM 
Stock Transfer Feilds Creation Completed For PRTABLE003 at 04/13/2020 6:45:23 PM 
Stock Transfer Feilds are Created at 04/13/2020 6:45:23 PM 
Stock Transfer Feilds Creation Completed For PRTABLE004 at 04/13/2020 6:45:23 PM 
Stock Transfer Total Fields Creation Completed at 04/13/2020 6:45:23 PM 
Stock Transfer Process Completed at 04/13/2020 6:45:23 PM 
 04/13/2020 6:45:23 PM
Stock Transfer Process Initiated at 04/13/2020 6:45:34 PM 
Stock Transfer Tabs are Created at 04/13/2020 6:45:34 PM 
Stock Transfer Master Value For Item Data Initiated at 04/13/2020 6:45:34 PM 
Stock Transfer Master Value For Item Data Completed at 04/13/2020 6:45:34 PM 
Stock Transfer Control Value For UOM Data Initiated at 04/13/2020 6:45:34 PM 
Stock Transfer Control Value For UOM Data Completed at 04/13/2020 6:45:34 PM 
Stock Transfer Master Value For LOT Data Initiated at 04/13/2020 6:45:34 PM 
Stock Transfer Master Value For LOT Data Completed at 04/13/2020 6:45:34 PM 
Stock Transfer Master Value For Project Data Initiated at 04/13/2020 6:45:34 PM 
Stock Transfer Master Value For Project Data Completed at 04/13/2020 6:45:34 PM 
Stock Transfer Master Value For Source_Operating_Unit Data Initiated at 04/13/2020 6:45:34 PM 
Stock Transfer Master Value For Source_Operating_Unit Data Completed at 04/13/2020 6:45:34 PM 
Stock Transfer Master Value For Source_Location Data Initiated at 04/13/2020 6:45:34 PM 
Stock Transfer Master Value For Source_Location Data Completed at 04/13/2020 6:45:34 PM 
Stock Transfer Master Value For Source_Project Data Initiated at 04/13/2020 6:45:34 PM 
Stock Transfer Master Value For Source_Project Data Completed at 04/13/2020 6:45:34 PM 
Stock Transfer Master Value For Destination_Operating_Unit Data Initiated at 04/13/2020 6:45:34 PM 
Stock Transfer Master Value For Destination_Operating_Unit Data Completed at 04/13/2020 6:45:34 PM 
Stock Transfer Master Value For Destination_Location Data Initiated at 04/13/2020 6:45:34 PM 
Stock Transfer Master Value For Destination_Location Data Completed at 04/13/2020 6:45:34 PM 
Stock Transfer Master Value For Destination_Project Data Initiated at 04/13/2020 6:45:34 PM 
Stock Transfer Master Value For Destination_Project Data Completed at 04/13/2020 6:45:34 PM 
Stock Transfer Feilds are Created at 04/13/2020 6:45:34 PM 
Stock Transfer Feilds Creation Completed For PRTABLE003 at 04/13/2020 6:45:34 PM 
Stock Transfer Feilds are Created at 04/13/2020 6:45:35 PM 
Stock Transfer Feilds Creation Completed For PRTABLE004 at 04/13/2020 6:45:35 PM 
Stock Transfer Total Fields Creation Completed at 04/13/2020 6:45:35 PM 
Stock Transfer Process Completed at 04/13/2020 6:45:35 PM 
 04/13/2020 6:45:35 PM
Stock Transfer Process Initiated at 04/13/2020 6:45:45 PM 
Stock Transfer Tabs are Created at 04/13/2020 6:45:45 PM 
Stock Transfer Master Value For Item Data Initiated at 04/13/2020 6:45:45 PM 
Stock Transfer Master Value For Item Data Completed at 04/13/2020 6:45:45 PM 
Stock Transfer Control Value For UOM Data Initiated at 04/13/2020 6:45:45 PM 
Stock Transfer Control Value For UOM Data Completed at 04/13/2020 6:45:45 PM 
Stock Transfer Master Value For LOT Data Initiated at 04/13/2020 6:45:45 PM 
Stock Transfer Master Value For LOT Data Completed at 04/13/2020 6:45:45 PM 
Stock Transfer Master Value For Project Data Initiated at 04/13/2020 6:45:45 PM 
Stock Transfer Master Value For Project Data Completed at 04/13/2020 6:45:45 PM 
Stock Transfer Master Value For Source_Operating_Unit Data Initiated at 04/13/2020 6:45:45 PM 
Stock Transfer Master Value For Source_Operating_Unit Data Completed at 04/13/2020 6:45:45 PM 
Stock Transfer Master Value For Source_Location Data Initiated at 04/13/2020 6:45:45 PM 
Stock Transfer Master Value For Source_Location Data Completed at 04/13/2020 6:45:45 PM 
Stock Transfer Master Value For Source_Project Data Initiated at 04/13/2020 6:45:45 PM 
Stock Transfer Master Value For Source_Project Data Completed at 04/13/2020 6:45:45 PM 
Stock Transfer Master Value For Destination_Operating_Unit Data Initiated at 04/13/2020 6:45:45 PM 
Stock Transfer Master Value For Destination_Operating_Unit Data Completed at 04/13/2020 6:45:45 PM 
Stock Transfer Master Value For Destination_Location Data Initiated at 04/13/2020 6:45:45 PM 
Stock Transfer Master Value For Destination_Location Data Completed at 04/13/2020 6:45:45 PM 
Stock Transfer Master Value For Destination_Project Data Initiated at 04/13/2020 6:45:45 PM 
Stock Transfer Master Value For Destination_Project Data Completed at 04/13/2020 6:45:45 PM 
Stock Transfer Feilds are Created at 04/13/2020 6:45:45 PM 
Stock Transfer Feilds Creation Completed For PRTABLE003 at 04/13/2020 6:45:45 PM 
Stock Transfer Feilds are Created at 04/13/2020 6:45:45 PM 
Stock Transfer Feilds Creation Completed For PRTABLE004 at 04/13/2020 6:45:45 PM 
Stock Transfer Total Fields Creation Completed at 04/13/2020 6:45:45 PM 
Stock Transfer Process Completed at 04/13/2020 6:45:45 PM 
 04/13/2020 6:45:45 PM
 
***********************TARGET1*********************** 
 
 Line Data Received . 04/13/2020 6:47:39 PM
 
***********************TARGET4*********************** 
 
 Header Data Created for Stock Transfer . 
 
 04/13/2020 6:47:53 PM
 
***********************TARGET7*********************** 
 
 Line Data 0 Created For Stock Transfer . 
 
 04/13/2020 6:48:05 PM
Stock Transfer Process Initiated at 04/13/2020 6:52:03 PM 
Stock Transfer Tabs are Created at 04/13/2020 6:52:03 PM 
Stock Transfer Master Value For Item Data Initiated at 04/13/2020 6:52:03 PM 
Stock Transfer Master Value For Item Data Completed at 04/13/2020 6:52:04 PM 
Stock Transfer Control Value For UOM Data Initiated at 04/13/2020 6:52:04 PM 
Stock Transfer Control Value For UOM Data Completed at 04/13/2020 6:52:04 PM 
Stock Transfer Master Value For LOT Data Initiated at 04/13/2020 6:52:04 PM 
Stock Transfer Master Value For LOT Data Completed at 04/13/2020 6:52:04 PM 
Stock Transfer Master Value For Project Data Initiated at 04/13/2020 6:52:04 PM 
Stock Transfer Master Value For Project Data Completed at 04/13/2020 6:52:04 PM 
Stock Transfer Master Value For Source_Operating_Unit Data Initiated at 04/13/2020 6:52:04 PM 
Stock Transfer Master Value For Source_Operating_Unit Data Completed at 04/13/2020 6:52:04 PM 
Stock Transfer Master Value For Source_Location Data Initiated at 04/13/2020 6:52:04 PM 
Stock Transfer Master Value For Source_Location Data Completed at 04/13/2020 6:52:04 PM 
Stock Transfer Master Value For Source_Project Data Initiated at 04/13/2020 6:52:04 PM 
Stock Transfer Master Value For Source_Project Data Completed at 04/13/2020 6:52:04 PM 
Stock Transfer Master Value For Destination_Operating_Unit Data Initiated at 04/13/2020 6:52:04 PM 
Stock Transfer Master Value For Destination_Operating_Unit Data Completed at 04/13/2020 6:52:04 PM 
Stock Transfer Master Value For Destination_Location Data Initiated at 04/13/2020 6:52:04 PM 
Stock Transfer Master Value For Destination_Location Data Completed at 04/13/2020 6:52:04 PM 
Stock Transfer Master Value For Destination_Project Data Initiated at 04/13/2020 6:52:04 PM 
Stock Transfer Master Value For Destination_Project Data Completed at 04/13/2020 6:52:04 PM 
Stock Transfer Feilds are Created at 04/13/2020 6:52:04 PM 
Stock Transfer Feilds Creation Completed For PRTABLE003 at 04/13/2020 6:52:04 PM 
Stock Transfer Feilds are Created at 04/13/2020 6:52:04 PM 
Stock Transfer Feilds Creation Completed For PRTABLE004 at 04/13/2020 6:52:04 PM 
Stock Transfer Total Fields Creation Completed at 04/13/2020 6:52:04 PM 
Stock Transfer Process Completed at 04/13/2020 6:52:04 PM 
 04/13/2020 6:52:04 PM
 
***********************TARGET1*********************** 
 
 Line Data Received . 04/13/2020 6:52:30 PM
 
***********************TARGET4*********************** 
 
 Header Data Created for Stock Transfer . 
 
 04/13/2020 6:52:35 PM
 
***********************TARGET7*********************** 
 
 Line Data 0 Created For Stock Transfer . 
 
 04/13/2020 6:52:38 PM
Stock Transfer Process Initiated at 04/13/2020 8:32:16 PM 
Stock Transfer Tabs are Created at 04/13/2020 8:32:16 PM 
Stock Transfer Master Value For Item Data Initiated at 04/13/2020 8:32:16 PM 
Stock Transfer Master Value For Item Data Completed at 04/13/2020 8:32:16 PM 
Stock Transfer Control Value For UOM Data Initiated at 04/13/2020 8:32:16 PM 
Stock Transfer Control Value For UOM Data Completed at 04/13/2020 8:32:16 PM 
Stock Transfer Master Value For LOT Data Initiated at 04/13/2020 8:32:16 PM 
Stock Transfer Master Value For LOT Data Completed at 04/13/2020 8:32:16 PM 
Stock Transfer Master Value For Project Data Initiated at 04/13/2020 8:32:16 PM 
Stock Transfer Master Value For Project Data Completed at 04/13/2020 8:32:16 PM 
Stock Transfer Master Value For Source_Operating_Unit Data Initiated at 04/13/2020 8:32:16 PM 
Stock Transfer Master Value For Source_Operating_Unit Data Completed at 04/13/2020 8:32:16 PM 
Stock Transfer Master Value For Source_Location Data Initiated at 04/13/2020 8:32:16 PM 
Stock Transfer Master Value For Source_Location Data Completed at 04/13/2020 8:32:16 PM 
Stock Transfer Master Value For Source_Project Data Initiated at 04/13/2020 8:32:16 PM 
Stock Transfer Master Value For Source_Project Data Completed at 04/13/2020 8:32:16 PM 
Stock Transfer Master Value For Destination_Operating_Unit Data Initiated at 04/13/2020 8:32:16 PM 
Stock Transfer Master Value For Destination_Operating_Unit Data Completed at 04/13/2020 8:32:16 PM 
Stock Transfer Master Value For Destination_Location Data Initiated at 04/13/2020 8:32:16 PM 
Stock Transfer Master Value For Destination_Location Data Completed at 04/13/2020 8:32:16 PM 
Stock Transfer Master Value For Destination_Project Data Initiated at 04/13/2020 8:32:16 PM 
Stock Transfer Master Value For Destination_Project Data Completed at 04/13/2020 8:32:16 PM 
Stock Transfer Feilds are Created at 04/13/2020 8:32:16 PM 
Stock Transfer Feilds Creation Completed For PRTABLE003 at 04/13/2020 8:32:16 PM 
Stock Transfer Feilds are Created at 04/13/2020 8:32:16 PM 
Stock Transfer Feilds Creation Completed For PRTABLE004 at 04/13/2020 8:32:16 PM 
Stock Transfer Total Fields Creation Completed at 04/13/2020 8:32:16 PM 
Stock Transfer Process Completed at 04/13/2020 8:32:16 PM 
 04/13/2020 8:32:16 PM
Stock Transfer Process Initiated at 04/13/2020 8:33:13 PM 
Stock Transfer Tabs are Created at 04/13/2020 8:33:13 PM 
Stock Transfer Master Value For Item Data Initiated at 04/13/2020 8:33:13 PM 
Stock Transfer Master Value For Item Data Completed at 04/13/2020 8:33:13 PM 
Stock Transfer Control Value For UOM Data Initiated at 04/13/2020 8:33:13 PM 
Stock Transfer Control Value For UOM Data Completed at 04/13/2020 8:33:13 PM 
Stock Transfer Master Value For LOT Data Initiated at 04/13/2020 8:33:13 PM 
Stock Transfer Master Value For LOT Data Completed at 04/13/2020 8:33:13 PM 
Stock Transfer Master Value For Project Data Initiated at 04/13/2020 8:33:13 PM 
Stock Transfer Master Value For Project Data Completed at 04/13/2020 8:33:13 PM 
Stock Transfer Master Value For Source_Operating_Unit Data Initiated at 04/13/2020 8:33:13 PM 
Stock Transfer Master Value For Source_Operating_Unit Data Completed at 04/13/2020 8:33:13 PM 
Stock Transfer Master Value For Source_Location Data Initiated at 04/13/2020 8:33:13 PM 
Stock Transfer Master Value For Source_Location Data Completed at 04/13/2020 8:33:13 PM 
Stock Transfer Master Value For Source_Project Data Initiated at 04/13/2020 8:33:13 PM 
Stock Transfer Master Value For Source_Project Data Completed at 04/13/2020 8:33:13 PM 
Stock Transfer Master Value For Destination_Operating_Unit Data Initiated at 04/13/2020 8:33:13 PM 
Stock Transfer Master Value For Destination_Operating_Unit Data Completed at 04/13/2020 8:33:13 PM 
Stock Transfer Master Value For Destination_Location Data Initiated at 04/13/2020 8:33:13 PM 
Stock Transfer Master Value For Destination_Location Data Completed at 04/13/2020 8:33:13 PM 
Stock Transfer Master Value For Destination_Project Data Initiated at 04/13/2020 8:33:13 PM 
Stock Transfer Master Value For Destination_Project Data Completed at 04/13/2020 8:33:13 PM 
Stock Transfer Feilds are Created at 04/13/2020 8:33:13 PM 
Stock Transfer Feilds Creation Completed For PRTABLE003 at 04/13/2020 8:33:13 PM 
Stock Transfer Feilds are Created at 04/13/2020 8:33:13 PM 
Stock Transfer Feilds Creation Completed For PRTABLE004 at 04/13/2020 8:33:13 PM 
Stock Transfer Total Fields Creation Completed at 04/13/2020 8:33:13 PM 
Stock Transfer Process Completed at 04/13/2020 8:33:13 PM 
 04/13/2020 8:33:13 PM
Stock Transfer Process Initiated at 04/13/2020 8:33:14 PM 
Stock Transfer Tabs are Created at 04/13/2020 8:33:14 PM 
Stock Transfer Master Value For Item Data Initiated at 04/13/2020 8:33:14 PM 
Stock Transfer Master Value For Item Data Completed at 04/13/2020 8:33:14 PM 
Stock Transfer Control Value For UOM Data Initiated at 04/13/2020 8:33:14 PM 
Stock Transfer Control Value For UOM Data Completed at 04/13/2020 8:33:15 PM 
Stock Transfer Master Value For LOT Data Initiated at 04/13/2020 8:33:15 PM 
Stock Transfer Master Value For LOT Data Completed at 04/13/2020 8:33:15 PM 
Stock Transfer Master Value For Project Data Initiated at 04/13/2020 8:33:15 PM 
Stock Transfer Master Value For Project Data Completed at 04/13/2020 8:33:15 PM 
Stock Transfer Master Value For Source_Operating_Unit Data Initiated at 04/13/2020 8:33:15 PM 
Stock Transfer Master Value For Source_Operating_Unit Data Completed at 04/13/2020 8:33:15 PM 
Stock Transfer Master Value For Source_Location Data Initiated at 04/13/2020 8:33:15 PM 
Stock Transfer Master Value For Source_Location Data Completed at 04/13/2020 8:33:15 PM 
Stock Transfer Master Value For Source_Project Data Initiated at 04/13/2020 8:33:15 PM 
Stock Transfer Master Value For Source_Project Data Completed at 04/13/2020 8:33:15 PM 
Stock Transfer Master Value For Destination_Operating_Unit Data Initiated at 04/13/2020 8:33:15 PM 
Stock Transfer Master Value For Destination_Operating_Unit Data Completed at 04/13/2020 8:33:15 PM 
Stock Transfer Master Value For Destination_Location Data Initiated at 04/13/2020 8:33:15 PM 
Stock Transfer Master Value For Destination_Location Data Completed at 04/13/2020 8:33:15 PM 
Stock Transfer Master Value For Destination_Project Data Initiated at 04/13/2020 8:33:15 PM 
Stock Transfer Master Value For Destination_Project Data Completed at 04/13/2020 8:33:15 PM 
Stock Transfer Feilds are Created at 04/13/2020 8:33:15 PM 
Stock Transfer Feilds Creation Completed For PRTABLE003 at 04/13/2020 8:33:15 PM 
Stock Transfer Feilds are Created at 04/13/2020 8:33:15 PM 
Stock Transfer Feilds Creation Completed For PRTABLE004 at 04/13/2020 8:33:15 PM 
Stock Transfer Total Fields Creation Completed at 04/13/2020 8:33:15 PM 
Stock Transfer Process Completed at 04/13/2020 8:33:15 PM 
 04/13/2020 8:33:15 PM
Stock Transfer Process Initiated at 04/13/2020 8:35:26 PM 
Stock Transfer Tabs are Created at 04/13/2020 8:35:26 PM 
Stock Transfer Master Value For Item Data Initiated at 04/13/2020 8:35:26 PM 
Stock Transfer Master Value For Item Data Completed at 04/13/2020 8:35:26 PM 
Stock Transfer Control Value For UOM Data Initiated at 04/13/2020 8:35:26 PM 
Stock Transfer Control Value For UOM Data Completed at 04/13/2020 8:35:26 PM 
Stock Transfer Master Value For LOT Data Initiated at 04/13/2020 8:35:26 PM 
Stock Transfer Master Value For LOT Data Completed at 04/13/2020 8:35:26 PM 
Stock Transfer Master Value For Project Data Initiated at 04/13/2020 8:35:26 PM 
Stock Transfer Master Value For Project Data Completed at 04/13/2020 8:35:26 PM 
Stock Transfer Master Value For Source_Operating_Unit Data Initiated at 04/13/2020 8:35:26 PM 
Stock Transfer Master Value For Source_Operating_Unit Data Completed at 04/13/2020 8:35:26 PM 
Stock Transfer Master Value For Source_Location Data Initiated at 04/13/2020 8:35:26 PM 
Stock Transfer Master Value For Source_Location Data Completed at 04/13/2020 8:35:26 PM 
Stock Transfer Master Value For Source_Project Data Initiated at 04/13/2020 8:35:26 PM 
Stock Transfer Master Value For Source_Project Data Completed at 04/13/2020 8:35:26 PM 
Stock Transfer Master Value For Destination_Operating_Unit Data Initiated at 04/13/2020 8:35:26 PM 
Stock Transfer Master Value For Destination_Operating_Unit Data Completed at 04/13/2020 8:35:26 PM 
Stock Transfer Master Value For Destination_Location Data Initiated at 04/13/2020 8:35:26 PM 
Stock Transfer Master Value For Destination_Location Data Completed at 04/13/2020 8:35:26 PM 
Stock Transfer Master Value For Destination_Project Data Initiated at 04/13/2020 8:35:26 PM 
Stock Transfer Master Value For Destination_Project Data Completed at 04/13/2020 8:35:26 PM 
Stock Transfer Feilds are Created at 04/13/2020 8:35:26 PM 
Stock Transfer Feilds Creation Completed For PRTABLE003 at 04/13/2020 8:35:26 PM 
Stock Transfer Feilds are Created at 04/13/2020 8:35:26 PM 
Stock Transfer Feilds Creation Completed For PRTABLE004 at 04/13/2020 8:35:26 PM 
Stock Transfer Total Fields Creation Completed at 04/13/2020 8:35:26 PM 
Stock Transfer Process Completed at 04/13/2020 8:35:26 PM 
 04/13/2020 8:35:26 PM
