
Item Process Initiated at 8/13/2020 12:35:47 PM 
Item Tabs are Created at 8/13/2020 12:35:47 PM 
Item GridView For Qty_OnHand Data Initiated at 8/13/2020 12:35:47 PM 
Item GridView For Qty_OnHand Data Completed at 8/13/2020 12:35:47 PM 
Item GridView For Qty_OnOrder Data Initiated at 8/13/2020 12:35:47 PM 
Item GridView For Qty_OnOrder Data Completed at 8/13/2020 12:35:47 PM 
Item GridView For Qty_Committed Data Initiated at 8/13/2020 12:35:47 PM 
Item GridView For Qty_Committed Data Completed at 8/13/2020 12:35:47 PM 
Item GridView For Qty_Available Data Initiated at 8/13/2020 12:35:47 PM 
Item GridView For Qty_Available Data Completed at 8/13/2020 12:35:47 PM 
Item Control Value For Price_ Type Data Initiated at 8/13/2020 12:35:47 PM 
Item Control Value For Price_ Type Data Completed at 8/13/2020 12:35:47 PM 
Item Master Value For Refered_Form Data Initiated at 8/13/2020 12:35:47 PM 
Item Master Value For Refered_Form Data Completed at 8/13/2020 12:35:47 PM 
Item Master Value For Type Data Initiated at 8/13/2020 12:35:47 PM 
Item Master Value For Type Data Completed at 8/13/2020 12:35:47 PM 
Item Master Value For Brand/Company Data Initiated at 8/13/2020 12:35:47 PM 
Item Master Value For Brand/Company Data Completed at 8/13/2020 12:35:47 PM 
Item Master Value For Vendor# Data Initiated at 8/13/2020 12:35:47 PM 
Item Master Value For Vendor# Data Completed at 8/13/2020 12:35:47 PM 
Item Control Value For Units Data Initiated at 8/13/2020 12:35:47 PM 
Item Control Value For Units Data Completed at 8/13/2020 12:35:47 PM 
Item Master Value For Family Data Initiated at 8/13/2020 12:35:47 PM 
Item Master Value For Family Data Completed at 8/13/2020 12:35:47 PM 
Item Master Value For Group Data Initiated at 8/13/2020 12:35:47 PM 
Item Master Value For Group Data Completed at 8/13/2020 12:35:47 PM 
Item Control Value For Color Data Initiated at 8/13/2020 12:35:47 PM 
Item Control Value For Color Data Completed at 8/13/2020 12:35:47 PM 
Item Control Value For Style Data Initiated at 8/13/2020 12:35:47 PM 
Item Control Value For Style Data Completed at 8/13/2020 12:35:47 PM 
Item Master Value For Operating_Unit Data Initiated at 8/13/2020 12:35:47 PM 
Item Master Value For Operating_Unit Data Completed at 8/13/2020 12:35:47 PM 
Item Master Value For Subsidary Data Initiated at 8/13/2020 12:35:47 PM 
Item Master Value For Subsidary Data Completed at 8/13/2020 12:35:47 PM 
Item Control Value For Classification Data Initiated at 8/13/2020 12:35:47 PM 
Item Control Value For Classification Data Completed at 8/13/2020 12:35:47 PM 
Item Control Value For Department Data Initiated at 8/13/2020 12:35:47 PM 
Item Control Value For Department Data Completed at 8/13/2020 12:35:47 PM 
Item Master Value For Purchase_Account Data Initiated at 8/13/2020 12:35:47 PM 
Item Master Value For Purchase_Account Data Completed at 8/13/2020 12:35:47 PM 
Item Master Value For Expense_Account Data Initiated at 8/13/2020 12:35:47 PM 
Item Master Value For Expense_Account Data Completed at 8/13/2020 12:35:47 PM 
Item Master Value For Purchase_Tax Data Initiated at 8/13/2020 12:35:47 PM 
Item Master Value For Purchase_Tax Data Completed at 8/13/2020 12:35:47 PM 
Item Control Value For UOM Data Initiated at 8/13/2020 12:35:47 PM 
Item Control Value For UOM Data Completed at 8/13/2020 12:35:47 PM 
Item Control Value For Sales_Unit Data Initiated at 8/13/2020 12:35:47 PM 
Item Control Value For Sales_Unit Data Completed at 8/13/2020 12:35:47 PM 
Item Control Value For Purchase_Unit Data Initiated at 8/13/2020 12:35:47 PM 
Item Control Value For Purchase_Unit Data Completed at 8/13/2020 12:35:47 PM 
Item Master Value For Income_Account Data Initiated at 8/13/2020 12:35:47 PM 
Item Master Value For Income_Account Data Completed at 8/13/2020 12:35:47 PM 
Item Master Value For Tax Data Initiated at 8/13/2020 12:35:47 PM 
Item Master Value For Tax Data Completed at 8/13/2020 12:35:47 PM 
Item Master Value For Jobber_Tax Data Initiated at 8/13/2020 12:35:47 PM 
Item Master Value For Jobber_Tax Data Completed at 8/13/2020 12:35:47 PM 
Item Master Value For Raw_Material Data Initiated at 8/13/2020 12:35:47 PM 
Item Master Value For Raw_Material Data Completed at 8/13/2020 12:35:47 PM 
Item Master Value For Primary_Fabric_Item Data Initiated at 8/13/2020 12:35:47 PM 
Item Master Value For Primary_Fabric_Item Data Completed at 8/13/2020 12:35:47 PM 
Item Master Value For Job_Order# Data Initiated at 8/13/2020 12:35:47 PM 
Item Master Value For Job_Order# Data Completed at 8/13/2020 12:35:47 PM 
Item Master Value For Job_Order_Issue# Data Initiated at 8/13/2020 12:35:47 PM 
Item Master Value For Job_Order_Issue# Data Completed at 8/13/2020 12:35:47 PM 
Item Control Value For Transaction_Type Data Initiated at 8/13/2020 12:35:47 PM 
Item Control Value For Transaction_Type Data Completed at 8/13/2020 12:35:47 PM 
Item GridView For Item_Desc Data Initiated at 8/13/2020 12:35:47 PM 
Item GridView For Item_Desc Data Completed at 8/13/2020 12:35:47 PM 
Item Master Value For OperatingUnit Data Initiated at 8/13/2020 12:35:47 PM 
Item Master Value For OperatingUnit Data Completed at 8/13/2020 12:35:47 PM 
Item Master Value For SAC_Code Data Initiated at 8/13/2020 12:35:47 PM 
Item Master Value For SAC_Code Data Completed at 8/13/2020 12:35:49 PM 
Item Master Value For Item_Tax Data Initiated at 8/13/2020 12:35:49 PM 
Item Master Value For Item_Tax Data Completed at 8/13/2020 12:35:49 PM 
Item Feilds are Created at 8/13/2020 12:35:49 PM 
Item Feilds Creation Completed For MATABLE007 at 8/13/2020 12:35:49 PM 
Item Feilds are Created at 8/13/2020 12:35:49 PM 
Item Feilds Creation Completed For FITABLE013 at 8/13/2020 12:35:49 PM 
Item Total Fields Creation Completed at 8/13/2020 12:35:49 PM 
Item Process Completed at 8/13/2020 12:35:49 PM 
 8/13/2020 12:35:49 PMItem Process Initiated at 8/13/2020 12:42:09 PM 
Item Tabs are Created at 8/13/2020 12:42:09 PM 
Item GridView For Qty_OnHand Data Initiated at 8/13/2020 12:42:09 PM 
Item GridView For Qty_OnHand Data Completed at 8/13/2020 12:42:09 PM 
Item GridView For Qty_OnOrder Data Initiated at 8/13/2020 12:42:09 PM 
Item GridView For Qty_OnOrder Data Completed at 8/13/2020 12:42:09 PM 
Item GridView For Qty_Committed Data Initiated at 8/13/2020 12:42:09 PM 
Item GridView For Qty_Committed Data Completed at 8/13/2020 12:42:09 PM 
Item GridView For Qty_Available Data Initiated at 8/13/2020 12:42:09 PM 
Item GridView For Qty_Available Data Completed at 8/13/2020 12:42:09 PM 
Item Control Value For Price_ Type Data Initiated at 8/13/2020 12:42:09 PM 
Item Control Value For Price_ Type Data Completed at 8/13/2020 12:42:09 PM 
Item Master Value For Refered_Form Data Initiated at 8/13/2020 12:42:09 PM 
Item Master Value For Refered_Form Data Completed at 8/13/2020 12:42:09 PM 
Item Master Value For Type Data Initiated at 8/13/2020 12:42:09 PM 
Item Master Value For Type Data Completed at 8/13/2020 12:42:09 PM 
Item Master Value For Brand/Company Data Initiated at 8/13/2020 12:42:09 PM 
Item Master Value For Brand/Company Data Completed at 8/13/2020 12:42:09 PM 
Item Master Value For Vendor# Data Initiated at 8/13/2020 12:42:09 PM 
Item Master Value For Vendor# Data Completed at 8/13/2020 12:42:09 PM 
Item Control Value For Units Data Initiated at 8/13/2020 12:42:09 PM 
Item Control Value For Units Data Completed at 8/13/2020 12:42:09 PM 
Item Master Value For Family Data Initiated at 8/13/2020 12:42:09 PM 
Item Master Value For Family Data Completed at 8/13/2020 12:42:09 PM 
Item Master Value For Group Data Initiated at 8/13/2020 12:42:09 PM 
Item Master Value For Group Data Completed at 8/13/2020 12:42:09 PM 
Item Control Value For Color Data Initiated at 8/13/2020 12:42:09 PM 
Item Control Value For Color Data Completed at 8/13/2020 12:42:09 PM 
Item Control Value For Style Data Initiated at 8/13/2020 12:42:09 PM 
Item Control Value For Style Data Completed at 8/13/2020 12:42:09 PM 
Item Master Value For Operating_Unit Data Initiated at 8/13/2020 12:42:09 PM 
Item Master Value For Operating_Unit Data Completed at 8/13/2020 12:42:09 PM 
Item Master Value For Subsidary Data Initiated at 8/13/2020 12:42:09 PM 
Item Master Value For Subsidary Data Completed at 8/13/2020 12:42:09 PM 
Item Control Value For Classification Data Initiated at 8/13/2020 12:42:09 PM 
Item Control Value For Classification Data Completed at 8/13/2020 12:42:09 PM 
Item Control Value For Department Data Initiated at 8/13/2020 12:42:09 PM 
Item Control Value For Department Data Completed at 8/13/2020 12:42:09 PM 
Item Master Value For Purchase_Account Data Initiated at 8/13/2020 12:42:09 PM 
Item Master Value For Purchase_Account Data Completed at 8/13/2020 12:42:09 PM 
Item Master Value For Expense_Account Data Initiated at 8/13/2020 12:42:09 PM 
Item Master Value For Expense_Account Data Completed at 8/13/2020 12:42:09 PM 
Item Master Value For Purchase_Tax Data Initiated at 8/13/2020 12:42:09 PM 
Item Master Value For Purchase_Tax Data Completed at 8/13/2020 12:42:09 PM 
Item Control Value For UOM Data Initiated at 8/13/2020 12:42:09 PM 
Item Control Value For UOM Data Completed at 8/13/2020 12:42:09 PM 
Item Control Value For Sales_Unit Data Initiated at 8/13/2020 12:42:09 PM 
Item Control Value For Sales_Unit Data Completed at 8/13/2020 12:42:09 PM 
Item Control Value For Purchase_Unit Data Initiated at 8/13/2020 12:42:09 PM 
Item Control Value For Purchase_Unit Data Completed at 8/13/2020 12:42:09 PM 
Item Master Value For Income_Account Data Initiated at 8/13/2020 12:42:09 PM 
Item Master Value For Income_Account Data Completed at 8/13/2020 12:42:09 PM 
Item Master Value For Tax Data Initiated at 8/13/2020 12:42:09 PM 
Item Master Value For Tax Data Completed at 8/13/2020 12:42:09 PM 
Item Master Value For Jobber_Tax Data Initiated at 8/13/2020 12:42:09 PM 
Item Master Value For Jobber_Tax Data Completed at 8/13/2020 12:42:09 PM 
Item Master Value For Raw_Material Data Initiated at 8/13/2020 12:42:09 PM 
Item Master Value For Raw_Material Data Completed at 8/13/2020 12:42:09 PM 
Item Master Value For Primary_Fabric_Item Data Initiated at 8/13/2020 12:42:09 PM 
Item Master Value For Primary_Fabric_Item Data Completed at 8/13/2020 12:42:09 PM 
Item Master Value For Job_Order# Data Initiated at 8/13/2020 12:42:09 PM 
Item Master Value For Job_Order# Data Completed at 8/13/2020 12:42:09 PM 
Item Master Value For Job_Order_Issue# Data Initiated at 8/13/2020 12:42:09 PM 
Item Master Value For Job_Order_Issue# Data Completed at 8/13/2020 12:42:09 PM 
Item Control Value For Transaction_Type Data Initiated at 8/13/2020 12:42:09 PM 
Item Control Value For Transaction_Type Data Completed at 8/13/2020 12:42:09 PM 
Item GridView For Item_Desc Data Initiated at 8/13/2020 12:42:09 PM 
Item GridView For Item_Desc Data Completed at 8/13/2020 12:42:09 PM 
Item Master Value For OperatingUnit Data Initiated at 8/13/2020 12:42:09 PM 
Item Master Value For OperatingUnit Data Completed at 8/13/2020 12:42:09 PM 
Item Master Value For SAC_Code Data Initiated at 8/13/2020 12:42:09 PM 
Item Master Value For SAC_Code Data Completed at 8/13/2020 12:42:18 PM 
Item Master Value For Item_Tax Data Initiated at 8/13/2020 12:42:18 PM 
Item Master Value For Item_Tax Data Completed at 8/13/2020 12:42:18 PM 
Item Feilds are Created at 8/13/2020 12:42:18 PM 
Item Feilds Creation Completed For MATABLE007 at 8/13/2020 12:42:18 PM 
Item Feilds are Created at 8/13/2020 12:42:18 PM 
Item Feilds Creation Completed For FITABLE013 at 8/13/2020 12:42:18 PM 
Item Total Fields Creation Completed at 8/13/2020 12:42:18 PM 
Item Process Completed at 8/13/2020 12:42:18 PM 
 8/13/2020 12:42:18 PM
Item Process Initiated at 8/13/2020 12:43:50 PM 
Item Tabs are Created at 8/13/2020 12:43:50 PM 
Item GridView For Qty_OnHand Data Initiated at 8/13/2020 12:43:50 PM 
Item GridView For Qty_OnHand Data Completed at 8/13/2020 12:43:50 PM 
Item GridView For Qty_OnOrder Data Initiated at 8/13/2020 12:43:50 PM 
Item GridView For Qty_OnOrder Data Completed at 8/13/2020 12:43:50 PM 
Item GridView For Qty_Committed Data Initiated at 8/13/2020 12:43:50 PM 
Item GridView For Qty_Committed Data Completed at 8/13/2020 12:43:50 PM 
Item GridView For Qty_Available Data Initiated at 8/13/2020 12:43:50 PM 
Item GridView For Qty_Available Data Completed at 8/13/2020 12:43:50 PM 
Item Control Value For Price_ Type Data Initiated at 8/13/2020 12:43:50 PM 
Item Control Value For Price_ Type Data Completed at 8/13/2020 12:43:50 PM 
Item Master Value For Refered_Form Data Initiated at 8/13/2020 12:43:50 PM 
Item Master Value For Refered_Form Data Completed at 8/13/2020 12:43:50 PM 
Item Master Value For Type Data Initiated at 8/13/2020 12:43:50 PM 
Item Master Value For Type Data Completed at 8/13/2020 12:43:50 PM 
Item Master Value For Brand/Company Data Initiated at 8/13/2020 12:43:50 PM 
Item Master Value For Brand/Company Data Completed at 8/13/2020 12:43:50 PM 
Item Master Value For Vendor# Data Initiated at 8/13/2020 12:43:50 PM 
Item Master Value For Vendor# Data Completed at 8/13/2020 12:43:50 PM 
Item Control Value For Units Data Initiated at 8/13/2020 12:43:50 PM 
Item Control Value For Units Data Completed at 8/13/2020 12:43:50 PM 
Item Master Value For Family Data Initiated at 8/13/2020 12:43:50 PM 
Item Master Value For Family Data Completed at 8/13/2020 12:43:50 PM 
Item Master Value For Group Data Initiated at 8/13/2020 12:43:50 PM 
Item Master Value For Group Data Completed at 8/13/2020 12:43:50 PM 
Item Control Value For Color Data Initiated at 8/13/2020 12:43:50 PM 
Item Control Value For Color Data Completed at 8/13/2020 12:43:50 PM 
Item Control Value For Style Data Initiated at 8/13/2020 12:43:50 PM 
Item Control Value For Style Data Completed at 8/13/2020 12:43:50 PM 
Item Master Value For Operating_Unit Data Initiated at 8/13/2020 12:43:50 PM 
Item Master Value For Operating_Unit Data Completed at 8/13/2020 12:43:50 PM 
Item Master Value For Subsidary Data Initiated at 8/13/2020 12:43:50 PM 
Item Master Value For Subsidary Data Completed at 8/13/2020 12:43:50 PM 
Item Control Value For Classification Data Initiated at 8/13/2020 12:43:50 PM 
Item Control Value For Classification Data Completed at 8/13/2020 12:43:50 PM 
Item Control Value For Department Data Initiated at 8/13/2020 12:43:50 PM 
Item Control Value For Department Data Completed at 8/13/2020 12:43:50 PM 
Item Master Value For Purchase_Account Data Initiated at 8/13/2020 12:43:50 PM 
Item Master Value For Purchase_Account Data Completed at 8/13/2020 12:43:50 PM 
Item Master Value For Expense_Account Data Initiated at 8/13/2020 12:43:50 PM 
Item Master Value For Expense_Account Data Completed at 8/13/2020 12:43:50 PM 
Item Master Value For Purchase_Tax Data Initiated at 8/13/2020 12:43:50 PM 
Item Master Value For Purchase_Tax Data Completed at 8/13/2020 12:43:50 PM 
Item Control Value For UOM Data Initiated at 8/13/2020 12:43:50 PM 
Item Control Value For UOM Data Completed at 8/13/2020 12:43:50 PM 
Item Control Value For Sales_Unit Data Initiated at 8/13/2020 12:43:50 PM 
Item Control Value For Sales_Unit Data Completed at 8/13/2020 12:43:50 PM 
Item Control Value For Purchase_Unit Data Initiated at 8/13/2020 12:43:50 PM 
Item Control Value For Purchase_Unit Data Completed at 8/13/2020 12:43:50 PM 
Item Master Value For Income_Account Data Initiated at 8/13/2020 12:43:50 PM 
Item Master Value For Income_Account Data Completed at 8/13/2020 12:43:50 PM 
Item Master Value For Tax Data Initiated at 8/13/2020 12:43:50 PM 
Item Master Value For Tax Data Completed at 8/13/2020 12:43:50 PM 
Item Master Value For Jobber_Tax Data Initiated at 8/13/2020 12:43:50 PM 
Item Master Value For Jobber_Tax Data Completed at 8/13/2020 12:43:50 PM 
Item Master Value For Raw_Material Data Initiated at 8/13/2020 12:43:50 PM 
Item Master Value For Raw_Material Data Completed at 8/13/2020 12:43:50 PM 
Item Master Value For Primary_Fabric_Item Data Initiated at 8/13/2020 12:43:50 PM 
Item Master Value For Primary_Fabric_Item Data Completed at 8/13/2020 12:43:50 PM 
Item Master Value For Job_Order# Data Initiated at 8/13/2020 12:43:50 PM 
Item Master Value For Job_Order# Data Completed at 8/13/2020 12:43:50 PM 
Item Master Value For Job_Order_Issue# Data Initiated at 8/13/2020 12:43:50 PM 
Item Master Value For Job_Order_Issue# Data Completed at 8/13/2020 12:43:50 PM 
Item Control Value For Transaction_Type Data Initiated at 8/13/2020 12:43:50 PM 
Item Control Value For Transaction_Type Data Completed at 8/13/2020 12:43:50 PM 
Item GridView For Item_Desc Data Initiated at 8/13/2020 12:43:50 PM 
Item GridView For Item_Desc Data Completed at 8/13/2020 12:43:50 PM 
Item Master Value For OperatingUnit Data Initiated at 8/13/2020 12:43:50 PM 
Item Master Value For OperatingUnit Data Completed at 8/13/2020 12:43:50 PM 
Item Master Value For SAC_Code Data Initiated at 8/13/2020 12:43:50 PM 
Item Master Value For SAC_Code Data Completed at 8/13/2020 12:43:53 PM 
Item Master Value For Item_Tax Data Initiated at 8/13/2020 12:43:53 PM 
Item Master Value For Item_Tax Data Completed at 8/13/2020 12:43:53 PM 
Item Feilds are Created at 8/13/2020 12:43:53 PM 
Item Feilds Creation Completed For MATABLE007 at 8/13/2020 12:43:53 PM 
Item Feilds are Created at 8/13/2020 12:43:53 PM 
Item Feilds Creation Completed For FITABLE013 at 8/13/2020 12:43:53 PM 
Item Total Fields Creation Completed at 8/13/2020 12:43:53 PM 
Item Process Completed at 8/13/2020 12:43:53 PM 
 8/13/2020 12:43:53 PM
Item Process Initiated at 8/13/2020 12:48:43 PM 
Item Tabs are Created at 8/13/2020 12:48:43 PM 
Item GridView For Qty_OnHand Data Initiated at 8/13/2020 12:48:43 PM 
Item GridView For Qty_OnHand Data Completed at 8/13/2020 12:48:43 PM 
Item GridView For Qty_OnOrder Data Initiated at 8/13/2020 12:48:43 PM 
Item GridView For Qty_OnOrder Data Completed at 8/13/2020 12:48:43 PM 
Item GridView For Qty_Committed Data Initiated at 8/13/2020 12:48:43 PM 
Item GridView For Qty_Committed Data Completed at 8/13/2020 12:48:43 PM 
Item GridView For Qty_Available Data Initiated at 8/13/2020 12:48:43 PM 
Item GridView For Qty_Available Data Completed at 8/13/2020 12:48:43 PM 
Item Control Value For Price_ Type Data Initiated at 8/13/2020 12:48:43 PM 
Item Control Value For Price_ Type Data Completed at 8/13/2020 12:48:43 PM 
Item Master Value For Refered_Form Data Initiated at 8/13/2020 12:48:43 PM 
Item Master Value For Refered_Form Data Completed at 8/13/2020 12:48:43 PM 
Item Master Value For Type Data Initiated at 8/13/2020 12:48:43 PM 
Item Master Value For Type Data Completed at 8/13/2020 12:48:43 PM 
Item Master Value For Brand/Company Data Initiated at 8/13/2020 12:48:43 PM 
Item Master Value For Brand/Company Data Completed at 8/13/2020 12:48:43 PM 
Item Master Value For Vendor# Data Initiated at 8/13/2020 12:48:43 PM 
Item Master Value For Vendor# Data Completed at 8/13/2020 12:48:43 PM 
Item Control Value For Units Data Initiated at 8/13/2020 12:48:43 PM 
Item Control Value For Units Data Completed at 8/13/2020 12:48:43 PM 
Item Master Value For Family Data Initiated at 8/13/2020 12:48:43 PM 
Item Master Value For Family Data Completed at 8/13/2020 12:48:43 PM 
Item Master Value For Group Data Initiated at 8/13/2020 12:48:43 PM 
Item Master Value For Group Data Completed at 8/13/2020 12:48:43 PM 
Item Control Value For Color Data Initiated at 8/13/2020 12:48:43 PM 
Item Control Value For Color Data Completed at 8/13/2020 12:48:43 PM 
Item Control Value For Style Data Initiated at 8/13/2020 12:48:43 PM 
Item Control Value For Style Data Completed at 8/13/2020 12:48:43 PM 
Item Master Value For Operating_Unit Data Initiated at 8/13/2020 12:48:43 PM 
Item Master Value For Operating_Unit Data Completed at 8/13/2020 12:48:43 PM 
Item Master Value For Subsidary Data Initiated at 8/13/2020 12:48:43 PM 
Item Master Value For Subsidary Data Completed at 8/13/2020 12:48:43 PM 
Item Control Value For Classification Data Initiated at 8/13/2020 12:48:43 PM 
Item Control Value For Classification Data Completed at 8/13/2020 12:48:43 PM 
Item Control Value For Department Data Initiated at 8/13/2020 12:48:43 PM 
Item Control Value For Department Data Completed at 8/13/2020 12:48:43 PM 
Item Master Value For Purchase_Account Data Initiated at 8/13/2020 12:48:43 PM 
Item Master Value For Purchase_Account Data Completed at 8/13/2020 12:48:43 PM 
Item Master Value For Expense_Account Data Initiated at 8/13/2020 12:48:43 PM 
Item Master Value For Expense_Account Data Completed at 8/13/2020 12:48:43 PM 
Item Master Value For Purchase_Tax Data Initiated at 8/13/2020 12:48:43 PM 
Item Master Value For Purchase_Tax Data Completed at 8/13/2020 12:48:43 PM 
Item Control Value For UOM Data Initiated at 8/13/2020 12:48:43 PM 
Item Control Value For UOM Data Completed at 8/13/2020 12:48:43 PM 
Item Control Value For Sales_Unit Data Initiated at 8/13/2020 12:48:43 PM 
Item Control Value For Sales_Unit Data Completed at 8/13/2020 12:48:43 PM 
Item Control Value For Purchase_Unit Data Initiated at 8/13/2020 12:48:43 PM 
Item Control Value For Purchase_Unit Data Completed at 8/13/2020 12:48:43 PM 
Item Master Value For Income_Account Data Initiated at 8/13/2020 12:48:43 PM 
Item Master Value For Income_Account Data Completed at 8/13/2020 12:48:43 PM 
Item Master Value For Tax Data Initiated at 8/13/2020 12:48:43 PM 
Item Master Value For Tax Data Completed at 8/13/2020 12:48:43 PM 
Item Master Value For Jobber_Tax Data Initiated at 8/13/2020 12:48:43 PM 
Item Master Value For Jobber_Tax Data Completed at 8/13/2020 12:48:43 PM 
Item Master Value For Raw_Material Data Initiated at 8/13/2020 12:48:43 PM 
Item Master Value For Raw_Material Data Completed at 8/13/2020 12:48:43 PM 
Item Master Value For Primary_Fabric_Item Data Initiated at 8/13/2020 12:48:43 PM 
Item Master Value For Primary_Fabric_Item Data Completed at 8/13/2020 12:48:43 PM 
Item Master Value For Job_Order# Data Initiated at 8/13/2020 12:48:43 PM 
Item Master Value For Job_Order# Data Completed at 8/13/2020 12:48:43 PM 
Item Master Value For Job_Order_Issue# Data Initiated at 8/13/2020 12:48:43 PM 
Item Master Value For Job_Order_Issue# Data Completed at 8/13/2020 12:48:43 PM 
Item Control Value For Transaction_Type Data Initiated at 8/13/2020 12:48:43 PM 
Item Control Value For Transaction_Type Data Completed at 8/13/2020 12:48:43 PM 
Item GridView For Item_Desc Data Initiated at 8/13/2020 12:48:43 PM 
Item GridView For Item_Desc Data Completed at 8/13/2020 12:48:43 PM 
Item Master Value For OperatingUnit Data Initiated at 8/13/2020 12:48:43 PM 
Item Master Value For OperatingUnit Data Completed at 8/13/2020 12:48:43 PM 
Item Master Value For SAC_Code Data Initiated at 8/13/2020 12:48:43 PM 
Item Master Value For SAC_Code Data Completed at 8/13/2020 12:48:46 PM 
Item Master Value For Item_Tax Data Initiated at 8/13/2020 12:48:46 PM 
Item Master Value For Item_Tax Data Completed at 8/13/2020 12:48:46 PM 
Item Feilds are Created at 8/13/2020 12:48:46 PM 
Item Feilds Creation Completed For MATABLE007 at 8/13/2020 12:48:46 PM 
Item Feilds are Created at 8/13/2020 12:48:46 PM 
Item Feilds Creation Completed For FITABLE013 at 8/13/2020 12:48:46 PM 
Item Total Fields Creation Completed at 8/13/2020 12:48:46 PM 
Item Process Completed at 8/13/2020 12:48:46 PM 
 8/13/2020 12:48:46 PM
 
***********************TARGET4*********************** 
 
 Header Data Created for Item . 
 
 8/13/2020 12:49:06 PM
Item Process Initiated at 8/13/2020 12:49:11 PM 
Item Tabs are Created at 8/13/2020 12:49:11 PM 
Item GridView For Qty_OnHand Data Initiated at 8/13/2020 12:49:11 PM 
Item GridView For Qty_OnHand Data Completed at 8/13/2020 12:49:11 PM 
Item GridView For Qty_OnOrder Data Initiated at 8/13/2020 12:49:11 PM 
Item GridView For Qty_OnOrder Data Completed at 8/13/2020 12:49:11 PM 
Item GridView For Qty_Committed Data Initiated at 8/13/2020 12:49:11 PM 
Item GridView For Qty_Committed Data Completed at 8/13/2020 12:49:12 PM 
Item GridView For Qty_Available Data Initiated at 8/13/2020 12:49:12 PM 
Item GridView For Qty_Available Data Completed at 8/13/2020 12:49:12 PM 
Item Control Value For Price_ Type Data Initiated at 8/13/2020 12:49:12 PM 
Item Control Value For Price_ Type Data Completed at 8/13/2020 12:49:12 PM 
Item Master Value For Refered_Form Data Initiated at 8/13/2020 12:49:12 PM 
Item Master Value For Refered_Form Data Completed at 8/13/2020 12:49:12 PM 
Item Master Value For Type Data Initiated at 8/13/2020 12:49:12 PM 
Item Master Value For Type Data Completed at 8/13/2020 12:49:12 PM 
Item Master Value For Brand/Company Data Initiated at 8/13/2020 12:49:12 PM 
Item Master Value For Brand/Company Data Completed at 8/13/2020 12:49:12 PM 
Item Master Value For Vendor# Data Initiated at 8/13/2020 12:49:12 PM 
Item Master Value For Vendor# Data Completed at 8/13/2020 12:49:12 PM 
Item Control Value For Units Data Initiated at 8/13/2020 12:49:12 PM 
Item Control Value For Units Data Completed at 8/13/2020 12:49:12 PM 
Item Master Value For Family Data Initiated at 8/13/2020 12:49:12 PM 
Item Master Value For Family Data Completed at 8/13/2020 12:49:12 PM 
Item Master Value For Group Data Initiated at 8/13/2020 12:49:12 PM 
Item Master Value For Group Data Completed at 8/13/2020 12:49:12 PM 
Item Control Value For Color Data Initiated at 8/13/2020 12:49:12 PM 
Item Control Value For Color Data Completed at 8/13/2020 12:49:12 PM 
Item Control Value For Style Data Initiated at 8/13/2020 12:49:12 PM 
Item Control Value For Style Data Completed at 8/13/2020 12:49:12 PM 
Item Master Value For Operating_Unit Data Initiated at 8/13/2020 12:49:12 PM 
Item Master Value For Operating_Unit Data Completed at 8/13/2020 12:49:12 PM 
Item Master Value For Subsidary Data Initiated at 8/13/2020 12:49:12 PM 
Item Master Value For Subsidary Data Completed at 8/13/2020 12:49:12 PM 
Item Control Value For Classification Data Initiated at 8/13/2020 12:49:12 PM 
Item Control Value For Classification Data Completed at 8/13/2020 12:49:12 PM 
Item Control Value For Department Data Initiated at 8/13/2020 12:49:12 PM 
Item Control Value For Department Data Completed at 8/13/2020 12:49:12 PM 
Item Master Value For Purchase_Account Data Initiated at 8/13/2020 12:49:12 PM 
Item Master Value For Purchase_Account Data Completed at 8/13/2020 12:49:12 PM 
Item Master Value For Expense_Account Data Initiated at 8/13/2020 12:49:12 PM 
Item Master Value For Expense_Account Data Completed at 8/13/2020 12:49:12 PM 
Item Master Value For Purchase_Tax Data Initiated at 8/13/2020 12:49:12 PM 
Item Master Value For Purchase_Tax Data Completed at 8/13/2020 12:49:12 PM 
Item Control Value For UOM Data Initiated at 8/13/2020 12:49:12 PM 
Item Control Value For UOM Data Completed at 8/13/2020 12:49:12 PM 
Item Control Value For Sales_Unit Data Initiated at 8/13/2020 12:49:12 PM 
Item Control Value For Sales_Unit Data Completed at 8/13/2020 12:49:12 PM 
Item Control Value For Purchase_Unit Data Initiated at 8/13/2020 12:49:12 PM 
Item Control Value For Purchase_Unit Data Completed at 8/13/2020 12:49:12 PM 
Item Master Value For Income_Account Data Initiated at 8/13/2020 12:49:12 PM 
Item Master Value For Income_Account Data Completed at 8/13/2020 12:49:12 PM 
Item Master Value For Tax Data Initiated at 8/13/2020 12:49:12 PM 
Item Master Value For Tax Data Completed at 8/13/2020 12:49:12 PM 
Item Master Value For Jobber_Tax Data Initiated at 8/13/2020 12:49:12 PM 
Item Master Value For Jobber_Tax Data Completed at 8/13/2020 12:49:12 PM 
Item Master Value For Raw_Material Data Initiated at 8/13/2020 12:49:12 PM 
Item Master Value For Raw_Material Data Completed at 8/13/2020 12:49:12 PM 
Item Master Value For Primary_Fabric_Item Data Initiated at 8/13/2020 12:49:12 PM 
Item Master Value For Primary_Fabric_Item Data Completed at 8/13/2020 12:49:12 PM 
Item Master Value For Job_Order# Data Initiated at 8/13/2020 12:49:12 PM 
Item Master Value For Job_Order# Data Completed at 8/13/2020 12:49:12 PM 
Item Master Value For Job_Order_Issue# Data Initiated at 8/13/2020 12:49:12 PM 
Item Master Value For Job_Order_Issue# Data Completed at 8/13/2020 12:49:12 PM 
Item Control Value For Transaction_Type Data Initiated at 8/13/2020 12:49:12 PM 
Item Control Value For Transaction_Type Data Completed at 8/13/2020 12:49:12 PM 
Item GridView For Item_Desc Data Initiated at 8/13/2020 12:49:12 PM 
Item GridView For Item_Desc Data Completed at 8/13/2020 12:49:12 PM 
Item Master Value For OperatingUnit Data Initiated at 8/13/2020 12:49:12 PM 
Item Master Value For OperatingUnit Data Completed at 8/13/2020 12:49:12 PM 
Item Master Value For SAC_Code Data Initiated at 8/13/2020 12:49:12 PM 
Item Master Value For SAC_Code Data Completed at 8/13/2020 12:49:14 PM 
Item Master Value For Item_Tax Data Initiated at 8/13/2020 12:49:14 PM 
Item Master Value For Item_Tax Data Completed at 8/13/2020 12:49:14 PM 
Item Feilds are Created at 8/13/2020 12:49:14 PM 
Item Feilds Creation Completed For MATABLE007 at 8/13/2020 12:49:14 PM 
Item Feilds are Created at 8/13/2020 12:49:14 PM 
Item Feilds Creation Completed For FITABLE013 at 8/13/2020 12:49:14 PM 
Item Total Fields Creation Completed at 8/13/2020 12:49:14 PM 
Item Process Completed at 8/13/2020 12:49:14 PM 
 8/13/2020 12:49:14 PM
 
***********************TARGET4*********************** 
 
 Header Data Created for Item . 
 
 8/13/2020 12:49:55 PM
Item Process Initiated at 8/13/2020 12:57:41 PM 
Item Tabs are Created at 8/13/2020 12:57:41 PM 
Item GridView For Qty_OnHand Data Initiated at 8/13/2020 12:57:41 PM 
Item GridView For Qty_OnHand Data Completed at 8/13/2020 12:57:41 PM 
Item GridView For Qty_OnOrder Data Initiated at 8/13/2020 12:57:41 PM 
Item GridView For Qty_OnOrder Data Completed at 8/13/2020 12:57:41 PM 
Item GridView For Qty_Committed Data Initiated at 8/13/2020 12:57:41 PM 
Item GridView For Qty_Committed Data Completed at 8/13/2020 12:57:41 PM 
Item GridView For Qty_Available Data Initiated at 8/13/2020 12:57:41 PM 
Item GridView For Qty_Available Data Completed at 8/13/2020 12:57:41 PM 
Item Control Value For Price_ Type Data Initiated at 8/13/2020 12:57:41 PM 
Item Control Value For Price_ Type Data Completed at 8/13/2020 12:57:41 PM 
Item Master Value For Refered_Form Data Initiated at 8/13/2020 12:57:41 PM 
Item Master Value For Refered_Form Data Completed at 8/13/2020 12:57:41 PM 
Item Master Value For Type Data Initiated at 8/13/2020 12:57:41 PM 
Item Master Value For Type Data Completed at 8/13/2020 12:57:41 PM 
Item Master Value For Brand/Company Data Initiated at 8/13/2020 12:57:41 PM 
Item Master Value For Brand/Company Data Completed at 8/13/2020 12:57:41 PM 
Item Master Value For Vendor# Data Initiated at 8/13/2020 12:57:41 PM 
Item Master Value For Vendor# Data Completed at 8/13/2020 12:57:41 PM 
Item Control Value For Units Data Initiated at 8/13/2020 12:57:41 PM 
Item Control Value For Units Data Completed at 8/13/2020 12:57:41 PM 
Item Master Value For Family Data Initiated at 8/13/2020 12:57:41 PM 
Item Master Value For Family Data Completed at 8/13/2020 12:57:41 PM 
Item Master Value For Group Data Initiated at 8/13/2020 12:57:41 PM 
Item Master Value For Group Data Completed at 8/13/2020 12:57:41 PM 
Item Control Value For Color Data Initiated at 8/13/2020 12:57:41 PM 
Item Control Value For Color Data Completed at 8/13/2020 12:57:41 PM 
Item Control Value For Style Data Initiated at 8/13/2020 12:57:41 PM 
Item Control Value For Style Data Completed at 8/13/2020 12:57:41 PM 
Item Master Value For Operating_Unit Data Initiated at 8/13/2020 12:57:41 PM 
Item Master Value For Operating_Unit Data Completed at 8/13/2020 12:57:41 PM 
Item Master Value For Subsidary Data Initiated at 8/13/2020 12:57:41 PM 
Item Master Value For Subsidary Data Completed at 8/13/2020 12:57:41 PM 
Item Control Value For Classification Data Initiated at 8/13/2020 12:57:41 PM 
Item Control Value For Classification Data Completed at 8/13/2020 12:57:41 PM 
Item Control Value For Department Data Initiated at 8/13/2020 12:57:41 PM 
Item Control Value For Department Data Completed at 8/13/2020 12:57:41 PM 
Item Master Value For Purchase_Account Data Initiated at 8/13/2020 12:57:41 PM 
Item Master Value For Purchase_Account Data Completed at 8/13/2020 12:57:41 PM 
Item Master Value For Expense_Account Data Initiated at 8/13/2020 12:57:41 PM 
Item Master Value For Expense_Account Data Completed at 8/13/2020 12:57:41 PM 
Item Master Value For Purchase_Tax Data Initiated at 8/13/2020 12:57:41 PM 
Item Master Value For Purchase_Tax Data Completed at 8/13/2020 12:57:41 PM 
Item Control Value For UOM Data Initiated at 8/13/2020 12:57:41 PM 
Item Control Value For UOM Data Completed at 8/13/2020 12:57:41 PM 
Item Control Value For Sales_Unit Data Initiated at 8/13/2020 12:57:41 PM 
Item Control Value For Sales_Unit Data Completed at 8/13/2020 12:57:41 PM 
Item Control Value For Purchase_Unit Data Initiated at 8/13/2020 12:57:41 PM 
Item Control Value For Purchase_Unit Data Completed at 8/13/2020 12:57:41 PM 
Item Master Value For Income_Account Data Initiated at 8/13/2020 12:57:41 PM 
Item Master Value For Income_Account Data Completed at 8/13/2020 12:57:41 PM 
Item Master Value For Tax Data Initiated at 8/13/2020 12:57:41 PM 
Item Master Value For Tax Data Completed at 8/13/2020 12:57:41 PM 
Item Master Value For Jobber_Tax Data Initiated at 8/13/2020 12:57:41 PM 
Item Master Value For Jobber_Tax Data Completed at 8/13/2020 12:57:41 PM 
Item Master Value For Raw_Material Data Initiated at 8/13/2020 12:57:41 PM 
Item Master Value For Raw_Material Data Completed at 8/13/2020 12:57:41 PM 
Item Master Value For Primary_Fabric_Item Data Initiated at 8/13/2020 12:57:41 PM 
Item Master Value For Primary_Fabric_Item Data Completed at 8/13/2020 12:57:41 PM 
Item Master Value For Job_Order# Data Initiated at 8/13/2020 12:57:41 PM 
Item Master Value For Job_Order# Data Completed at 8/13/2020 12:57:41 PM 
Item Master Value For Job_Order_Issue# Data Initiated at 8/13/2020 12:57:41 PM 
Item Master Value For Job_Order_Issue# Data Completed at 8/13/2020 12:57:41 PM 
Item Control Value For Transaction_Type Data Initiated at 8/13/2020 12:57:41 PM 
Item Control Value For Transaction_Type Data Completed at 8/13/2020 12:57:41 PM 
Item GridView For Item_Desc Data Initiated at 8/13/2020 12:57:41 PM 
Item GridView For Item_Desc Data Completed at 8/13/2020 12:57:41 PM 
Item Master Value For OperatingUnit Data Initiated at 8/13/2020 12:57:41 PM 
Item Master Value For OperatingUnit Data Completed at 8/13/2020 12:57:41 PM 
Item Master Value For SAC_Code Data Initiated at 8/13/2020 12:57:41 PM 
Item Master Value For SAC_Code Data Completed at 8/13/2020 12:57:43 PM 
Item Master Value For Item_Tax Data Initiated at 8/13/2020 12:57:43 PM 
Item Master Value For Item_Tax Data Completed at 8/13/2020 12:57:43 PM 
Item Feilds are Created at 8/13/2020 12:57:43 PM 
Item Feilds Creation Completed For MATABLE007 at 8/13/2020 12:57:43 PM 
Item Feilds are Created at 8/13/2020 12:57:43 PM 
Item Feilds Creation Completed For FITABLE013 at 8/13/2020 12:57:43 PM 
Item Total Fields Creation Completed at 8/13/2020 12:57:43 PM 
Item Process Completed at 8/13/2020 12:57:43 PM 
 8/13/2020 12:57:43 PM
Item Process Initiated at 8/13/2020 1:33:20 PM 
Item Tabs are Created at 8/13/2020 1:33:20 PM 
Item GridView For Qty_OnHand Data Initiated at 8/13/2020 1:33:20 PM 
Item GridView For Qty_OnHand Data Completed at 8/13/2020 1:33:20 PM 
Item GridView For Qty_OnOrder Data Initiated at 8/13/2020 1:33:20 PM 
Item GridView For Qty_OnOrder Data Completed at 8/13/2020 1:33:20 PM 
Item GridView For Qty_Committed Data Initiated at 8/13/2020 1:33:20 PM 
Item GridView For Qty_Committed Data Completed at 8/13/2020 1:33:20 PM 
Item GridView For Qty_Available Data Initiated at 8/13/2020 1:33:20 PM 
Item GridView For Qty_Available Data Completed at 8/13/2020 1:33:20 PM 
Item Control Value For Price_ Type Data Initiated at 8/13/2020 1:33:20 PM 
Item Control Value For Price_ Type Data Completed at 8/13/2020 1:33:20 PM 
Item Master Value For Refered_Form Data Initiated at 8/13/2020 1:33:20 PM 
Item Master Value For Refered_Form Data Completed at 8/13/2020 1:33:20 PM 
Item Master Value For Type Data Initiated at 8/13/2020 1:33:20 PM 
Item Master Value For Type Data Completed at 8/13/2020 1:33:20 PM 
Item Master Value For Brand/Company Data Initiated at 8/13/2020 1:33:20 PM 
Item Master Value For Brand/Company Data Completed at 8/13/2020 1:33:20 PM 
Item Master Value For Vendor# Data Initiated at 8/13/2020 1:33:20 PM 
Item Master Value For Vendor# Data Completed at 8/13/2020 1:33:20 PM 
Item Control Value For Units Data Initiated at 8/13/2020 1:33:20 PM 
Item Control Value For Units Data Completed at 8/13/2020 1:33:20 PM 
Item Master Value For Family Data Initiated at 8/13/2020 1:33:20 PM 
Item Master Value For Family Data Completed at 8/13/2020 1:33:20 PM 
Item Master Value For Group Data Initiated at 8/13/2020 1:33:20 PM 
Item Master Value For Group Data Completed at 8/13/2020 1:33:20 PM 
Item Control Value For Color Data Initiated at 8/13/2020 1:33:20 PM 
Item Control Value For Color Data Completed at 8/13/2020 1:33:20 PM 
Item Control Value For Style Data Initiated at 8/13/2020 1:33:20 PM 
Item Control Value For Style Data Completed at 8/13/2020 1:33:20 PM 
Item Master Value For Operating_Unit Data Initiated at 8/13/2020 1:33:20 PM 
Item Master Value For Operating_Unit Data Completed at 8/13/2020 1:33:20 PM 
Item Master Value For Subsidary Data Initiated at 8/13/2020 1:33:20 PM 
Item Master Value For Subsidary Data Completed at 8/13/2020 1:33:20 PM 
Item Control Value For Classification Data Initiated at 8/13/2020 1:33:20 PM 
Item Control Value For Classification Data Completed at 8/13/2020 1:33:20 PM 
Item Control Value For Department Data Initiated at 8/13/2020 1:33:20 PM 
Item Control Value For Department Data Completed at 8/13/2020 1:33:20 PM 
Item Master Value For Purchase_Account Data Initiated at 8/13/2020 1:33:20 PM 
Item Master Value For Purchase_Account Data Completed at 8/13/2020 1:33:20 PM 
Item Master Value For Expense_Account Data Initiated at 8/13/2020 1:33:20 PM 
Item Master Value For Expense_Account Data Completed at 8/13/2020 1:33:20 PM 
Item Master Value For Purchase_Tax Data Initiated at 8/13/2020 1:33:20 PM 
Item Master Value For Purchase_Tax Data Completed at 8/13/2020 1:33:20 PM 
Item Control Value For UOM Data Initiated at 8/13/2020 1:33:20 PM 
Item Control Value For UOM Data Completed at 8/13/2020 1:33:20 PM 
Item Control Value For Sales_Unit Data Initiated at 8/13/2020 1:33:20 PM 
Item Control Value For Sales_Unit Data Completed at 8/13/2020 1:33:20 PM 
Item Control Value For Purchase_Unit Data Initiated at 8/13/2020 1:33:20 PM 
Item Control Value For Purchase_Unit Data Completed at 8/13/2020 1:33:20 PM 
Item Master Value For Income_Account Data Initiated at 8/13/2020 1:33:20 PM 
Item Master Value For Income_Account Data Completed at 8/13/2020 1:33:20 PM 
Item Master Value For Tax Data Initiated at 8/13/2020 1:33:20 PM 
Item Master Value For Tax Data Completed at 8/13/2020 1:33:20 PM 
Item Master Value For Jobber_Tax Data Initiated at 8/13/2020 1:33:20 PM 
Item Master Value For Jobber_Tax Data Completed at 8/13/2020 1:33:20 PM 
Item Master Value For Raw_Material Data Initiated at 8/13/2020 1:33:20 PM 
Item Master Value For Raw_Material Data Completed at 8/13/2020 1:33:20 PM 
Item Master Value For Primary_Fabric_Item Data Initiated at 8/13/2020 1:33:20 PM 
Item Master Value For Primary_Fabric_Item Data Completed at 8/13/2020 1:33:20 PM 
Item Master Value For Job_Order# Data Initiated at 8/13/2020 1:33:20 PM 
Item Master Value For Job_Order# Data Completed at 8/13/2020 1:33:20 PM 
Item Master Value For Job_Order_Issue# Data Initiated at 8/13/2020 1:33:20 PM 
Item Master Value For Job_Order_Issue# Data Completed at 8/13/2020 1:33:20 PM 
Item Control Value For Transaction_Type Data Initiated at 8/13/2020 1:33:20 PM 
Item Control Value For Transaction_Type Data Completed at 8/13/2020 1:33:20 PM 
Item GridView For Item_Desc Data Initiated at 8/13/2020 1:33:20 PM 
Item GridView For Item_Desc Data Completed at 8/13/2020 1:33:20 PM 
Item Master Value For OperatingUnit Data Initiated at 8/13/2020 1:33:20 PM 
Item Master Value For OperatingUnit Data Completed at 8/13/2020 1:33:20 PM 
Item Master Value For SAC_Code Data Initiated at 8/13/2020 1:33:20 PM 
Item Master Value For SAC_Code Data Completed at 8/13/2020 1:33:23 PM 
Item Master Value For Item_Tax Data Initiated at 8/13/2020 1:33:23 PM 
Item Master Value For Item_Tax Data Completed at 8/13/2020 1:33:23 PM 
Item Feilds are Created at 8/13/2020 1:33:23 PM 
Item Feilds Creation Completed For MATABLE007 at 8/13/2020 1:33:23 PM 
Item Feilds are Created at 8/13/2020 1:33:23 PM 
Item Feilds Creation Completed For FITABLE013 at 8/13/2020 1:33:23 PM 
Item Total Fields Creation Completed at 8/13/2020 1:33:23 PM 
Item Process Completed at 8/13/2020 1:33:23 PM 
 8/13/2020 1:33:23 PM
