

 Line Tax Amount = Total (3600.00)  * Tax (0.00) 
 Line Amount = Total (3600)  
 Line Total Amount = Amount (3600) + Tax Amount (0.00)  
 Header Total Amount  = Sub Total (3600.00) Tax (0.00)+ PackingCharges (0.00)+ ShippingCharges (0.00) 
 8/13/2020 12:36:51 PM