
 8/15/2020 10:35:39 AM 8/15/2020 10:35:45 AM
 8/15/2020 10:39:21 AM
 8/15/2020 10:40:17 AM
 8/15/2020 10:40:30 AM
 8/15/2020 10:40:39 AM
 8/15/2020 10:51:45 AM
 8/15/2020 10:51:51 AM
 8/15/2020 10:52:47 AM
