
could not connect to redis Instance at 137.59.201.64:6379 2/16/2018 6:12:16 PMcould not connect to redis Instance at 137.59.201.64:6379 2/16/2018 6:53:47 PM
could not connect to redis Instance at 137.59.201.64:6379 2/16/2018 7:06:07 PM
could not connect to redis Instance at 137.59.201.64:6379 2/16/2018 7:10:37 PM
could not connect to redis Instance at 137.59.201.64:6379 2/16/2018 7:13:10 PM
could not connect to redis Instance at 137.59.201.64:6379 2/16/2018 7:27:28 PM
could not connect to redis Instance at 137.59.201.64:6379 2/16/2018 7:34:19 PM
