
 the  values 20481`1283`JO00019`4331`17033`Approved`04/15/20`04/15/20`1`1000```57416`````1000`500.00`0.00`500.00`````0`0````0``0`0`0``56578`04/15/2020 10:32:42 PM`04/15/2020 10:32:42 PM`1`0`1035 of form Job Order(Out) and Table SATABLE005 has succeeded at  04/15/2020 10:32:46 PM the  values  of form Job Order(Out) and Table SATABLE006 succeeded at  04/15/2020 10:32:48 PM
 the  values 9998`vivek nagar`478``1007`1049`kdp`516390`1`1`56578`04/15/2020 10:32:48 PM`04/15/2020 10:32:48 PM`1`0`1035 of form Job Order(Out) and Table SATABLE003 has succeeded at  04/15/2020 10:32:48 PM
