
Tax Grouping Process Initiated at 12/7/2019 4:08:23 PM 
Tax Grouping Tabs are Created at 12/7/2019 4:08:23 PM 
Tax Grouping Control Value For Filling_Frequency Data Initiated at 12/7/2019 4:08:23 PM 
Tax Grouping Control Value For Filling_Frequency Data Completed at 12/7/2019 4:08:23 PM 
Tax Grouping Master Value For Select_Taxes Data Initiated at 12/7/2019 4:08:23 PM 
Tax Grouping Master Value For Select_Taxes Data Completed at 12/7/2019 4:08:23 PM 
Tax Grouping Control Value For Department Data Initiated at 12/7/2019 4:08:23 PM 
Tax Grouping Control Value For Department Data Completed at 12/7/2019 4:08:23 PM 
Tax Grouping Master Value For Operating_Unit Data Initiated at 12/7/2019 4:08:23 PM 
Tax Grouping Master Value For Operating_Unit Data Completed at 12/7/2019 4:08:23 PM 
Tax Grouping Master Value For Subsidary Data Initiated at 12/7/2019 4:08:23 PM 
Tax Grouping Master Value For Subsidary Data Completed at 12/7/2019 4:08:23 PM 
Tax Grouping Control Value For Classification Data Initiated at 12/7/2019 4:08:23 PM 
Tax Grouping Control Value For Classification Data Completed at 12/7/2019 4:08:23 PM 
Tax Grouping Feilds are Created at 12/7/2019 4:08:23 PM 
Tax Grouping Feilds Creation Completed For MATABLE014 at 12/7/2019 4:08:23 PM 
Tax Grouping Total Fields Creation Completed at 12/7/2019 4:08:23 PM 
Tax Grouping Process Completed at 12/7/2019 4:08:23 PM 
 12/7/2019 4:08:23 PM 
***********************TARGET4*********************** 
 
 Header Data Updated for Tax Grouping . 
 
 12/7/2019 4:08:56 PM
Tax Grouping Process Initiated at 12/7/2019 4:09:24 PM 
Tax Grouping Tabs are Created at 12/7/2019 4:09:24 PM 
Tax Grouping Control Value For Filling_Frequency Data Initiated at 12/7/2019 4:09:24 PM 
Tax Grouping Control Value For Filling_Frequency Data Completed at 12/7/2019 4:09:24 PM 
Tax Grouping Master Value For Select_Taxes Data Initiated at 12/7/2019 4:09:24 PM 
Tax Grouping Master Value For Select_Taxes Data Completed at 12/7/2019 4:09:24 PM 
Tax Grouping Control Value For Department Data Initiated at 12/7/2019 4:09:24 PM 
Tax Grouping Control Value For Department Data Completed at 12/7/2019 4:09:24 PM 
Tax Grouping Master Value For Operating_Unit Data Initiated at 12/7/2019 4:09:24 PM 
Tax Grouping Master Value For Operating_Unit Data Completed at 12/7/2019 4:09:24 PM 
Tax Grouping Master Value For Subsidary Data Initiated at 12/7/2019 4:09:24 PM 
Tax Grouping Master Value For Subsidary Data Completed at 12/7/2019 4:09:24 PM 
Tax Grouping Control Value For Classification Data Initiated at 12/7/2019 4:09:24 PM 
Tax Grouping Control Value For Classification Data Completed at 12/7/2019 4:09:24 PM 
Tax Grouping Feilds are Created at 12/7/2019 4:09:24 PM 
Tax Grouping Feilds Creation Completed For MATABLE014 at 12/7/2019 4:09:24 PM 
Tax Grouping Total Fields Creation Completed at 12/7/2019 4:09:24 PM 
Tax Grouping Process Completed at 12/7/2019 4:09:24 PM 
 12/7/2019 4:09:24 PM
 
***********************TARGET4*********************** 
 
 Header Data Created for Tax Grouping . 
 
 12/7/2019 4:10:04 PM
Tax Grouping Process Initiated at 12/7/2019 4:10:18 PM 
Tax Grouping Tabs are Created at 12/7/2019 4:10:18 PM 
Tax Grouping Control Value For Filling_Frequency Data Initiated at 12/7/2019 4:10:18 PM 
Tax Grouping Control Value For Filling_Frequency Data Completed at 12/7/2019 4:10:18 PM 
Tax Grouping Master Value For Select_Taxes Data Initiated at 12/7/2019 4:10:18 PM 
Tax Grouping Master Value For Select_Taxes Data Completed at 12/7/2019 4:10:18 PM 
Tax Grouping Control Value For Department Data Initiated at 12/7/2019 4:10:18 PM 
Tax Grouping Control Value For Department Data Completed at 12/7/2019 4:10:18 PM 
Tax Grouping Master Value For Operating_Unit Data Initiated at 12/7/2019 4:10:18 PM 
Tax Grouping Master Value For Operating_Unit Data Completed at 12/7/2019 4:10:18 PM 
Tax Grouping Master Value For Subsidary Data Initiated at 12/7/2019 4:10:18 PM 
Tax Grouping Master Value For Subsidary Data Completed at 12/7/2019 4:10:18 PM 
Tax Grouping Control Value For Classification Data Initiated at 12/7/2019 4:10:18 PM 
Tax Grouping Control Value For Classification Data Completed at 12/7/2019 4:10:18 PM 
Tax Grouping Feilds are Created at 12/7/2019 4:10:18 PM 
Tax Grouping Feilds Creation Completed For MATABLE014 at 12/7/2019 4:10:18 PM 
Tax Grouping Total Fields Creation Completed at 12/7/2019 4:10:18 PM 
Tax Grouping Process Completed at 12/7/2019 4:10:18 PM 
 12/7/2019 4:10:18 PM
 
***********************TARGET4*********************** 
 
 Header Data Updated for Tax Grouping . 
 
 12/7/2019 4:11:39 PM
 
***********************TARGET4*********************** 
 
 Header Data Updated for Tax Grouping . 
 
 12/7/2019 4:54:56 PM
