
could not connect to redis Instance at 137.59.201.64:6379 2/20/2018 10:26:16 AMcould not connect to redis Instance at 137.59.201.64:6379 2/20/2018 11:21:09 AM
could not connect to redis Instance at 137.59.201.64:6379 2/20/2018 11:26:39 AM
could not connect to redis Instance at 137.59.201.64:6379 2/20/2018 11:29:13 AM
could not connect to redis Instance at 137.59.201.64:6379 2/20/2018 11:56:20 AM
could not connect to redis Instance at 137.59.201.64:6379 2/20/2018 11:58:29 AM
could not connect to redis Instance at 137.59.201.64:6379 2/20/2018 12:29:24 PM
could not connect to redis Instance at 137.59.201.64:6379 2/20/2018 1:18:32 PM
could not connect to redis Instance at 137.59.201.64:6379 2/20/2018 1:21:22 PM
could not connect to redis Instance at 137.59.201.64:6379 2/20/2018 2:18:48 PM
could not connect to redis Instance at 137.59.201.64:6379 2/20/2018 2:32:34 PM
could not connect to redis Instance at 137.59.201.64:6379 2/20/2018 2:37:45 PM
could not connect to redis Instance at 137.59.201.64:6379 2/20/2018 2:41:20 PM
could not connect to redis Instance at 137.59.201.64:6379 2/20/2018 2:45:01 PM
could not connect to redis Instance at 137.59.201.64:6379 2/20/2018 2:48:49 PM
could not connect to redis Instance at 137.59.201.64:6379 2/20/2018 3:21:44 PM
could not connect to redis Instance at 137.59.201.64:6379 2/20/2018 3:37:22 PM
