
 
***********************TARGET1*********************** 
 
 Line Data Received . 8/14/2019 5:30:46 PM 
***********************TARGET4*********************** 
 
 Header Data Updated for Invoice . 
 
 8/14/2019 5:31:01 PM
 
***********************TARGET7*********************** 
 
 Line Data 0 Updated For Invoice . 
 
 8/14/2019 5:31:14 PM
 
***********************TARGET7*********************** 
 
 Line Data 1 Updated For Invoice . 
 
 8/14/2019 5:31:14 PM
 
***********************TARGET1*********************** 
 
 Line Data Received . 8/14/2019 5:31:26 PM
 
***********************TARGET4*********************** 
 
 Header Data Updated for Invoice . 
 
 8/14/2019 5:31:26 PM
 
***********************TARGET7*********************** 
 
 Line Data 0 Updated For Invoice . 
 
 8/14/2019 5:31:27 PM
