
 the  values 17161`1284`2121`1000`20505`JOI00019`04/24/20``Add,
add1,
add2,
guntur,
Andhra Pradesh,
522002,
India.```57499```56578`04/24/2020 11:22:50 AM`04/24/2020 11:22:50 AM`1`0`1035 of form Issue(Out) and Table SATABLE007 has succeeded at  04/24/2020 11:22:50 AM the  values  of form Issue(Out) and Table SATABLE008 succeeded at  04/24/2020 11:22:51 AM
