
 
***********************TARGET1*********************** 
 
 Line Data Received . 4/17/2018 3:02:08 PM 
***********************TARGET4*********************** 
 
 Header Data Updated for Customer . 
 
 4/17/2018 3:02:11 PM
 
***********************TARGET7*********************** 
 
 Line Data 0 Updated For Customer . 
 
 4/17/2018 3:02:11 PM
 
***********************TARGET4*********************** 
 
 Header Data Updated for Customer . 
 
 4/17/2018 3:02:11 PM
 
***********************TARGET4*********************** 
 
 Header Data Updated for Customer . 
 
 4/17/2018 3:02:11 PM
