
 
***********************TARGET4*********************** 
 
 Header Data Updated for Item . 
 
 4/17/2018 5:13:47 PM 
***********************TARGET4*********************** 
 
 Header Data Updated for Item . 
 
 4/17/2018 5:14:07 PM
 
***********************TARGET4*********************** 
 
 Header Data Updated for Item . 
 
 4/17/2018 5:15:12 PM
 
***********************TARGET4*********************** 
 
 Header Data Updated for Item . 
 
 4/17/2018 5:18:44 PM
