
Item Receipt Process Initiated at 8/18/2018 7:14:45 PM 
Item Receipt Tabs are Created at 8/18/2018 7:14:45 PM 
Item Receipt Master Value For Item Data Initiated at 8/18/2018 7:14:45 PM 
Item Receipt Master Value For Item Data Completed at 8/18/2018 7:14:45 PM 
Item Receipt Control Value For Units Data Initiated at 8/18/2018 7:14:45 PM 
Item Receipt Control Value For Units Data Completed at 8/18/2018 7:14:45 PM 
Item Receipt Master Value For Lot# Data Initiated at 8/18/2018 7:14:45 PM 
Item Receipt Master Value For Lot# Data Completed at 8/18/2018 7:14:45 PM 
Item Receipt Master Value For Location Data Initiated at 8/18/2018 7:14:45 PM 
Item Receipt Master Value For Location Data Completed at 8/18/2018 7:14:45 PM 
Item Receipt Master Value For OperatingUnit Data Initiated at 8/18/2018 7:14:45 PM 
Item Receipt Master Value For OperatingUnit Data Completed at 8/18/2018 7:14:45 PM 
Item Receipt Master Value For Subsidary Data Initiated at 8/18/2018 7:14:45 PM 
Item Receipt Master Value For Subsidary Data Completed at 8/18/2018 7:14:45 PM 
Item Receipt Control Value For Classification Data Initiated at 8/18/2018 7:14:45 PM 
Item Receipt Control Value For Classification Data Completed at 8/18/2018 7:14:45 PM 
Item Receipt Control Value For Department Data Initiated at 8/18/2018 7:14:45 PM 
Item Receipt Control Value For Department Data Completed at 8/18/2018 7:14:45 PM 
Item Receipt Master Value For Refered_Form Data Initiated at 8/18/2018 7:14:45 PM 
Item Receipt Master Value For Refered_Form Data Completed at 8/18/2018 7:14:45 PM 
Item Receipt Master Value For Vendor Data Initiated at 8/18/2018 7:14:45 PM 
Item Receipt Master Value For Vendor Data Completed at 8/18/2018 7:14:45 PM 
Item Receipt Master Value For Receipt_Type Data Initiated at 8/18/2018 7:14:45 PM 
Item Receipt Master Value For Receipt_Type Data Completed at 8/18/2018 7:14:45 PM 
Item Receipt Master Value For Purchase_Order# Data Initiated at 8/18/2018 7:14:45 PM 
Item Receipt Master Value For Purchase_Order# Data Completed at 8/18/2018 7:14:45 PM 
Item Receipt Control Value For GST_Category Data Initiated at 8/18/2018 7:14:45 PM 
Item Receipt Control Value For GST_Category Data Completed at 8/18/2018 7:14:45 PM 
Item Receipt Master Value For Place_Of_Supply Data Initiated at 8/18/2018 7:14:45 PM 
Item Receipt Master Value For Place_Of_Supply Data Completed at 8/18/2018 7:14:45 PM 
Item Receipt Control Value For Payment_Terms Data Initiated at 8/18/2018 7:14:45 PM 
Item Receipt Control Value For Payment_Terms Data Completed at 8/18/2018 7:14:45 PM 
Item Receipt Control Value For Payment_Mode Data Initiated at 8/18/2018 7:14:45 PM 
Item Receipt Control Value For Payment_Mode Data Completed at 8/18/2018 7:14:45 PM 
Item Receipt Master Value For Project# Data Initiated at 8/18/2018 7:14:45 PM 
Item Receipt Master Value For Project# Data Completed at 8/18/2018 7:14:45 PM 
Item Receipt Master Value For Operating_Unit Data Initiated at 8/18/2018 7:14:45 PM 
Item Receipt Master Value For Operating_Unit Data Completed at 8/18/2018 7:14:45 PM 
Item Receipt Master Value For Subsidary Data Initiated at 8/18/2018 7:14:45 PM 
Item Receipt Master Value For Subsidary Data Completed at 8/18/2018 7:14:45 PM 
Item Receipt Control Value For Class Data Initiated at 8/18/2018 7:14:45 PM 
Item Receipt Control Value For Class Data Completed at 8/18/2018 7:14:45 PM 
Item Receipt Control Value For Department Data Initiated at 8/18/2018 7:14:45 PM 
Item Receipt Control Value For Department Data Completed at 8/18/2018 7:14:45 PM 
Item Receipt Master Value For Location_ Data Initiated at 8/18/2018 7:14:45 PM 
Item Receipt Master Value For Location_ Data Completed at 8/18/2018 7:14:45 PM 
Item Receipt Feilds are Created at 8/18/2018 7:14:45 PM 
Item Receipt Feilds Creation Completed For PUTABLE003 at 8/18/2018 7:14:46 PM 
Item Receipt Feilds are Created at 8/18/2018 7:14:46 PM 
Item Receipt Feilds Creation Completed For PUTABLE004 at 8/18/2018 7:14:46 PM 
Item Receipt Total Fields Creation Completed at 8/18/2018 7:14:46 PM 
Item Receipt Process Completed at 8/18/2018 7:14:46 PM 
 8/18/2018 7:14:46 PM 
***********************TARGET1*********************** 
 
 Line Data Received . 8/18/2018 7:14:53 PM
 
***********************TARGET4*********************** 
 
 Header Data Created for Item Receipt . 
 
 8/18/2018 7:14:53 PM
 
***********************TARGET7*********************** 
 
 Line Data 0 Created For Item Receipt . 
 
 8/18/2018 7:14:53 PM
 
***********************TARGET7*********************** 
 
 Line Data 1 Created For Item Receipt . 
 
 8/18/2018 7:14:54 PM
 
***********************TARGET7*********************** 
 
 Line Data 2 Created For Item Receipt . 
 
 8/18/2018 7:14:54 PM
 
***********************TARGET7*********************** 
 
 Line Data 3 Created For Item Receipt . 
 
 8/18/2018 7:14:54 PM
 
***********************TARGET1*********************** 
 
 Line Data Received . 8/18/2018 7:19:12 PM
 
***********************TARGET4*********************** 
 
 Header Data Updated for Item Receipt . 
 
 8/18/2018 7:19:12 PM
 
***********************TARGET7*********************** 
 
 Line Data 0 Updated For Item Receipt . 
 
 8/18/2018 7:19:12 PM
 
***********************TARGET7*********************** 
 
 Line Data 1 Updated For Item Receipt . 
 
 8/18/2018 7:19:13 PM
 
***********************TARGET7*********************** 
 
 Line Data 2 Updated For Item Receipt . 
 
 8/18/2018 7:19:13 PM
 
***********************TARGET7*********************** 
 
 Line Data 3 Updated For Item Receipt . 
 
 8/18/2018 7:19:13 PM
Item Receipt Process Initiated at 8/18/2018 8:23:51 PM 
Item Receipt Tabs are Created at 8/18/2018 8:23:51 PM 
Item Receipt Master Value For Item Data Initiated at 8/18/2018 8:23:51 PM 
Item Receipt Master Value For Item Data Completed at 8/18/2018 8:23:51 PM 
Item Receipt Control Value For Units Data Initiated at 8/18/2018 8:23:51 PM 
Item Receipt Control Value For Units Data Completed at 8/18/2018 8:23:51 PM 
Item Receipt Master Value For Lot# Data Initiated at 8/18/2018 8:23:51 PM 
Item Receipt Master Value For Lot# Data Completed at 8/18/2018 8:23:51 PM 
Item Receipt Master Value For Location Data Initiated at 8/18/2018 8:23:51 PM 
Item Receipt Master Value For Location Data Completed at 8/18/2018 8:23:51 PM 
Item Receipt Master Value For OperatingUnit Data Initiated at 8/18/2018 8:23:51 PM 
Item Receipt Master Value For OperatingUnit Data Completed at 8/18/2018 8:23:51 PM 
Item Receipt Master Value For Subsidary Data Initiated at 8/18/2018 8:23:51 PM 
Item Receipt Master Value For Subsidary Data Completed at 8/18/2018 8:23:51 PM 
Item Receipt Control Value For Classification Data Initiated at 8/18/2018 8:23:51 PM 
Item Receipt Control Value For Classification Data Completed at 8/18/2018 8:23:51 PM 
Item Receipt Control Value For Department Data Initiated at 8/18/2018 8:23:51 PM 
Item Receipt Control Value For Department Data Completed at 8/18/2018 8:23:51 PM 
Item Receipt Master Value For Refered_Form Data Initiated at 8/18/2018 8:23:51 PM 
Item Receipt Master Value For Refered_Form Data Completed at 8/18/2018 8:23:51 PM 
Item Receipt Master Value For Vendor Data Initiated at 8/18/2018 8:23:51 PM 
Item Receipt Master Value For Vendor Data Completed at 8/18/2018 8:23:51 PM 
Item Receipt Master Value For Receipt_Type Data Initiated at 8/18/2018 8:23:51 PM 
Item Receipt Master Value For Receipt_Type Data Completed at 8/18/2018 8:23:51 PM 
Item Receipt Master Value For Purchase_Order# Data Initiated at 8/18/2018 8:23:51 PM 
Item Receipt Master Value For Purchase_Order# Data Completed at 8/18/2018 8:23:51 PM 
Item Receipt Control Value For GST_Category Data Initiated at 8/18/2018 8:23:51 PM 
Item Receipt Control Value For GST_Category Data Completed at 8/18/2018 8:23:51 PM 
Item Receipt Master Value For Place_Of_Supply Data Initiated at 8/18/2018 8:23:51 PM 
Item Receipt Master Value For Place_Of_Supply Data Completed at 8/18/2018 8:23:51 PM 
Item Receipt Control Value For Payment_Terms Data Initiated at 8/18/2018 8:23:51 PM 
Item Receipt Control Value For Payment_Terms Data Completed at 8/18/2018 8:23:51 PM 
Item Receipt Control Value For Payment_Mode Data Initiated at 8/18/2018 8:23:51 PM 
Item Receipt Control Value For Payment_Mode Data Completed at 8/18/2018 8:23:51 PM 
Item Receipt Master Value For Project# Data Initiated at 8/18/2018 8:23:51 PM 
Item Receipt Master Value For Project# Data Completed at 8/18/2018 8:23:51 PM 
Item Receipt Master Value For Operating_Unit Data Initiated at 8/18/2018 8:23:51 PM 
Item Receipt Master Value For Operating_Unit Data Completed at 8/18/2018 8:23:51 PM 
Item Receipt Master Value For Subsidary Data Initiated at 8/18/2018 8:23:51 PM 
Item Receipt Master Value For Subsidary Data Completed at 8/18/2018 8:23:51 PM 
Item Receipt Control Value For Class Data Initiated at 8/18/2018 8:23:51 PM 
Item Receipt Control Value For Class Data Completed at 8/18/2018 8:23:51 PM 
Item Receipt Control Value For Department Data Initiated at 8/18/2018 8:23:51 PM 
Item Receipt Control Value For Department Data Completed at 8/18/2018 8:23:51 PM 
Item Receipt Master Value For Location_ Data Initiated at 8/18/2018 8:23:51 PM 
Item Receipt Master Value For Location_ Data Completed at 8/18/2018 8:23:51 PM 
Item Receipt Feilds are Created at 8/18/2018 8:23:51 PM 
Item Receipt Feilds Creation Completed For PUTABLE003 at 8/18/2018 8:23:51 PM 
Item Receipt Feilds are Created at 8/18/2018 8:23:51 PM 
Item Receipt Feilds Creation Completed For PUTABLE004 at 8/18/2018 8:23:51 PM 
Item Receipt Total Fields Creation Completed at 8/18/2018 8:23:51 PM 
Item Receipt Process Completed at 8/18/2018 8:23:51 PM 
 8/18/2018 8:23:51 PM
 
***********************TARGET1*********************** 
 
 Line Data Received . 8/18/2018 8:23:57 PM
 
***********************TARGET4*********************** 
 
 Header Data Created for Item Receipt . 
 
 8/18/2018 8:23:57 PM
 
***********************TARGET7*********************** 
 
 Line Data 0 Created For Item Receipt . 
 
 8/18/2018 8:23:57 PM
 
***********************TARGET7*********************** 
 
 Line Data 1 Created For Item Receipt . 
 
 8/18/2018 8:23:57 PM
