
Project Process Initiated at 8/18/2018 1:32:47 PM 
Project Tabs are Created at 8/18/2018 1:32:47 PM 
Project Master Value For Project_Work_Order Data Initiated at 8/18/2018 1:32:47 PM 
Project Master Value For Project_Work_Order Data Completed at 8/18/2018 1:32:47 PM 
Project Control Value For MS_Status Data Initiated at 8/18/2018 1:32:47 PM 
Project Control Value For MS_Status Data Completed at 8/18/2018 1:32:47 PM 
Project Master Value For Customer Data Initiated at 8/18/2018 1:32:47 PM 
Project Master Value For Customer Data Completed at 8/18/2018 1:32:47 PM 
Project Control Value For Status Data Initiated at 8/18/2018 1:32:47 PM 
Project Control Value For Status Data Completed at 8/18/2018 1:32:47 PM 
Project Control Value For Billing_Type Data Initiated at 8/18/2018 1:32:47 PM 
Project Control Value For Billing_Type Data Completed at 8/18/2018 1:32:47 PM 
Project Control Value For Deparment Data Initiated at 8/18/2018 1:32:47 PM 
Project Control Value For Deparment Data Completed at 8/18/2018 1:32:47 PM 
Project Master Value For Operating_Unit Data Initiated at 8/18/2018 1:32:47 PM 
Project Master Value For Operating_Unit Data Completed at 8/18/2018 1:32:47 PM 
Project Master Value For Country Data Initiated at 8/18/2018 1:32:47 PM 
Project Master Value For Country Data Completed at 8/18/2018 1:32:47 PM 
Project Master Value For State Data Initiated at 8/18/2018 1:32:47 PM 
Project Master Value For State Data Completed at 8/18/2018 1:32:47 PM 
Project Feilds are Created at 8/18/2018 1:32:48 PM 
Project Feilds Creation Completed For SATABLE003 at 8/18/2018 1:32:48 PM 
Project Feilds are Created at 8/18/2018 1:32:48 PM 
Project Feilds Creation Completed For PRTABLE001 at 8/18/2018 1:32:48 PM 
Project Feilds are Created at 8/18/2018 1:32:48 PM 
Project Feilds Creation Completed For PRTABLE002 at 8/18/2018 1:32:48 PM 
Project Total Fields Creation Completed at 8/18/2018 1:32:48 PM 
Project Process Completed at 8/18/2018 1:32:48 PM 
 8/18/2018 1:32:48 PM 
***********************TARGET1*********************** 
 
 Line Data Received . 8/18/2018 1:33:25 PM
 
***********************TARGET4*********************** 
 
 Header Data Created for Project . 
 
 8/18/2018 1:33:25 PM
 
***********************TARGET7*********************** 
 
 Line Data 0 Created For Project . 
 
 8/18/2018 1:33:25 PM
 
***********************TARGET4*********************** 
 
 Header Data Created for Project . 
 
 8/18/2018 1:33:25 PM
Project Process Initiated at 8/18/2018 1:33:33 PM 
Project Tabs are Created at 8/18/2018 1:33:33 PM 
Project Master Value For Project_Work_Order Data Initiated at 8/18/2018 1:33:33 PM 
Project Master Value For Project_Work_Order Data Completed at 8/18/2018 1:33:33 PM 
Project Control Value For MS_Status Data Initiated at 8/18/2018 1:33:33 PM 
Project Control Value For MS_Status Data Completed at 8/18/2018 1:33:33 PM 
Project Master Value For Customer Data Initiated at 8/18/2018 1:33:33 PM 
Project Master Value For Customer Data Completed at 8/18/2018 1:33:33 PM 
Project Control Value For Status Data Initiated at 8/18/2018 1:33:33 PM 
Project Control Value For Status Data Completed at 8/18/2018 1:33:33 PM 
Project Control Value For Billing_Type Data Initiated at 8/18/2018 1:33:33 PM 
Project Control Value For Billing_Type Data Completed at 8/18/2018 1:33:33 PM 
Project Control Value For Deparment Data Initiated at 8/18/2018 1:33:33 PM 
Project Control Value For Deparment Data Completed at 8/18/2018 1:33:33 PM 
Project Master Value For Operating_Unit Data Initiated at 8/18/2018 1:33:33 PM 
Project Master Value For Operating_Unit Data Completed at 8/18/2018 1:33:33 PM 
Project Master Value For Country Data Initiated at 8/18/2018 1:33:33 PM 
Project Master Value For Country Data Completed at 8/18/2018 1:33:33 PM 
Project Master Value For State Data Initiated at 8/18/2018 1:33:33 PM 
Project Master Value For State Data Completed at 8/18/2018 1:33:33 PM 
Project Feilds are Created at 8/18/2018 1:33:33 PM 
Project Feilds Creation Completed For SATABLE003 at 8/18/2018 1:33:33 PM 
Project Feilds are Created at 8/18/2018 1:33:33 PM 
Project Feilds Creation Completed For PRTABLE001 at 8/18/2018 1:33:33 PM 
Project Feilds are Created at 8/18/2018 1:33:33 PM 
Project Feilds Creation Completed For PRTABLE002 at 8/18/2018 1:33:33 PM 
Project Total Fields Creation Completed at 8/18/2018 1:33:33 PM 
Project Process Completed at 8/18/2018 1:33:33 PM 
 8/18/2018 1:33:33 PM
 
***********************TARGET1*********************** 
 
 Line Data Received . 8/18/2018 1:33:58 PM
 
***********************TARGET4*********************** 
 
 Header Data Created for Project . 
 
 8/18/2018 1:33:58 PM
 
***********************TARGET7*********************** 
 
 Line Data 0 Created For Project . 
 
 8/18/2018 1:33:58 PM
 
***********************TARGET4*********************** 
 
 Header Data Created for Project . 
 
 8/18/2018 1:33:58 PM
