
Purchase Order Process Initiated at 04/29/2020 9:39:36 PM 
Purchase Order Tabs are Created at 04/29/2020 9:39:36 PM 
Purchase Order Master Value For Item Data Initiated at 04/29/2020 9:39:36 PM 
Purchase Order Master Value For Item Data Completed at 04/29/2020 9:39:36 PM 
Purchase Order Control Value For Units Data Initiated at 04/29/2020 9:39:36 PM 
Purchase Order Control Value For Units Data Completed at 04/29/2020 9:39:36 PM 
Purchase Order Master Value For Lot# Data Initiated at 04/29/2020 9:39:36 PM 
Purchase Order Master Value For Lot# Data Completed at 04/29/2020 9:39:36 PM 
Purchase Order Master Value For Location Data Initiated at 04/29/2020 9:39:36 PM 
Purchase Order Master Value For Location Data Completed at 04/29/2020 9:39:36 PM 
Purchase Order Master Value For Tax Data Initiated at 04/29/2020 9:39:36 PM 
Purchase Order Master Value For Tax Data Completed at 04/29/2020 9:39:36 PM 
Purchase Order Master Value For Refered_Form Data Initiated at 04/29/2020 9:39:36 PM 
Purchase Order Master Value For Refered_Form Data Completed at 04/29/2020 9:39:36 PM 
Purchase Order Master Value For Vendor Data Initiated at 04/29/2020 9:39:36 PM 
Purchase Order Master Value For Vendor Data Completed at 04/29/2020 9:39:36 PM 
Purchase Order Control Value For GST_Category Data Initiated at 04/29/2020 9:39:36 PM 
Purchase Order Control Value For GST_Category Data Completed at 04/29/2020 9:39:36 PM 
Purchase Order Master Value For Place_Of_Supply Data Initiated at 04/29/2020 9:39:36 PM 
Purchase Order Master Value For Place_Of_Supply Data Completed at 04/29/2020 9:39:36 PM 
Purchase Order Master Value For Receipt_Type Data Initiated at 04/29/2020 9:39:36 PM 
Purchase Order Master Value For Receipt_Type Data Completed at 04/29/2020 9:39:36 PM 
Purchase Order Master Value For Payment_Terms Data Initiated at 04/29/2020 9:39:36 PM 
Purchase Order Master Value For Payment_Terms Data Completed at 04/29/2020 9:39:36 PM 
Purchase Order Control Value For Payment_Mode Data Initiated at 04/29/2020 9:39:36 PM 
Purchase Order Control Value For Payment_Mode Data Completed at 04/29/2020 9:39:36 PM 
Purchase Order Master Value For Project# Data Initiated at 04/29/2020 9:39:36 PM 
Purchase Order Master Value For Project# Data Completed at 04/29/2020 9:39:36 PM 
Purchase Order Master Value For Operating_Unit Data Initiated at 04/29/2020 9:39:36 PM 
Purchase Order Master Value For Operating_Unit Data Completed at 04/29/2020 9:39:36 PM 
Purchase Order Master Value For Location_ Data Initiated at 04/29/2020 9:39:36 PM 
Purchase Order Master Value For Location_ Data Completed at 04/29/2020 9:39:36 PM 
Purchase Order Master Value For Quotation# Data Initiated at 04/29/2020 9:39:36 PM 
Purchase Order Master Value For Quotation# Data Completed at 04/29/2020 9:39:36 PM 
Purchase Order Control Value For Department Data Initiated at 04/29/2020 9:39:36 PM 
Purchase Order Control Value For Department Data Completed at 04/29/2020 9:39:36 PM 
Purchase Order Master Value For Subsidary Data Initiated at 04/29/2020 9:39:36 PM 
Purchase Order Master Value For Subsidary Data Completed at 04/29/2020 9:39:36 PM 
Purchase Order Control Value For Class Data Initiated at 04/29/2020 9:39:36 PM 
Purchase Order Control Value For Class Data Completed at 04/29/2020 9:39:36 PM 
Purchase Order Control Value For Exclusive Data Initiated at 04/29/2020 9:39:36 PM 
Purchase Order Control Value For Exclusive Data Completed at 04/29/2020 9:39:36 PM 
Purchase Order Master Value For Tax_Type Data Initiated at 04/29/2020 9:39:36 PM 
Purchase Order Master Value For Tax_Type Data Completed at 04/29/2020 9:39:36 PM 
Purchase Order Master Value For Country Data Initiated at 04/29/2020 9:39:36 PM 
Purchase Order Master Value For Country Data Completed at 04/29/2020 9:39:36 PM 
Purchase Order Master Value For State Data Initiated at 04/29/2020 9:39:36 PM 
Purchase Order Master Value For State Data Completed at 04/29/2020 9:39:36 PM 
Purchase Order Feilds are Created at 04/29/2020 9:39:36 PM 
Purchase Order Feilds Creation Completed For PUTABLE001 at 04/29/2020 9:39:36 PM 
Purchase Order Feilds are Created at 04/29/2020 9:39:36 PM 
Purchase Order Feilds Creation Completed For PUTABLE002 at 04/29/2020 9:39:36 PM 
Purchase Order Feilds are Created at 04/29/2020 9:39:37 PM 
Purchase Order Feilds Creation Completed For PUTABLE009 at 04/29/2020 9:39:37 PM 
Purchase Order Total Fields Creation Completed at 04/29/2020 9:39:37 PM 
Purchase Order Process Completed at 04/29/2020 9:39:37 PM 
 04/29/2020 9:39:37 PM 
***********************TARGET1*********************** 
 
 Line Data Received . 04/29/2020 9:41:21 PM
 
***********************TARGET4*********************** 
 
 Header Data Created for Purchase Order . 
 
 04/29/2020 9:41:35 PM
 
***********************TARGET7*********************** 
 
 Line Data 0 Created For Purchase Order . 
 
 04/29/2020 9:41:36 PM
 
***********************TARGET4*********************** 
 
 Header Data Created for Purchase Order . 
 
 04/29/2020 9:41:36 PM
Purchase Order Process Initiated at 04/29/2020 9:58:42 PM 
Purchase Order Tabs are Created at 04/29/2020 9:58:42 PM 
Purchase Order Master Value For Item Data Initiated at 04/29/2020 9:58:42 PM 
Purchase Order Master Value For Item Data Completed at 04/29/2020 9:58:42 PM 
Purchase Order Control Value For Units Data Initiated at 04/29/2020 9:58:42 PM 
Purchase Order Control Value For Units Data Completed at 04/29/2020 9:58:42 PM 
Purchase Order Master Value For Lot# Data Initiated at 04/29/2020 9:58:42 PM 
Purchase Order Master Value For Lot# Data Completed at 04/29/2020 9:58:42 PM 
Purchase Order Master Value For Location Data Initiated at 04/29/2020 9:58:42 PM 
Purchase Order Master Value For Location Data Completed at 04/29/2020 9:58:42 PM 
Purchase Order Master Value For Tax Data Initiated at 04/29/2020 9:58:42 PM 
Purchase Order Master Value For Tax Data Completed at 04/29/2020 9:58:42 PM 
Purchase Order Master Value For Refered_Form Data Initiated at 04/29/2020 9:58:42 PM 
Purchase Order Master Value For Refered_Form Data Completed at 04/29/2020 9:58:42 PM 
Purchase Order Master Value For Vendor Data Initiated at 04/29/2020 9:58:42 PM 
Purchase Order Master Value For Vendor Data Completed at 04/29/2020 9:58:42 PM 
Purchase Order Control Value For GST_Category Data Initiated at 04/29/2020 9:58:42 PM 
Purchase Order Control Value For GST_Category Data Completed at 04/29/2020 9:58:42 PM 
Purchase Order Master Value For Place_Of_Supply Data Initiated at 04/29/2020 9:58:42 PM 
Purchase Order Master Value For Place_Of_Supply Data Completed at 04/29/2020 9:58:42 PM 
Purchase Order Master Value For Receipt_Type Data Initiated at 04/29/2020 9:58:42 PM 
Purchase Order Master Value For Receipt_Type Data Completed at 04/29/2020 9:58:42 PM 
Purchase Order Master Value For Payment_Terms Data Initiated at 04/29/2020 9:58:42 PM 
Purchase Order Master Value For Payment_Terms Data Completed at 04/29/2020 9:58:42 PM 
Purchase Order Control Value For Payment_Mode Data Initiated at 04/29/2020 9:58:42 PM 
Purchase Order Control Value For Payment_Mode Data Completed at 04/29/2020 9:58:42 PM 
Purchase Order Master Value For Project# Data Initiated at 04/29/2020 9:58:42 PM 
Purchase Order Master Value For Project# Data Completed at 04/29/2020 9:58:42 PM 
Purchase Order Master Value For Operating_Unit Data Initiated at 04/29/2020 9:58:42 PM 
Purchase Order Master Value For Operating_Unit Data Completed at 04/29/2020 9:58:42 PM 
Purchase Order Master Value For Location_ Data Initiated at 04/29/2020 9:58:42 PM 
Purchase Order Master Value For Location_ Data Completed at 04/29/2020 9:58:42 PM 
Purchase Order Master Value For Quotation# Data Initiated at 04/29/2020 9:58:42 PM 
Purchase Order Master Value For Quotation# Data Completed at 04/29/2020 9:58:42 PM 
Purchase Order Control Value For Department Data Initiated at 04/29/2020 9:58:42 PM 
Purchase Order Control Value For Department Data Completed at 04/29/2020 9:58:42 PM 
Purchase Order Master Value For Subsidary Data Initiated at 04/29/2020 9:58:42 PM 
Purchase Order Master Value For Subsidary Data Completed at 04/29/2020 9:58:42 PM 
Purchase Order Control Value For Class Data Initiated at 04/29/2020 9:58:42 PM 
Purchase Order Control Value For Class Data Completed at 04/29/2020 9:58:42 PM 
Purchase Order Control Value For Exclusive Data Initiated at 04/29/2020 9:58:42 PM 
Purchase Order Control Value For Exclusive Data Completed at 04/29/2020 9:58:42 PM 
Purchase Order Master Value For Tax_Type Data Initiated at 04/29/2020 9:58:42 PM 
Purchase Order Master Value For Tax_Type Data Completed at 04/29/2020 9:58:42 PM 
Purchase Order Master Value For Country Data Initiated at 04/29/2020 9:58:42 PM 
Purchase Order Master Value For Country Data Completed at 04/29/2020 9:58:42 PM 
Purchase Order Master Value For State Data Initiated at 04/29/2020 9:58:42 PM 
Purchase Order Master Value For State Data Completed at 04/29/2020 9:58:42 PM 
Purchase Order Feilds are Created at 04/29/2020 9:58:42 PM 
Purchase Order Feilds Creation Completed For PUTABLE001 at 04/29/2020 9:58:42 PM 
Purchase Order Feilds are Created at 04/29/2020 9:58:42 PM 
Purchase Order Feilds Creation Completed For PUTABLE002 at 04/29/2020 9:58:42 PM 
Purchase Order Feilds are Created at 04/29/2020 9:58:42 PM 
Purchase Order Feilds Creation Completed For PUTABLE009 at 04/29/2020 9:58:42 PM 
Purchase Order Total Fields Creation Completed at 04/29/2020 9:58:42 PM 
Purchase Order Process Completed at 04/29/2020 9:58:42 PM 
 04/29/2020 9:58:42 PM
Purchase Order Process Initiated at 04/29/2020 10:32:20 PM 
Purchase Order Tabs are Created at 04/29/2020 10:32:20 PM 
Purchase Order Master Value For Item Data Initiated at 04/29/2020 10:32:20 PM 
Purchase Order Master Value For Item Data Completed at 04/29/2020 10:32:20 PM 
Purchase Order Control Value For Units Data Initiated at 04/29/2020 10:32:20 PM 
Purchase Order Control Value For Units Data Completed at 04/29/2020 10:32:20 PM 
Purchase Order Master Value For Lot# Data Initiated at 04/29/2020 10:32:20 PM 
Purchase Order Master Value For Lot# Data Completed at 04/29/2020 10:32:20 PM 
Purchase Order Master Value For Location Data Initiated at 04/29/2020 10:32:20 PM 
Purchase Order Master Value For Location Data Completed at 04/29/2020 10:32:20 PM 
Purchase Order Master Value For Tax Data Initiated at 04/29/2020 10:32:20 PM 
Purchase Order Master Value For Tax Data Completed at 04/29/2020 10:32:20 PM 
Purchase Order Master Value For Refered_Form Data Initiated at 04/29/2020 10:32:20 PM 
Purchase Order Master Value For Refered_Form Data Completed at 04/29/2020 10:32:20 PM 
Purchase Order Master Value For Vendor Data Initiated at 04/29/2020 10:32:20 PM 
Purchase Order Master Value For Vendor Data Completed at 04/29/2020 10:32:21 PM 
Purchase Order Control Value For GST_Category Data Initiated at 04/29/2020 10:32:21 PM 
Purchase Order Control Value For GST_Category Data Completed at 04/29/2020 10:32:21 PM 
Purchase Order Master Value For Place_Of_Supply Data Initiated at 04/29/2020 10:32:21 PM 
Purchase Order Master Value For Place_Of_Supply Data Completed at 04/29/2020 10:32:21 PM 
Purchase Order Master Value For Receipt_Type Data Initiated at 04/29/2020 10:32:21 PM 
Purchase Order Master Value For Receipt_Type Data Completed at 04/29/2020 10:32:21 PM 
Purchase Order Master Value For Payment_Terms Data Initiated at 04/29/2020 10:32:21 PM 
Purchase Order Master Value For Payment_Terms Data Completed at 04/29/2020 10:32:21 PM 
Purchase Order Control Value For Payment_Mode Data Initiated at 04/29/2020 10:32:21 PM 
Purchase Order Control Value For Payment_Mode Data Completed at 04/29/2020 10:32:21 PM 
Purchase Order Master Value For Project# Data Initiated at 04/29/2020 10:32:21 PM 
Purchase Order Master Value For Project# Data Completed at 04/29/2020 10:32:21 PM 
Purchase Order Master Value For Operating_Unit Data Initiated at 04/29/2020 10:32:21 PM 
Purchase Order Master Value For Operating_Unit Data Completed at 04/29/2020 10:32:21 PM 
Purchase Order Master Value For Location_ Data Initiated at 04/29/2020 10:32:21 PM 
Purchase Order Master Value For Location_ Data Completed at 04/29/2020 10:32:21 PM 
Purchase Order Master Value For Quotation# Data Initiated at 04/29/2020 10:32:21 PM 
Purchase Order Master Value For Quotation# Data Completed at 04/29/2020 10:32:21 PM 
Purchase Order Control Value For Department Data Initiated at 04/29/2020 10:32:21 PM 
Purchase Order Control Value For Department Data Completed at 04/29/2020 10:32:21 PM 
Purchase Order Master Value For Subsidary Data Initiated at 04/29/2020 10:32:21 PM 
Purchase Order Master Value For Subsidary Data Completed at 04/29/2020 10:32:21 PM 
Purchase Order Control Value For Class Data Initiated at 04/29/2020 10:32:21 PM 
Purchase Order Control Value For Class Data Completed at 04/29/2020 10:32:21 PM 
Purchase Order Control Value For Exclusive Data Initiated at 04/29/2020 10:32:21 PM 
Purchase Order Control Value For Exclusive Data Completed at 04/29/2020 10:32:21 PM 
Purchase Order Master Value For Tax_Type Data Initiated at 04/29/2020 10:32:21 PM 
Purchase Order Master Value For Tax_Type Data Completed at 04/29/2020 10:32:21 PM 
Purchase Order Master Value For Country Data Initiated at 04/29/2020 10:32:21 PM 
Purchase Order Master Value For Country Data Completed at 04/29/2020 10:32:21 PM 
Purchase Order Master Value For State Data Initiated at 04/29/2020 10:32:21 PM 
Purchase Order Master Value For State Data Completed at 04/29/2020 10:32:21 PM 
Purchase Order Feilds are Created at 04/29/2020 10:32:21 PM 
Purchase Order Feilds Creation Completed For PUTABLE001 at 04/29/2020 10:32:21 PM 
Purchase Order Feilds are Created at 04/29/2020 10:32:22 PM 
Purchase Order Feilds Creation Completed For PUTABLE002 at 04/29/2020 10:32:22 PM 
Purchase Order Feilds are Created at 04/29/2020 10:32:22 PM 
Purchase Order Feilds Creation Completed For PUTABLE009 at 04/29/2020 10:32:22 PM 
Purchase Order Total Fields Creation Completed at 04/29/2020 10:32:22 PM 
Purchase Order Process Completed at 04/29/2020 10:32:22 PM 
 04/29/2020 10:32:22 PM
Purchase Order Process Initiated at 04/29/2020 10:32:45 PM 
Purchase Order Tabs are Created at 04/29/2020 10:32:45 PM 
Purchase Order Master Value For Item Data Initiated at 04/29/2020 10:32:45 PM 
Purchase Order Master Value For Item Data Completed at 04/29/2020 10:32:45 PM 
Purchase Order Control Value For Units Data Initiated at 04/29/2020 10:32:45 PM 
Purchase Order Control Value For Units Data Completed at 04/29/2020 10:32:45 PM 
Purchase Order Master Value For Lot# Data Initiated at 04/29/2020 10:32:45 PM 
Purchase Order Master Value For Lot# Data Completed at 04/29/2020 10:32:45 PM 
Purchase Order Master Value For Location Data Initiated at 04/29/2020 10:32:45 PM 
Purchase Order Master Value For Location Data Completed at 04/29/2020 10:32:45 PM 
Purchase Order Master Value For Tax Data Initiated at 04/29/2020 10:32:45 PM 
Purchase Order Master Value For Tax Data Completed at 04/29/2020 10:32:45 PM 
Purchase Order Master Value For Refered_Form Data Initiated at 04/29/2020 10:32:45 PM 
Purchase Order Master Value For Refered_Form Data Completed at 04/29/2020 10:32:46 PM 
Purchase Order Master Value For Vendor Data Initiated at 04/29/2020 10:32:46 PM 
Purchase Order Master Value For Vendor Data Completed at 04/29/2020 10:32:46 PM 
Purchase Order Control Value For GST_Category Data Initiated at 04/29/2020 10:32:46 PM 
Purchase Order Control Value For GST_Category Data Completed at 04/29/2020 10:32:46 PM 
Purchase Order Master Value For Place_Of_Supply Data Initiated at 04/29/2020 10:32:46 PM 
Purchase Order Master Value For Place_Of_Supply Data Completed at 04/29/2020 10:32:46 PM 
Purchase Order Master Value For Receipt_Type Data Initiated at 04/29/2020 10:32:46 PM 
Purchase Order Master Value For Receipt_Type Data Completed at 04/29/2020 10:32:46 PM 
Purchase Order Master Value For Payment_Terms Data Initiated at 04/29/2020 10:32:46 PM 
Purchase Order Master Value For Payment_Terms Data Completed at 04/29/2020 10:32:46 PM 
Purchase Order Control Value For Payment_Mode Data Initiated at 04/29/2020 10:32:46 PM 
Purchase Order Control Value For Payment_Mode Data Completed at 04/29/2020 10:32:46 PM 
Purchase Order Master Value For Project# Data Initiated at 04/29/2020 10:32:46 PM 
Purchase Order Master Value For Project# Data Completed at 04/29/2020 10:32:46 PM 
Purchase Order Master Value For Operating_Unit Data Initiated at 04/29/2020 10:32:46 PM 
Purchase Order Master Value For Operating_Unit Data Completed at 04/29/2020 10:32:46 PM 
Purchase Order Master Value For Location_ Data Initiated at 04/29/2020 10:32:46 PM 
Purchase Order Master Value For Location_ Data Completed at 04/29/2020 10:32:46 PM 
Purchase Order Master Value For Quotation# Data Initiated at 04/29/2020 10:32:46 PM 
Purchase Order Master Value For Quotation# Data Completed at 04/29/2020 10:32:46 PM 
Purchase Order Control Value For Department Data Initiated at 04/29/2020 10:32:46 PM 
Purchase Order Control Value For Department Data Completed at 04/29/2020 10:32:46 PM 
Purchase Order Master Value For Subsidary Data Initiated at 04/29/2020 10:32:46 PM 
Purchase Order Master Value For Subsidary Data Completed at 04/29/2020 10:32:46 PM 
Purchase Order Control Value For Class Data Initiated at 04/29/2020 10:32:46 PM 
Purchase Order Control Value For Class Data Completed at 04/29/2020 10:32:46 PM 
Purchase Order Control Value For Exclusive Data Initiated at 04/29/2020 10:32:46 PM 
Purchase Order Control Value For Exclusive Data Completed at 04/29/2020 10:32:46 PM 
Purchase Order Master Value For Tax_Type Data Initiated at 04/29/2020 10:32:46 PM 
Purchase Order Master Value For Tax_Type Data Completed at 04/29/2020 10:32:46 PM 
Purchase Order Master Value For Country Data Initiated at 04/29/2020 10:32:46 PM 
Purchase Order Master Value For Country Data Completed at 04/29/2020 10:32:46 PM 
Purchase Order Master Value For State Data Initiated at 04/29/2020 10:32:46 PM 
Purchase Order Master Value For State Data Completed at 04/29/2020 10:32:46 PM 
Purchase Order Feilds are Created at 04/29/2020 10:32:46 PM 
Purchase Order Feilds Creation Completed For PUTABLE001 at 04/29/2020 10:32:46 PM 
Purchase Order Feilds are Created at 04/29/2020 10:32:46 PM 
Purchase Order Feilds Creation Completed For PUTABLE002 at 04/29/2020 10:32:46 PM 
Purchase Order Feilds are Created at 04/29/2020 10:32:46 PM 
Purchase Order Feilds Creation Completed For PUTABLE009 at 04/29/2020 10:32:46 PM 
Purchase Order Total Fields Creation Completed at 04/29/2020 10:32:46 PM 
Purchase Order Process Completed at 04/29/2020 10:32:46 PM 
 04/29/2020 10:32:46 PM
Purchase Order Process Initiated at 04/29/2020 10:37:50 PM 
Purchase Order Tabs are Created at 04/29/2020 10:37:50 PM 
Purchase Order Master Value For Item Data Initiated at 04/29/2020 10:37:50 PM 
Purchase Order Master Value For Item Data Completed at 04/29/2020 10:37:50 PM 
Purchase Order Control Value For Units Data Initiated at 04/29/2020 10:37:50 PM 
Purchase Order Control Value For Units Data Completed at 04/29/2020 10:37:50 PM 
Purchase Order Master Value For Lot# Data Initiated at 04/29/2020 10:37:50 PM 
Purchase Order Master Value For Lot# Data Completed at 04/29/2020 10:37:50 PM 
Purchase Order Master Value For Location Data Initiated at 04/29/2020 10:37:50 PM 
Purchase Order Master Value For Location Data Completed at 04/29/2020 10:37:50 PM 
Purchase Order Master Value For Tax Data Initiated at 04/29/2020 10:37:50 PM 
Purchase Order Master Value For Tax Data Completed at 04/29/2020 10:37:51 PM 
Purchase Order Master Value For Refered_Form Data Initiated at 04/29/2020 10:37:51 PM 
Purchase Order Master Value For Refered_Form Data Completed at 04/29/2020 10:37:51 PM 
Purchase Order Master Value For Vendor Data Initiated at 04/29/2020 10:37:51 PM 
Purchase Order Master Value For Vendor Data Completed at 04/29/2020 10:37:51 PM 
Purchase Order Control Value For GST_Category Data Initiated at 04/29/2020 10:37:51 PM 
Purchase Order Control Value For GST_Category Data Completed at 04/29/2020 10:37:51 PM 
Purchase Order Master Value For Place_Of_Supply Data Initiated at 04/29/2020 10:37:51 PM 
Purchase Order Master Value For Place_Of_Supply Data Completed at 04/29/2020 10:37:51 PM 
Purchase Order Master Value For Receipt_Type Data Initiated at 04/29/2020 10:37:51 PM 
Purchase Order Master Value For Receipt_Type Data Completed at 04/29/2020 10:37:51 PM 
Purchase Order Master Value For Payment_Terms Data Initiated at 04/29/2020 10:37:51 PM 
Purchase Order Master Value For Payment_Terms Data Completed at 04/29/2020 10:37:51 PM 
Purchase Order Control Value For Payment_Mode Data Initiated at 04/29/2020 10:37:51 PM 
Purchase Order Control Value For Payment_Mode Data Completed at 04/29/2020 10:37:51 PM 
Purchase Order Master Value For Project# Data Initiated at 04/29/2020 10:37:51 PM 
Purchase Order Master Value For Project# Data Completed at 04/29/2020 10:37:51 PM 
Purchase Order Master Value For Operating_Unit Data Initiated at 04/29/2020 10:37:51 PM 
Purchase Order Master Value For Operating_Unit Data Completed at 04/29/2020 10:37:51 PM 
Purchase Order Master Value For Location_ Data Initiated at 04/29/2020 10:37:51 PM 
Purchase Order Master Value For Location_ Data Completed at 04/29/2020 10:37:51 PM 
Purchase Order Master Value For Quotation# Data Initiated at 04/29/2020 10:37:51 PM 
Purchase Order Master Value For Quotation# Data Completed at 04/29/2020 10:37:51 PM 
Purchase Order Control Value For Department Data Initiated at 04/29/2020 10:37:51 PM 
Purchase Order Control Value For Department Data Completed at 04/29/2020 10:37:51 PM 
Purchase Order Master Value For Subsidary Data Initiated at 04/29/2020 10:37:51 PM 
Purchase Order Master Value For Subsidary Data Completed at 04/29/2020 10:37:51 PM 
Purchase Order Control Value For Class Data Initiated at 04/29/2020 10:37:51 PM 
Purchase Order Control Value For Class Data Completed at 04/29/2020 10:37:51 PM 
Purchase Order Control Value For Exclusive Data Initiated at 04/29/2020 10:37:51 PM 
Purchase Order Control Value For Exclusive Data Completed at 04/29/2020 10:37:51 PM 
Purchase Order Master Value For Tax_Type Data Initiated at 04/29/2020 10:37:51 PM 
Purchase Order Master Value For Tax_Type Data Completed at 04/29/2020 10:37:51 PM 
Purchase Order Master Value For Country Data Initiated at 04/29/2020 10:37:51 PM 
Purchase Order Master Value For Country Data Completed at 04/29/2020 10:37:51 PM 
Purchase Order Master Value For State Data Initiated at 04/29/2020 10:37:51 PM 
Purchase Order Master Value For State Data Completed at 04/29/2020 10:37:51 PM 
Purchase Order Feilds are Created at 04/29/2020 10:37:51 PM 
Purchase Order Feilds Creation Completed For PUTABLE001 at 04/29/2020 10:37:51 PM 
Purchase Order Feilds are Created at 04/29/2020 10:37:51 PM 
Purchase Order Feilds Creation Completed For PUTABLE002 at 04/29/2020 10:37:51 PM 
Purchase Order Feilds are Created at 04/29/2020 10:37:51 PM 
Purchase Order Feilds Creation Completed For PUTABLE009 at 04/29/2020 10:37:51 PM 
Purchase Order Total Fields Creation Completed at 04/29/2020 10:37:51 PM 
Purchase Order Process Completed at 04/29/2020 10:37:51 PM 
 04/29/2020 10:37:51 PM
Purchase Order Process Initiated at 04/29/2020 10:39:16 PM 
Purchase Order Tabs are Created at 04/29/2020 10:39:16 PM 
Purchase Order Master Value For Item Data Initiated at 04/29/2020 10:39:16 PM 
Purchase Order Master Value For Item Data Completed at 04/29/2020 10:39:16 PM 
Purchase Order Control Value For Units Data Initiated at 04/29/2020 10:39:16 PM 
Purchase Order Control Value For Units Data Completed at 04/29/2020 10:39:16 PM 
Purchase Order Master Value For Lot# Data Initiated at 04/29/2020 10:39:16 PM 
Purchase Order Master Value For Lot# Data Completed at 04/29/2020 10:39:16 PM 
Purchase Order Master Value For Location Data Initiated at 04/29/2020 10:39:16 PM 
Purchase Order Master Value For Location Data Completed at 04/29/2020 10:39:16 PM 
Purchase Order Master Value For Tax Data Initiated at 04/29/2020 10:39:16 PM 
Purchase Order Master Value For Tax Data Completed at 04/29/2020 10:39:16 PM 
Purchase Order Master Value For Refered_Form Data Initiated at 04/29/2020 10:39:16 PM 
Purchase Order Master Value For Refered_Form Data Completed at 04/29/2020 10:39:16 PM 
Purchase Order Master Value For Vendor Data Initiated at 04/29/2020 10:39:16 PM 
Purchase Order Master Value For Vendor Data Completed at 04/29/2020 10:39:16 PM 
Purchase Order Control Value For GST_Category Data Initiated at 04/29/2020 10:39:16 PM 
Purchase Order Control Value For GST_Category Data Completed at 04/29/2020 10:39:16 PM 
Purchase Order Master Value For Place_Of_Supply Data Initiated at 04/29/2020 10:39:16 PM 
Purchase Order Master Value For Place_Of_Supply Data Completed at 04/29/2020 10:39:16 PM 
Purchase Order Master Value For Receipt_Type Data Initiated at 04/29/2020 10:39:16 PM 
Purchase Order Master Value For Receipt_Type Data Completed at 04/29/2020 10:39:16 PM 
Purchase Order Master Value For Payment_Terms Data Initiated at 04/29/2020 10:39:16 PM 
Purchase Order Master Value For Payment_Terms Data Completed at 04/29/2020 10:39:16 PM 
Purchase Order Control Value For Payment_Mode Data Initiated at 04/29/2020 10:39:16 PM 
Purchase Order Control Value For Payment_Mode Data Completed at 04/29/2020 10:39:16 PM 
Purchase Order Master Value For Project# Data Initiated at 04/29/2020 10:39:16 PM 
Purchase Order Master Value For Project# Data Completed at 04/29/2020 10:39:16 PM 
Purchase Order Master Value For Operating_Unit Data Initiated at 04/29/2020 10:39:16 PM 
Purchase Order Master Value For Operating_Unit Data Completed at 04/29/2020 10:39:16 PM 
Purchase Order Master Value For Location_ Data Initiated at 04/29/2020 10:39:16 PM 
Purchase Order Master Value For Location_ Data Completed at 04/29/2020 10:39:16 PM 
Purchase Order Master Value For Quotation# Data Initiated at 04/29/2020 10:39:16 PM 
Purchase Order Master Value For Quotation# Data Completed at 04/29/2020 10:39:16 PM 
Purchase Order Control Value For Department Data Initiated at 04/29/2020 10:39:16 PM 
Purchase Order Control Value For Department Data Completed at 04/29/2020 10:39:16 PM 
Purchase Order Master Value For Subsidary Data Initiated at 04/29/2020 10:39:16 PM 
Purchase Order Master Value For Subsidary Data Completed at 04/29/2020 10:39:16 PM 
Purchase Order Control Value For Class Data Initiated at 04/29/2020 10:39:16 PM 
Purchase Order Control Value For Class Data Completed at 04/29/2020 10:39:16 PM 
Purchase Order Control Value For Exclusive Data Initiated at 04/29/2020 10:39:16 PM 
Purchase Order Control Value For Exclusive Data Completed at 04/29/2020 10:39:16 PM 
Purchase Order Master Value For Tax_Type Data Initiated at 04/29/2020 10:39:16 PM 
Purchase Order Master Value For Tax_Type Data Completed at 04/29/2020 10:39:16 PM 
Purchase Order Master Value For Country Data Initiated at 04/29/2020 10:39:16 PM 
Purchase Order Master Value For Country Data Completed at 04/29/2020 10:39:16 PM 
Purchase Order Master Value For State Data Initiated at 04/29/2020 10:39:16 PM 
Purchase Order Master Value For State Data Completed at 04/29/2020 10:39:16 PM 
Purchase Order Feilds are Created at 04/29/2020 10:39:16 PM 
Purchase Order Feilds Creation Completed For PUTABLE001 at 04/29/2020 10:39:16 PM 
Purchase Order Feilds are Created at 04/29/2020 10:39:16 PM 
Purchase Order Feilds Creation Completed For PUTABLE002 at 04/29/2020 10:39:16 PM 
Purchase Order Feilds are Created at 04/29/2020 10:39:16 PM 
Purchase Order Feilds Creation Completed For PUTABLE009 at 04/29/2020 10:39:16 PM 
Purchase Order Total Fields Creation Completed at 04/29/2020 10:39:16 PM 
Purchase Order Process Completed at 04/29/2020 10:39:16 PM 
 04/29/2020 10:39:16 PM
Purchase Order Process Initiated at 04/29/2020 11:05:34 PM 
Purchase Order Tabs are Created at 04/29/2020 11:05:34 PM 
Purchase Order Master Value For Item Data Initiated at 04/29/2020 11:05:34 PM 
Purchase Order Master Value For Item Data Completed at 04/29/2020 11:05:34 PM 
Purchase Order Control Value For Units Data Initiated at 04/29/2020 11:05:34 PM 
Purchase Order Control Value For Units Data Completed at 04/29/2020 11:05:34 PM 
Purchase Order Master Value For Lot# Data Initiated at 04/29/2020 11:05:34 PM 
Purchase Order Master Value For Lot# Data Completed at 04/29/2020 11:05:34 PM 
Purchase Order Master Value For Location Data Initiated at 04/29/2020 11:05:34 PM 
Purchase Order Master Value For Location Data Completed at 04/29/2020 11:05:34 PM 
Purchase Order Master Value For Tax Data Initiated at 04/29/2020 11:05:34 PM 
Purchase Order Master Value For Tax Data Completed at 04/29/2020 11:05:34 PM 
Purchase Order Master Value For Refered_Form Data Initiated at 04/29/2020 11:05:34 PM 
Purchase Order Master Value For Refered_Form Data Completed at 04/29/2020 11:05:34 PM 
Purchase Order Master Value For Vendor Data Initiated at 04/29/2020 11:05:34 PM 
Purchase Order Master Value For Vendor Data Completed at 04/29/2020 11:05:34 PM 
Purchase Order Control Value For GST_Category Data Initiated at 04/29/2020 11:05:34 PM 
Purchase Order Control Value For GST_Category Data Completed at 04/29/2020 11:05:34 PM 
Purchase Order Master Value For Place_Of_Supply Data Initiated at 04/29/2020 11:05:34 PM 
Purchase Order Master Value For Place_Of_Supply Data Completed at 04/29/2020 11:05:34 PM 
Purchase Order Master Value For Receipt_Type Data Initiated at 04/29/2020 11:05:34 PM 
Purchase Order Master Value For Receipt_Type Data Completed at 04/29/2020 11:05:34 PM 
Purchase Order Master Value For Payment_Terms Data Initiated at 04/29/2020 11:05:34 PM 
Purchase Order Master Value For Payment_Terms Data Completed at 04/29/2020 11:05:34 PM 
Purchase Order Control Value For Payment_Mode Data Initiated at 04/29/2020 11:05:34 PM 
Purchase Order Control Value For Payment_Mode Data Completed at 04/29/2020 11:05:34 PM 
Purchase Order Master Value For Project# Data Initiated at 04/29/2020 11:05:34 PM 
Purchase Order Master Value For Project# Data Completed at 04/29/2020 11:05:34 PM 
Purchase Order Master Value For Operating_Unit Data Initiated at 04/29/2020 11:05:34 PM 
Purchase Order Master Value For Operating_Unit Data Completed at 04/29/2020 11:05:34 PM 
Purchase Order Master Value For Location_ Data Initiated at 04/29/2020 11:05:34 PM 
Purchase Order Master Value For Location_ Data Completed at 04/29/2020 11:05:34 PM 
Purchase Order Master Value For Quotation# Data Initiated at 04/29/2020 11:05:34 PM 
Purchase Order Master Value For Quotation# Data Completed at 04/29/2020 11:05:34 PM 
Purchase Order Control Value For Department Data Initiated at 04/29/2020 11:05:34 PM 
Purchase Order Control Value For Department Data Completed at 04/29/2020 11:05:34 PM 
Purchase Order Master Value For Subsidary Data Initiated at 04/29/2020 11:05:34 PM 
Purchase Order Master Value For Subsidary Data Completed at 04/29/2020 11:05:34 PM 
Purchase Order Control Value For Class Data Initiated at 04/29/2020 11:05:34 PM 
Purchase Order Control Value For Class Data Completed at 04/29/2020 11:05:34 PM 
Purchase Order Control Value For Exclusive Data Initiated at 04/29/2020 11:05:34 PM 
Purchase Order Control Value For Exclusive Data Completed at 04/29/2020 11:05:34 PM 
Purchase Order Master Value For Tax_Type Data Initiated at 04/29/2020 11:05:34 PM 
Purchase Order Master Value For Tax_Type Data Completed at 04/29/2020 11:05:34 PM 
Purchase Order Master Value For Country Data Initiated at 04/29/2020 11:05:34 PM 
Purchase Order Master Value For Country Data Completed at 04/29/2020 11:05:34 PM 
Purchase Order Master Value For State Data Initiated at 04/29/2020 11:05:34 PM 
Purchase Order Master Value For State Data Completed at 04/29/2020 11:05:34 PM 
Purchase Order Feilds are Created at 04/29/2020 11:05:34 PM 
Purchase Order Feilds Creation Completed For PUTABLE001 at 04/29/2020 11:05:34 PM 
Purchase Order Feilds are Created at 04/29/2020 11:05:34 PM 
Purchase Order Feilds Creation Completed For PUTABLE002 at 04/29/2020 11:05:34 PM 
Purchase Order Feilds are Created at 04/29/2020 11:05:34 PM 
Purchase Order Feilds Creation Completed For PUTABLE009 at 04/29/2020 11:05:34 PM 
Purchase Order Total Fields Creation Completed at 04/29/2020 11:05:34 PM 
Purchase Order Process Completed at 04/29/2020 11:05:34 PM 
 04/29/2020 11:05:34 PM
Purchase Order Process Initiated at 04/29/2020 11:05:40 PM 
Purchase Order Tabs are Created at 04/29/2020 11:05:40 PM 
Purchase Order Master Value For Item Data Initiated at 04/29/2020 11:05:40 PM 
Purchase Order Master Value For Item Data Completed at 04/29/2020 11:05:40 PM 
Purchase Order Control Value For Units Data Initiated at 04/29/2020 11:05:40 PM 
Purchase Order Control Value For Units Data Completed at 04/29/2020 11:05:40 PM 
Purchase Order Master Value For Lot# Data Initiated at 04/29/2020 11:05:40 PM 
Purchase Order Master Value For Lot# Data Completed at 04/29/2020 11:05:40 PM 
Purchase Order Master Value For Location Data Initiated at 04/29/2020 11:05:40 PM 
Purchase Order Master Value For Location Data Completed at 04/29/2020 11:05:40 PM 
Purchase Order Master Value For Tax Data Initiated at 04/29/2020 11:05:40 PM 
Purchase Order Master Value For Tax Data Completed at 04/29/2020 11:05:40 PM 
Purchase Order Master Value For Refered_Form Data Initiated at 04/29/2020 11:05:40 PM 
Purchase Order Master Value For Refered_Form Data Completed at 04/29/2020 11:05:40 PM 
Purchase Order Master Value For Vendor Data Initiated at 04/29/2020 11:05:40 PM 
Purchase Order Master Value For Vendor Data Completed at 04/29/2020 11:05:40 PM 
Purchase Order Control Value For GST_Category Data Initiated at 04/29/2020 11:05:40 PM 
Purchase Order Control Value For GST_Category Data Completed at 04/29/2020 11:05:40 PM 
Purchase Order Master Value For Place_Of_Supply Data Initiated at 04/29/2020 11:05:40 PM 
Purchase Order Master Value For Place_Of_Supply Data Completed at 04/29/2020 11:05:40 PM 
Purchase Order Master Value For Receipt_Type Data Initiated at 04/29/2020 11:05:40 PM 
Purchase Order Master Value For Receipt_Type Data Completed at 04/29/2020 11:05:40 PM 
Purchase Order Master Value For Payment_Terms Data Initiated at 04/29/2020 11:05:40 PM 
Purchase Order Master Value For Payment_Terms Data Completed at 04/29/2020 11:05:40 PM 
Purchase Order Control Value For Payment_Mode Data Initiated at 04/29/2020 11:05:40 PM 
Purchase Order Control Value For Payment_Mode Data Completed at 04/29/2020 11:05:40 PM 
Purchase Order Master Value For Project# Data Initiated at 04/29/2020 11:05:40 PM 
Purchase Order Master Value For Project# Data Completed at 04/29/2020 11:05:40 PM 
Purchase Order Master Value For Operating_Unit Data Initiated at 04/29/2020 11:05:40 PM 
Purchase Order Master Value For Operating_Unit Data Completed at 04/29/2020 11:05:40 PM 
Purchase Order Master Value For Location_ Data Initiated at 04/29/2020 11:05:40 PM 
Purchase Order Master Value For Location_ Data Completed at 04/29/2020 11:05:40 PM 
Purchase Order Master Value For Quotation# Data Initiated at 04/29/2020 11:05:40 PM 
Purchase Order Master Value For Quotation# Data Completed at 04/29/2020 11:05:40 PM 
Purchase Order Control Value For Department Data Initiated at 04/29/2020 11:05:40 PM 
Purchase Order Control Value For Department Data Completed at 04/29/2020 11:05:40 PM 
Purchase Order Master Value For Subsidary Data Initiated at 04/29/2020 11:05:40 PM 
Purchase Order Master Value For Subsidary Data Completed at 04/29/2020 11:05:40 PM 
Purchase Order Control Value For Class Data Initiated at 04/29/2020 11:05:40 PM 
Purchase Order Control Value For Class Data Completed at 04/29/2020 11:05:40 PM 
Purchase Order Control Value For Exclusive Data Initiated at 04/29/2020 11:05:40 PM 
Purchase Order Control Value For Exclusive Data Completed at 04/29/2020 11:05:40 PM 
Purchase Order Master Value For Tax_Type Data Initiated at 04/29/2020 11:05:40 PM 
Purchase Order Master Value For Tax_Type Data Completed at 04/29/2020 11:05:40 PM 
Purchase Order Master Value For Country Data Initiated at 04/29/2020 11:05:40 PM 
Purchase Order Master Value For Country Data Completed at 04/29/2020 11:05:40 PM 
Purchase Order Master Value For State Data Initiated at 04/29/2020 11:05:40 PM 
Purchase Order Master Value For State Data Completed at 04/29/2020 11:05:40 PM 
Purchase Order Feilds are Created at 04/29/2020 11:05:40 PM 
Purchase Order Feilds Creation Completed For PUTABLE001 at 04/29/2020 11:05:40 PM 
Purchase Order Feilds are Created at 04/29/2020 11:05:40 PM 
Purchase Order Feilds Creation Completed For PUTABLE002 at 04/29/2020 11:05:40 PM 
Purchase Order Feilds are Created at 04/29/2020 11:05:40 PM 
Purchase Order Feilds Creation Completed For PUTABLE009 at 04/29/2020 11:05:40 PM 
Purchase Order Total Fields Creation Completed at 04/29/2020 11:05:40 PM 
Purchase Order Process Completed at 04/29/2020 11:05:40 PM 
 04/29/2020 11:05:40 PM
Purchase Order Process Initiated at 04/29/2020 11:07:15 PM 
Purchase Order Tabs are Created at 04/29/2020 11:07:15 PM 
Purchase Order Master Value For Item Data Initiated at 04/29/2020 11:07:15 PM 
Purchase Order Master Value For Item Data Completed at 04/29/2020 11:07:15 PM 
Purchase Order Control Value For Units Data Initiated at 04/29/2020 11:07:15 PM 
Purchase Order Control Value For Units Data Completed at 04/29/2020 11:07:15 PM 
Purchase Order Master Value For Lot# Data Initiated at 04/29/2020 11:07:15 PM 
Purchase Order Master Value For Lot# Data Completed at 04/29/2020 11:07:15 PM 
Purchase Order Master Value For Location Data Initiated at 04/29/2020 11:07:15 PM 
Purchase Order Master Value For Location Data Completed at 04/29/2020 11:07:15 PM 
Purchase Order Master Value For Tax Data Initiated at 04/29/2020 11:07:15 PM 
Purchase Order Master Value For Tax Data Completed at 04/29/2020 11:07:15 PM 
Purchase Order Master Value For Refered_Form Data Initiated at 04/29/2020 11:07:15 PM 
Purchase Order Master Value For Refered_Form Data Completed at 04/29/2020 11:07:15 PM 
Purchase Order Master Value For Vendor Data Initiated at 04/29/2020 11:07:15 PM 
Purchase Order Master Value For Vendor Data Completed at 04/29/2020 11:07:15 PM 
Purchase Order Control Value For GST_Category Data Initiated at 04/29/2020 11:07:15 PM 
Purchase Order Control Value For GST_Category Data Completed at 04/29/2020 11:07:15 PM 
Purchase Order Master Value For Place_Of_Supply Data Initiated at 04/29/2020 11:07:15 PM 
Purchase Order Master Value For Place_Of_Supply Data Completed at 04/29/2020 11:07:15 PM 
Purchase Order Master Value For Receipt_Type Data Initiated at 04/29/2020 11:07:15 PM 
Purchase Order Master Value For Receipt_Type Data Completed at 04/29/2020 11:07:15 PM 
Purchase Order Master Value For Payment_Terms Data Initiated at 04/29/2020 11:07:15 PM 
Purchase Order Master Value For Payment_Terms Data Completed at 04/29/2020 11:07:15 PM 
Purchase Order Control Value For Payment_Mode Data Initiated at 04/29/2020 11:07:15 PM 
Purchase Order Control Value For Payment_Mode Data Completed at 04/29/2020 11:07:15 PM 
Purchase Order Master Value For Project# Data Initiated at 04/29/2020 11:07:15 PM 
Purchase Order Master Value For Project# Data Completed at 04/29/2020 11:07:15 PM 
Purchase Order Master Value For Operating_Unit Data Initiated at 04/29/2020 11:07:15 PM 
Purchase Order Master Value For Operating_Unit Data Completed at 04/29/2020 11:07:15 PM 
Purchase Order Master Value For Location_ Data Initiated at 04/29/2020 11:07:15 PM 
Purchase Order Master Value For Location_ Data Completed at 04/29/2020 11:07:15 PM 
Purchase Order Master Value For Quotation# Data Initiated at 04/29/2020 11:07:15 PM 
Purchase Order Master Value For Quotation# Data Completed at 04/29/2020 11:07:15 PM 
Purchase Order Control Value For Department Data Initiated at 04/29/2020 11:07:15 PM 
Purchase Order Control Value For Department Data Completed at 04/29/2020 11:07:15 PM 
Purchase Order Master Value For Subsidary Data Initiated at 04/29/2020 11:07:15 PM 
Purchase Order Master Value For Subsidary Data Completed at 04/29/2020 11:07:15 PM 
Purchase Order Control Value For Class Data Initiated at 04/29/2020 11:07:15 PM 
Purchase Order Control Value For Class Data Completed at 04/29/2020 11:07:15 PM 
Purchase Order Control Value For Exclusive Data Initiated at 04/29/2020 11:07:15 PM 
Purchase Order Control Value For Exclusive Data Completed at 04/29/2020 11:07:15 PM 
Purchase Order Master Value For Tax_Type Data Initiated at 04/29/2020 11:07:15 PM 
Purchase Order Master Value For Tax_Type Data Completed at 04/29/2020 11:07:15 PM 
Purchase Order Master Value For Country Data Initiated at 04/29/2020 11:07:15 PM 
Purchase Order Master Value For Country Data Completed at 04/29/2020 11:07:15 PM 
Purchase Order Master Value For State Data Initiated at 04/29/2020 11:07:15 PM 
Purchase Order Master Value For State Data Completed at 04/29/2020 11:07:15 PM 
Purchase Order Feilds are Created at 04/29/2020 11:07:15 PM 
Purchase Order Feilds Creation Completed For PUTABLE001 at 04/29/2020 11:07:15 PM 
Purchase Order Feilds are Created at 04/29/2020 11:07:15 PM 
Purchase Order Feilds Creation Completed For PUTABLE002 at 04/29/2020 11:07:15 PM 
Purchase Order Feilds are Created at 04/29/2020 11:07:15 PM 
Purchase Order Feilds Creation Completed For PUTABLE009 at 04/29/2020 11:07:15 PM 
Purchase Order Total Fields Creation Completed at 04/29/2020 11:07:15 PM 
Purchase Order Process Completed at 04/29/2020 11:07:15 PM 
 04/29/2020 11:07:15 PM
