
 1/28/2020 11:31:02 AM 1/28/2020 11:31:11 AM
 1/28/2020 11:42:09 AM
 1/28/2020 11:42:18 AM
 1/28/2020 11:42:23 AM
 1/28/2020 11:42:31 AM
 1/28/2020 12:03:01 PM
 1/28/2020 12:03:17 PM
 1/28/2020 12:03:24 PM
 1/28/2020 12:03:45 PM
 1/28/2020 12:03:53 PM
 1/28/2020 12:04:10 PM
 1/28/2020 12:04:17 PM
 1/28/2020 12:04:44 PM
 1/28/2020 12:04:59 PM
 1/28/2020 12:05:24 PM
 1/28/2020 12:05:34 PM
 1/28/2020 12:05:50 PM
 1/28/2020 12:05:55 PM
 1/28/2020 12:06:07 PM
 1/28/2020 12:06:20 PM
 1/28/2020 12:06:28 PM
 1/28/2020 12:06:42 PM
