
 the  values 17905`1284`4331`1000`21392`JOI00020`08/17/20``vivek nagar,
478,
kdp,
Goa,
516390,
India.```57536```56578`8/17/2020 2:19:12 PM`8/17/2020 2:19:12 PM`1`0`1035 of form Issue(Out) and Table SATABLE007 has succeeded at  8/17/2020 2:19:13 PMIssue(Out) Creation failed for Execution Timeout Expired.  The timeout period elapsed prior to completion of the operation or the server is not responding. at  8/17/2020 2:19:43 PM
 the  values 17906`1284`9885`1000`21394`JOI00021`08/17/20``add,
add1,
city-123,
Andhra Pradesh,
India.```57536```56578`8/17/2020 3:16:26 PM`8/17/2020 3:16:26 PM`1`0`1035 of form Issue(Out) and Table SATABLE007 has succeeded at  8/17/2020 3:16:27 PM
 the  values  of form Issue(Out) and Table SATABLE008 succeeded at  8/17/2020 3:16:34 PM
