
 the  values 13042`1286`4331`1000`21387`1``JOR00010`05/28/20``JOI00016`vivek nagar,
478,
kdp,
Goa,
516390,
India.``57536```56578`5/28/2020 2:59:35 PM`5/28/2020 2:59:35 PM`1`0`1035 of form Receipt(Out) and Table PUTABLE003 has succeeded at  5/28/2020 2:59:36 PM the  values  of form Receipt(Out) and Table PUTABLE004 succeeded at  5/28/2020 2:59:37 PM
 the  values  of form Receipt(Out) and Table PUTABLE004 succeeded at  5/28/2020 2:59:37 PM
 the  values 13042`1286`4331`1000`21387``JOR00010`05/28/20``JOI00016`vivek nagar,
478,
kdp,
Goa,
516390,
India.```57536``1`56578`5/28/2020 2:59:48 PM`5/28/2020 2:59:48 PM`1`0`1035`1035 of form Receipt(Out) and Table PUTABLE003 edit succeeded at  5/28/2020 2:59:48 PM
 the  values  of form Receipt(Out) and Table PUTABLE004 edit succeeded at  5/28/2020 2:59:49 PM
 the  values  of form Receipt(Out) and Table PUTABLE004 edit succeeded at  5/28/2020 2:59:49 PM
 the  values 13043`1286`4331`1000`21387`1``JOR00011`05/28/20``JOI00016`vivek nagar,
478,
kdp,
Goa,
516390,
India.``57536```56578`5/28/2020 4:09:01 PM`5/28/2020 4:09:01 PM`1`0`1035 of form Receipt(Out) and Table PUTABLE003 has succeeded at  5/28/2020 4:09:02 PM
 the  values  of form Receipt(Out) and Table PUTABLE004 succeeded at  5/28/2020 4:09:02 PM
 the  values  of form Receipt(Out) and Table PUTABLE004 succeeded at  5/28/2020 4:09:03 PM
 the  values 13043`1286`4331`1000`21387``JOR00011`05/28/20``JOI00016`vivek nagar,
478,
kdp,
Goa,
516390,
India.```57536``1`56578`5/28/2020 4:09:11 PM`5/28/2020 4:09:11 PM`1`0`1035`1035 of form Receipt(Out) and Table PUTABLE003 edit succeeded at  5/28/2020 4:09:11 PM
 the  values  of form Receipt(Out) and Table PUTABLE004 edit succeeded at  5/28/2020 4:09:11 PM
 the  values  of form Receipt(Out) and Table PUTABLE004 edit succeeded at  5/28/2020 4:09:11 PM
 the  values 13044`1286`4331`1000`21387`1``JOR00012`05/28/20```vivek nagar,
478,
kdp,
Goa,
516390,
India.``57536```56578`5/28/2020 4:15:15 PM`5/28/2020 4:15:15 PM`1`0`1035 of form Receipt(Out) and Table PUTABLE003 has succeeded at  5/28/2020 4:15:15 PM
 the  values  of form Receipt(Out) and Table PUTABLE004 succeeded at  5/28/2020 4:15:16 PM
 the  values  of form Receipt(Out) and Table PUTABLE004 succeeded at  5/28/2020 4:15:16 PM
 the  values 13044`1286`4331`1000`21387``JOR00012`05/28/20```vivek nagar,
478,
kdp,
Goa,
516390,
India.```57536``1`56578`5/28/2020 4:15:27 PM`5/28/2020 4:15:27 PM`1`0`1035`1035 of form Receipt(Out) and Table PUTABLE003 edit succeeded at  5/28/2020 4:15:28 PM
 the  values  of form Receipt(Out) and Table PUTABLE004 edit succeeded at  5/28/2020 4:15:28 PM
 the  values  of form Receipt(Out) and Table PUTABLE004 edit succeeded at  5/28/2020 4:15:28 PM
