
 11/3/2017 7:47:25 PM 11/3/2017 7:47:29 PM
 11/3/2017 7:47:54 PM
 11/3/2017 7:49:00 PM
 11/3/2017 7:49:26 PM
 11/3/2017 7:49:39 PM
 11/3/2017 7:49:57 PM
 11/3/2017 7:50:01 PM
 11/3/2017 7:50:08 PM
 11/3/2017 7:50:12 PM
 11/3/2017 7:50:30 PM
 11/3/2017 7:51:04 PM
 11/3/2017 7:51:15 PM
 11/3/2017 7:51:39 PM
 11/3/2017 7:51:43 PM
 11/3/2017 7:51:54 PM
 11/3/2017 7:52:09 PM
 11/3/2017 7:52:11 PM
 11/3/2017 7:52:33 PM
 11/3/2017 7:52:51 PM
 11/3/2017 7:57:03 PM
 11/3/2017 7:57:06 PM
