
 
***********************TARGET1*********************** 
 
 Line Data Received . 4/26/2018 4:11:42 PM 
***********************TARGET4*********************** 
 
 Header Data Updated for Invoice . 
 
 4/26/2018 4:11:45 PM
 
***********************TARGET7*********************** 
 
 Line Data 0 Updated For Invoice . 
 
 4/26/2018 4:11:45 PM
 
***********************TARGET7*********************** 
 
 Line Data 1 Updated For Invoice . 
 
 4/26/2018 4:11:45 PM
