
could not connect to redis Instance at 137.59.201.64:6379 4/26/2018 10:18:22 AMcould not connect to redis Instance at 137.59.201.64:6379 4/26/2018 11:32:00 AM
could not connect to redis Instance at 137.59.201.64:6379 4/26/2018 11:32:49 AM
could not connect to redis Instance at 137.59.201.64:6379 4/26/2018 12:05:24 PM
could not connect to redis Instance at 137.59.201.64:6379 4/26/2018 12:28:04 PM
could not connect to redis Instance at 137.59.201.64:6379 4/26/2018 1:33:09 PM
could not connect to redis Instance at 137.59.201.64:6379 4/26/2018 2:30:21 PM
could not connect to redis Instance at 137.59.201.64:6379 4/26/2018 2:42:36 PM
could not connect to redis Instance at 137.59.201.64:6379 4/26/2018 3:36:23 PM
could not connect to redis Instance at 137.59.201.64:6379 4/26/2018 3:37:41 PM
could not connect to redis Instance at 137.59.201.64:6379 4/26/2018 5:31:56 PM
could not connect to redis Instance at 137.59.201.64:6379 4/26/2018 5:39:16 PM
could not connect to redis Instance at 137.59.201.64:6379 4/26/2018 5:42:24 PM
could not connect to redis Instance at 137.59.201.64:6379 4/26/2018 6:13:29 PM
