
Debit Memo Process Initiated at 9/19/2018 11:31:42 AM 
Debit Memo Tabs are Created at 9/19/2018 11:31:42 AM 
Debit Memo Master Value For Item Data Initiated at 9/19/2018 11:31:42 AM 
Debit Memo Master Value For Item Data Completed at 9/19/2018 11:31:42 AM 
Debit Memo Control Value For Units Data Initiated at 9/19/2018 11:31:42 AM 
Debit Memo Control Value For Units Data Completed at 9/19/2018 11:31:42 AM 
Debit Memo Master Value For Lot Data Initiated at 9/19/2018 11:31:42 AM 
Debit Memo Master Value For Lot Data Completed at 9/19/2018 11:31:42 AM 
Debit Memo Master Value For Location Data Initiated at 9/19/2018 11:31:42 AM 
Debit Memo Master Value For Location Data Completed at 9/19/2018 11:31:42 AM 
Debit Memo Master Value For Tax Data Initiated at 9/19/2018 11:31:42 AM 
Debit Memo Master Value For Tax Data Completed at 9/19/2018 11:31:42 AM 
Debit Memo Master Value For Issue# Data Initiated at 9/19/2018 11:31:42 AM 
Debit Memo Master Value For Issue# Data Completed at 9/19/2018 11:31:42 AM 
Debit Memo Master Value For Refered_Form Data Initiated at 9/19/2018 11:31:42 AM 
Debit Memo Master Value For Refered_Form Data Completed at 9/19/2018 11:31:42 AM 
Debit Memo Control Value For Payee_Type Data Initiated at 9/19/2018 11:31:42 AM 
Debit Memo Control Value For Payee_Type Data Completed at 9/19/2018 11:31:42 AM 
Debit Memo Master Value For Vendor Data Initiated at 9/19/2018 11:31:42 AM 
Debit Memo Master Value For Vendor Data Completed at 9/19/2018 11:31:42 AM 
Debit Memo Master Value For Payment_Terms Data Initiated at 9/19/2018 11:31:42 AM 
Debit Memo Master Value For Payment_Terms Data Completed at 9/19/2018 11:31:42 AM 
Debit Memo Control Value For GST_Category Data Initiated at 9/19/2018 11:31:42 AM 
Debit Memo Control Value For GST_Category Data Completed at 9/19/2018 11:31:42 AM 
Debit Memo Master Value For Place_Of_Supply Data Initiated at 9/19/2018 11:31:42 AM 
Debit Memo Master Value For Place_Of_Supply Data Completed at 9/19/2018 11:31:42 AM 
Debit Memo Master Value For Project# Data Initiated at 9/19/2018 11:31:42 AM 
Debit Memo Master Value For Project# Data Completed at 9/19/2018 11:31:42 AM 
Debit Memo Master Value For Order_Type Data Initiated at 9/19/2018 11:31:42 AM 
Debit Memo Master Value For Order_Type Data Completed at 9/19/2018 11:31:42 AM 
Debit Memo Control Value For Payment_Mode Data Initiated at 9/19/2018 11:31:42 AM 
Debit Memo Control Value For Payment_Mode Data Completed at 9/19/2018 11:31:42 AM 
Debit Memo Control Value For Exclusive Data Initiated at 9/19/2018 11:31:42 AM 
Debit Memo Control Value For Exclusive Data Completed at 9/19/2018 11:31:42 AM 
Debit Memo Master Value For Tax_Type Data Initiated at 9/19/2018 11:31:42 AM 
Debit Memo Master Value For Tax_Type Data Completed at 9/19/2018 11:31:42 AM 
Debit Memo Master Value For Operating_Unit Data Initiated at 9/19/2018 11:31:42 AM 
Debit Memo Master Value For Operating_Unit Data Completed at 9/19/2018 11:31:42 AM 
Debit Memo Master Value For Location_ Data Initiated at 9/19/2018 11:31:42 AM 
Debit Memo Master Value For Location_ Data Completed at 9/19/2018 11:31:42 AM 
Debit Memo Master Value For Subsidary Data Initiated at 9/19/2018 11:31:42 AM 
Debit Memo Master Value For Subsidary Data Completed at 9/19/2018 11:31:42 AM 
Debit Memo Control Value For Class Data Initiated at 9/19/2018 11:31:42 AM 
Debit Memo Control Value For Class Data Completed at 9/19/2018 11:31:42 AM 
Debit Memo Control Value For Department Data Initiated at 9/19/2018 11:31:42 AM 
Debit Memo Control Value For Department Data Completed at 9/19/2018 11:31:42 AM 
Debit Memo Master Value For Bill# Data Initiated at 9/19/2018 11:31:42 AM 
Debit Memo Master Value For Bill# Data Completed at 9/19/2018 11:31:42 AM 
Debit Memo Master Value For Country Data Initiated at 9/19/2018 11:31:42 AM 
Debit Memo Master Value For Country Data Completed at 9/19/2018 11:31:42 AM 
Debit Memo Master Value For State Data Initiated at 9/19/2018 11:31:42 AM 
Debit Memo Master Value For State Data Completed at 9/19/2018 11:31:42 AM 
Debit Memo Feilds are Created at 9/19/2018 11:31:42 AM 
Debit Memo Feilds Creation Completed For PUTABLE001 at 9/19/2018 11:31:42 AM 
Debit Memo Feilds are Created at 9/19/2018 11:31:42 AM 
Debit Memo Feilds Creation Completed For PUTABLE002 at 9/19/2018 11:31:42 AM 
Debit Memo Feilds are Created at 9/19/2018 11:31:42 AM 
Debit Memo Feilds Creation Completed For PUTABLE009 at 9/19/2018 11:31:42 AM 
Debit Memo Total Fields Creation Completed at 9/19/2018 11:31:42 AM 
Debit Memo Process Completed at 9/19/2018 11:31:43 AM 
 9/19/2018 11:31:43 AM 
***********************TARGET1*********************** 
 
 Line Data Received . 9/19/2018 11:31:49 AM
 
***********************TARGET4*********************** 
 
 Header Data Created for Debit Memo . 
 
 9/19/2018 11:31:50 AM
 
***********************TARGET7*********************** 
 
 Line Data 0 Created For Debit Memo . 
 
 9/19/2018 11:31:51 AM
 
***********************TARGET7*********************** 
 
 Line Data 1 Created For Debit Memo . 
 
 9/19/2018 11:31:51 AM
 
***********************TARGET7*********************** 
 
 Line Data 2 Created For Debit Memo . 
 
 9/19/2018 11:31:51 AM
 
***********************TARGET7*********************** 
 
 Line Data 3 Created For Debit Memo . 
 
 9/19/2018 11:31:51 AM
 
***********************TARGET4*********************** 
 
 Header Data Created for Debit Memo . 
 
 9/19/2018 11:31:51 AM
Debit Memo Process Initiated at 9/19/2018 11:38:21 AM 
Debit Memo Tabs are Created at 9/19/2018 11:38:21 AM 
Debit Memo Master Value For Item Data Initiated at 9/19/2018 11:38:21 AM 
Debit Memo Master Value For Item Data Completed at 9/19/2018 11:38:21 AM 
Debit Memo Control Value For Units Data Initiated at 9/19/2018 11:38:21 AM 
Debit Memo Control Value For Units Data Completed at 9/19/2018 11:38:21 AM 
Debit Memo Master Value For Lot Data Initiated at 9/19/2018 11:38:21 AM 
Debit Memo Master Value For Lot Data Completed at 9/19/2018 11:38:21 AM 
Debit Memo Master Value For Location Data Initiated at 9/19/2018 11:38:21 AM 
Debit Memo Master Value For Location Data Completed at 9/19/2018 11:38:21 AM 
Debit Memo Master Value For Tax Data Initiated at 9/19/2018 11:38:21 AM 
Debit Memo Master Value For Tax Data Completed at 9/19/2018 11:38:21 AM 
Debit Memo Master Value For Issue# Data Initiated at 9/19/2018 11:38:21 AM 
Debit Memo Master Value For Issue# Data Completed at 9/19/2018 11:38:21 AM 
Debit Memo Master Value For Refered_Form Data Initiated at 9/19/2018 11:38:21 AM 
Debit Memo Master Value For Refered_Form Data Completed at 9/19/2018 11:38:21 AM 
Debit Memo Control Value For Payee_Type Data Initiated at 9/19/2018 11:38:21 AM 
Debit Memo Control Value For Payee_Type Data Completed at 9/19/2018 11:38:21 AM 
Debit Memo Master Value For Vendor Data Initiated at 9/19/2018 11:38:21 AM 
Debit Memo Master Value For Vendor Data Completed at 9/19/2018 11:38:21 AM 
Debit Memo Master Value For Payment_Terms Data Initiated at 9/19/2018 11:38:21 AM 
Debit Memo Master Value For Payment_Terms Data Completed at 9/19/2018 11:38:21 AM 
Debit Memo Control Value For GST_Category Data Initiated at 9/19/2018 11:38:21 AM 
Debit Memo Control Value For GST_Category Data Completed at 9/19/2018 11:38:21 AM 
Debit Memo Master Value For Place_Of_Supply Data Initiated at 9/19/2018 11:38:21 AM 
Debit Memo Master Value For Place_Of_Supply Data Completed at 9/19/2018 11:38:21 AM 
Debit Memo Master Value For Project# Data Initiated at 9/19/2018 11:38:21 AM 
Debit Memo Master Value For Project# Data Completed at 9/19/2018 11:38:21 AM 
Debit Memo Master Value For Order_Type Data Initiated at 9/19/2018 11:38:21 AM 
Debit Memo Master Value For Order_Type Data Completed at 9/19/2018 11:38:21 AM 
Debit Memo Control Value For Payment_Mode Data Initiated at 9/19/2018 11:38:21 AM 
Debit Memo Control Value For Payment_Mode Data Completed at 9/19/2018 11:38:21 AM 
Debit Memo Control Value For Exclusive Data Initiated at 9/19/2018 11:38:21 AM 
Debit Memo Control Value For Exclusive Data Completed at 9/19/2018 11:38:21 AM 
Debit Memo Master Value For Tax_Type Data Initiated at 9/19/2018 11:38:21 AM 
Debit Memo Master Value For Tax_Type Data Completed at 9/19/2018 11:38:21 AM 
Debit Memo Master Value For Operating_Unit Data Initiated at 9/19/2018 11:38:21 AM 
Debit Memo Master Value For Operating_Unit Data Completed at 9/19/2018 11:38:21 AM 
Debit Memo Master Value For Location_ Data Initiated at 9/19/2018 11:38:21 AM 
Debit Memo Master Value For Location_ Data Completed at 9/19/2018 11:38:21 AM 
Debit Memo Master Value For Subsidary Data Initiated at 9/19/2018 11:38:21 AM 
Debit Memo Master Value For Subsidary Data Completed at 9/19/2018 11:38:21 AM 
Debit Memo Control Value For Class Data Initiated at 9/19/2018 11:38:21 AM 
Debit Memo Control Value For Class Data Completed at 9/19/2018 11:38:21 AM 
Debit Memo Control Value For Department Data Initiated at 9/19/2018 11:38:21 AM 
Debit Memo Control Value For Department Data Completed at 9/19/2018 11:38:21 AM 
Debit Memo Master Value For Bill# Data Initiated at 9/19/2018 11:38:21 AM 
Debit Memo Master Value For Bill# Data Completed at 9/19/2018 11:38:21 AM 
Debit Memo Master Value For Country Data Initiated at 9/19/2018 11:38:21 AM 
Debit Memo Master Value For Country Data Completed at 9/19/2018 11:38:21 AM 
Debit Memo Master Value For State Data Initiated at 9/19/2018 11:38:21 AM 
Debit Memo Master Value For State Data Completed at 9/19/2018 11:38:21 AM 
Debit Memo Feilds are Created at 9/19/2018 11:38:21 AM 
Debit Memo Feilds Creation Completed For PUTABLE001 at 9/19/2018 11:38:21 AM 
Debit Memo Feilds are Created at 9/19/2018 11:38:21 AM 
Debit Memo Feilds Creation Completed For PUTABLE002 at 9/19/2018 11:38:21 AM 
Debit Memo Feilds are Created at 9/19/2018 11:38:21 AM 
Debit Memo Feilds Creation Completed For PUTABLE009 at 9/19/2018 11:38:21 AM 
Debit Memo Total Fields Creation Completed at 9/19/2018 11:38:21 AM 
Debit Memo Process Completed at 9/19/2018 11:38:22 AM 
 9/19/2018 11:38:22 AM
 
***********************TARGET1*********************** 
 
 Line Data Received . 9/19/2018 11:38:32 AM
 
***********************TARGET4*********************** 
 
 Header Data Created for Debit Memo . 
 
 9/19/2018 11:38:33 AM
 
***********************TARGET7*********************** 
 
 Line Data 0 Created For Debit Memo . 
 
 9/19/2018 11:38:33 AM
 
***********************TARGET7*********************** 
 
 Line Data 1 Created For Debit Memo . 
 
 9/19/2018 11:38:33 AM
 
***********************TARGET7*********************** 
 
 Line Data 2 Created For Debit Memo . 
 
 9/19/2018 11:38:33 AM
 
***********************TARGET7*********************** 
 
 Line Data 3 Created For Debit Memo . 
 
 9/19/2018 11:38:33 AM
 
***********************TARGET7*********************** 
 
 Line Data 4 Created For Debit Memo . 
 
 9/19/2018 11:38:33 AM
 
***********************TARGET7*********************** 
 
 Line Data 5 Created For Debit Memo . 
 
 9/19/2018 11:38:33 AM
 
***********************TARGET4*********************** 
 
 Header Data Created for Debit Memo . 
 
 9/19/2018 11:38:33 AM
