
Inventory Adjustments Process Initiated at 12/12/2018 11:12:19 AM 
Inventory Adjustments Tabs are Created at 12/12/2018 11:12:19 AM 
Inventory Adjustments Master Value For Items Data Initiated at 12/12/2018 11:12:19 AM 
Inventory Adjustments Master Value For Items Data Completed at 12/12/2018 11:12:19 AM 
Inventory Adjustments Control Value For Units Data Initiated at 12/12/2018 11:12:19 AM 
Inventory Adjustments Control Value For Units Data Completed at 12/12/2018 11:12:19 AM 
Inventory Adjustments Master Value For Lot# Data Initiated at 12/12/2018 11:12:19 AM 
Inventory Adjustments Master Value For Lot# Data Completed at 12/12/2018 11:12:19 AM 
Inventory Adjustments Master Value For Adjustment_Account Data Initiated at 12/12/2018 11:12:19 AM 
Inventory Adjustments Master Value For Adjustment_Account Data Completed at 12/12/2018 11:12:19 AM 
Inventory Adjustments Control Value For Reason_Code Data Initiated at 12/12/2018 11:12:19 AM 
Inventory Adjustments Control Value For Reason_Code Data Completed at 12/12/2018 11:12:19 AM 
Inventory Adjustments Control Value For Department Data Initiated at 12/12/2018 11:12:19 AM 
Inventory Adjustments Control Value For Department Data Completed at 12/12/2018 11:12:19 AM 
Inventory Adjustments Master Value For Operating_Unit Data Initiated at 12/12/2018 11:12:19 AM 
Inventory Adjustments Master Value For Operating_Unit Data Completed at 12/12/2018 11:12:19 AM 
Inventory Adjustments Master Value For Location Data Initiated at 12/12/2018 11:12:19 AM 
Inventory Adjustments Master Value For Location Data Completed at 12/12/2018 11:12:19 AM 
Inventory Adjustments Master Value For Project# Data Initiated at 12/12/2018 11:12:19 AM 
Inventory Adjustments Master Value For Project# Data Completed at 12/12/2018 11:12:19 AM 
Inventory Adjustments Master Value For Subsidary Data Initiated at 12/12/2018 11:12:19 AM 
Inventory Adjustments Master Value For Subsidary Data Completed at 12/12/2018 11:12:19 AM 
Inventory Adjustments Control Value For Class Data Initiated at 12/12/2018 11:12:19 AM 
Inventory Adjustments Control Value For Class Data Completed at 12/12/2018 11:12:19 AM 
Inventory Adjustments Feilds are Created at 12/12/2018 11:12:19 AM 
Inventory Adjustments Feilds Creation Completed For FITABLE014 at 12/12/2018 11:12:19 AM 
Inventory Adjustments Feilds are Created at 12/12/2018 11:12:19 AM 
Inventory Adjustments Feilds Creation Completed For FITABLE015 at 12/12/2018 11:12:19 AM 
Inventory Adjustments Total Fields Creation Completed at 12/12/2018 11:12:19 AM 
Inventory Adjustments Process Completed at 12/12/2018 11:12:19 AM 
 12/12/2018 11:12:19 AM 
***********************TARGET1*********************** 
 
 Line Data Received . 12/12/2018 11:13:12 AM
 
***********************TARGET4*********************** 
 
 Header Data Created for Inventory Adjustments . 
 
 12/12/2018 11:13:15 AM
 
***********************TARGET7*********************** 
 
 Line Data 0 Created For Inventory Adjustments . 
 
 12/12/2018 11:13:18 AM
 
***********************TARGET1*********************** 
 
 Line Data Received . 12/12/2018 11:15:12 AM
 
***********************TARGET4*********************** 
 
 Header Data Updated for Inventory Adjustments . 
 
 12/12/2018 11:15:33 AM
 
***********************TARGET7*********************** 
 
 Line Data 0 Updated For Inventory Adjustments . 
 
 12/12/2018 11:15:34 AM
