
 
***********************TARGET4*********************** 
 
 Header Data Updated for Item . 
 
 12/12/2018 11:07:30 AM 
***********************TARGET4*********************** 
 
 Header Data Updated for Item . 
 
 12/12/2018 11:10:09 AM
