
Lot Management Process Initiated at 12/12/2018 11:10:56 AM 
Lot Management Tabs are Created at 12/12/2018 11:10:56 AM 
Lot Management Master Value For Location Data Initiated at 12/12/2018 11:10:56 AM 
Lot Management Master Value For Location Data Completed at 12/12/2018 11:10:56 AM 
Lot Management Master Value For Item Data Initiated at 12/12/2018 11:10:56 AM 
Lot Management Master Value For Item Data Completed at 12/12/2018 11:10:56 AM 
Lot Management Control Value For Units Data Initiated at 12/12/2018 11:10:56 AM 
Lot Management Control Value For Units Data Completed at 12/12/2018 11:10:56 AM 
Lot Management Master Value For Operating_Unit Data Initiated at 12/12/2018 11:10:56 AM 
Lot Management Master Value For Operating_Unit Data Completed at 12/12/2018 11:10:56 AM 
Lot Management Feilds are Created at 12/12/2018 11:10:56 AM 
Lot Management Feilds Creation Completed For FITABLE043 at 12/12/2018 11:10:56 AM 
Lot Management Total Fields Creation Completed at 12/12/2018 11:10:56 AM 
Lot Management Process Completed at 12/12/2018 11:10:56 AM 
 12/12/2018 11:10:56 AM 
***********************TARGET4*********************** 
 
 Header Data Created for Lot Management . 
 
 12/12/2018 11:11:30 AM
