
Item Receipt Process Initiated at 11/1/2018 2:40:30 PM 
Item Receipt Tabs are Created at 11/1/2018 2:40:30 PM 
Item Receipt Master Value For Item Data Initiated at 11/1/2018 2:40:30 PM 
Item Receipt Master Value For Item Data Completed at 11/1/2018 2:40:30 PM 
Item Receipt Control Value For Units Data Initiated at 11/1/2018 2:40:30 PM 
Item Receipt Control Value For Units Data Completed at 11/1/2018 2:40:30 PM 
Item Receipt Master Value For Lot# Data Initiated at 11/1/2018 2:40:30 PM 
Item Receipt Master Value For Lot# Data Completed at 11/1/2018 2:40:30 PM 
Item Receipt Master Value For Location Data Initiated at 11/1/2018 2:40:30 PM 
Item Receipt Master Value For Location Data Completed at 11/1/2018 2:40:30 PM 
Item Receipt Master Value For OperatingUnit Data Initiated at 11/1/2018 2:40:30 PM 
Item Receipt Master Value For OperatingUnit Data Completed at 11/1/2018 2:40:30 PM 
Item Receipt Master Value For Subsidary Data Initiated at 11/1/2018 2:40:30 PM 
Item Receipt Master Value For Subsidary Data Completed at 11/1/2018 2:40:30 PM 
Item Receipt Control Value For Classification Data Initiated at 11/1/2018 2:40:30 PM 
Item Receipt Control Value For Classification Data Completed at 11/1/2018 2:40:30 PM 
Item Receipt Control Value For Department Data Initiated at 11/1/2018 2:40:30 PM 
Item Receipt Control Value For Department Data Completed at 11/1/2018 2:40:30 PM 
Item Receipt Master Value For Refered_Form Data Initiated at 11/1/2018 2:40:30 PM 
Item Receipt Master Value For Refered_Form Data Completed at 11/1/2018 2:40:30 PM 
Item Receipt Master Value For Vendor Data Initiated at 11/1/2018 2:40:30 PM 
Item Receipt Master Value For Vendor Data Completed at 11/1/2018 2:40:30 PM 
Item Receipt Master Value For Receipt_Type Data Initiated at 11/1/2018 2:40:30 PM 
Item Receipt Master Value For Receipt_Type Data Completed at 11/1/2018 2:40:30 PM 
Item Receipt Master Value For Purchase_Order# Data Initiated at 11/1/2018 2:40:30 PM 
Item Receipt Master Value For Purchase_Order# Data Completed at 11/1/2018 2:40:30 PM 
Item Receipt Control Value For GST_Category Data Initiated at 11/1/2018 2:40:30 PM 
Item Receipt Control Value For GST_Category Data Completed at 11/1/2018 2:40:30 PM 
Item Receipt Master Value For Place_Of_Supply Data Initiated at 11/1/2018 2:40:30 PM 
Item Receipt Master Value For Place_Of_Supply Data Completed at 11/1/2018 2:40:30 PM 
Item Receipt Control Value For Payment_Terms Data Initiated at 11/1/2018 2:40:30 PM 
Item Receipt Control Value For Payment_Terms Data Completed at 11/1/2018 2:40:30 PM 
Item Receipt Control Value For Payment_Mode Data Initiated at 11/1/2018 2:40:30 PM 
Item Receipt Control Value For Payment_Mode Data Completed at 11/1/2018 2:40:30 PM 
Item Receipt Master Value For Project# Data Initiated at 11/1/2018 2:40:30 PM 
Item Receipt Master Value For Project# Data Completed at 11/1/2018 2:40:30 PM 
Item Receipt Master Value For Operating_Unit Data Initiated at 11/1/2018 2:40:30 PM 
Item Receipt Master Value For Operating_Unit Data Completed at 11/1/2018 2:40:30 PM 
Item Receipt Master Value For Subsidary Data Initiated at 11/1/2018 2:40:30 PM 
Item Receipt Master Value For Subsidary Data Completed at 11/1/2018 2:40:30 PM 
Item Receipt Control Value For Class Data Initiated at 11/1/2018 2:40:30 PM 
Item Receipt Control Value For Class Data Completed at 11/1/2018 2:40:30 PM 
Item Receipt Control Value For Department Data Initiated at 11/1/2018 2:40:30 PM 
Item Receipt Control Value For Department Data Completed at 11/1/2018 2:40:30 PM 
Item Receipt Master Value For Location_ Data Initiated at 11/1/2018 2:40:30 PM 
Item Receipt Master Value For Location_ Data Completed at 11/1/2018 2:40:30 PM 
Item Receipt Feilds are Created at 11/1/2018 2:40:30 PM 
Item Receipt Feilds Creation Completed For PUTABLE003 at 11/1/2018 2:40:30 PM 
Item Receipt Feilds are Created at 11/1/2018 2:40:30 PM 
Item Receipt Feilds Creation Completed For PUTABLE004 at 11/1/2018 2:40:30 PM 
Item Receipt Total Fields Creation Completed at 11/1/2018 2:40:30 PM 
Item Receipt Process Completed at 11/1/2018 2:40:30 PM 
 11/1/2018 2:40:30 PM 
***********************TARGET1*********************** 
 
 Line Data Received . 11/1/2018 2:40:47 PM
 
***********************TARGET4*********************** 
 
 Header Data Created for Item Receipt . 
 
 11/1/2018 2:40:52 PM
 
***********************TARGET7*********************** 
 
 Line Data 0 Created For Item Receipt . 
 
 11/1/2018 2:40:55 PM
 
***********************TARGET1*********************** 
 
 Line Data Received . 11/1/2018 2:42:24 PM
 
***********************TARGET4*********************** 
 
 Header Data Updated for Item Receipt . 
 
 11/1/2018 2:42:24 PM
 
***********************TARGET7*********************** 
 
 Line Data 0 Updated For Item Receipt . 
 
 11/1/2018 2:42:25 PM
Item Receipt Process Initiated at 11/1/2018 2:43:48 PM 
Item Receipt Tabs are Created at 11/1/2018 2:43:48 PM 
Item Receipt Master Value For Item Data Initiated at 11/1/2018 2:43:48 PM 
Item Receipt Master Value For Item Data Completed at 11/1/2018 2:43:48 PM 
Item Receipt Control Value For Units Data Initiated at 11/1/2018 2:43:48 PM 
Item Receipt Control Value For Units Data Completed at 11/1/2018 2:43:48 PM 
Item Receipt Master Value For Lot# Data Initiated at 11/1/2018 2:43:48 PM 
Item Receipt Master Value For Lot# Data Completed at 11/1/2018 2:43:48 PM 
Item Receipt Master Value For Location Data Initiated at 11/1/2018 2:43:48 PM 
Item Receipt Master Value For Location Data Completed at 11/1/2018 2:43:48 PM 
Item Receipt Master Value For OperatingUnit Data Initiated at 11/1/2018 2:43:48 PM 
Item Receipt Master Value For OperatingUnit Data Completed at 11/1/2018 2:43:48 PM 
Item Receipt Master Value For Subsidary Data Initiated at 11/1/2018 2:43:48 PM 
Item Receipt Master Value For Subsidary Data Completed at 11/1/2018 2:43:48 PM 
Item Receipt Control Value For Classification Data Initiated at 11/1/2018 2:43:48 PM 
Item Receipt Control Value For Classification Data Completed at 11/1/2018 2:43:48 PM 
Item Receipt Control Value For Department Data Initiated at 11/1/2018 2:43:48 PM 
Item Receipt Control Value For Department Data Completed at 11/1/2018 2:43:48 PM 
Item Receipt Master Value For Refered_Form Data Initiated at 11/1/2018 2:43:48 PM 
Item Receipt Master Value For Refered_Form Data Completed at 11/1/2018 2:43:48 PM 
Item Receipt Master Value For Vendor Data Initiated at 11/1/2018 2:43:48 PM 
Item Receipt Master Value For Vendor Data Completed at 11/1/2018 2:43:48 PM 
Item Receipt Master Value For Receipt_Type Data Initiated at 11/1/2018 2:43:48 PM 
Item Receipt Master Value For Receipt_Type Data Completed at 11/1/2018 2:43:48 PM 
Item Receipt Master Value For Purchase_Order# Data Initiated at 11/1/2018 2:43:48 PM 
Item Receipt Master Value For Purchase_Order# Data Completed at 11/1/2018 2:43:48 PM 
Item Receipt Control Value For GST_Category Data Initiated at 11/1/2018 2:43:48 PM 
Item Receipt Control Value For GST_Category Data Completed at 11/1/2018 2:43:48 PM 
Item Receipt Master Value For Place_Of_Supply Data Initiated at 11/1/2018 2:43:48 PM 
Item Receipt Master Value For Place_Of_Supply Data Completed at 11/1/2018 2:43:48 PM 
Item Receipt Control Value For Payment_Terms Data Initiated at 11/1/2018 2:43:48 PM 
Item Receipt Control Value For Payment_Terms Data Completed at 11/1/2018 2:43:48 PM 
Item Receipt Control Value For Payment_Mode Data Initiated at 11/1/2018 2:43:48 PM 
Item Receipt Control Value For Payment_Mode Data Completed at 11/1/2018 2:43:48 PM 
Item Receipt Master Value For Project# Data Initiated at 11/1/2018 2:43:48 PM 
Item Receipt Master Value For Project# Data Completed at 11/1/2018 2:43:48 PM 
Item Receipt Master Value For Operating_Unit Data Initiated at 11/1/2018 2:43:48 PM 
Item Receipt Master Value For Operating_Unit Data Completed at 11/1/2018 2:43:48 PM 
Item Receipt Master Value For Subsidary Data Initiated at 11/1/2018 2:43:48 PM 
Item Receipt Master Value For Subsidary Data Completed at 11/1/2018 2:43:48 PM 
Item Receipt Control Value For Class Data Initiated at 11/1/2018 2:43:48 PM 
Item Receipt Control Value For Class Data Completed at 11/1/2018 2:43:48 PM 
Item Receipt Control Value For Department Data Initiated at 11/1/2018 2:43:48 PM 
Item Receipt Control Value For Department Data Completed at 11/1/2018 2:43:48 PM 
Item Receipt Master Value For Location_ Data Initiated at 11/1/2018 2:43:48 PM 
Item Receipt Master Value For Location_ Data Completed at 11/1/2018 2:43:48 PM 
Item Receipt Feilds are Created at 11/1/2018 2:43:49 PM 
Item Receipt Feilds Creation Completed For PUTABLE003 at 11/1/2018 2:43:49 PM 
Item Receipt Feilds are Created at 11/1/2018 2:43:49 PM 
Item Receipt Feilds Creation Completed For PUTABLE004 at 11/1/2018 2:43:49 PM 
Item Receipt Total Fields Creation Completed at 11/1/2018 2:43:49 PM 
Item Receipt Process Completed at 11/1/2018 2:43:49 PM 
 11/1/2018 2:43:49 PM
Item Receipt Process Initiated at 11/1/2018 3:35:45 PM 
Item Receipt Tabs are Created at 11/1/2018 3:35:45 PM 
Item Receipt Master Value For Item Data Initiated at 11/1/2018 3:35:45 PM 
Item Receipt Master Value For Item Data Completed at 11/1/2018 3:35:45 PM 
Item Receipt Control Value For Units Data Initiated at 11/1/2018 3:35:45 PM 
Item Receipt Control Value For Units Data Completed at 11/1/2018 3:35:45 PM 
Item Receipt Master Value For Lot# Data Initiated at 11/1/2018 3:35:45 PM 
Item Receipt Master Value For Lot# Data Completed at 11/1/2018 3:35:45 PM 
Item Receipt Master Value For Location Data Initiated at 11/1/2018 3:35:45 PM 
Item Receipt Master Value For Location Data Completed at 11/1/2018 3:35:45 PM 
Item Receipt Master Value For OperatingUnit Data Initiated at 11/1/2018 3:35:45 PM 
Item Receipt Master Value For OperatingUnit Data Completed at 11/1/2018 3:35:45 PM 
Item Receipt Master Value For Subsidary Data Initiated at 11/1/2018 3:35:45 PM 
Item Receipt Master Value For Subsidary Data Completed at 11/1/2018 3:35:45 PM 
Item Receipt Control Value For Classification Data Initiated at 11/1/2018 3:35:45 PM 
Item Receipt Control Value For Classification Data Completed at 11/1/2018 3:35:45 PM 
Item Receipt Control Value For Department Data Initiated at 11/1/2018 3:35:45 PM 
Item Receipt Control Value For Department Data Completed at 11/1/2018 3:35:45 PM 
Item Receipt Master Value For Refered_Form Data Initiated at 11/1/2018 3:35:45 PM 
Item Receipt Master Value For Refered_Form Data Completed at 11/1/2018 3:35:45 PM 
Item Receipt Master Value For Vendor Data Initiated at 11/1/2018 3:35:45 PM 
Item Receipt Master Value For Vendor Data Completed at 11/1/2018 3:35:45 PM 
Item Receipt Master Value For Receipt_Type Data Initiated at 11/1/2018 3:35:45 PM 
Item Receipt Master Value For Receipt_Type Data Completed at 11/1/2018 3:35:45 PM 
Item Receipt Master Value For Purchase_Order# Data Initiated at 11/1/2018 3:35:45 PM 
Item Receipt Master Value For Purchase_Order# Data Completed at 11/1/2018 3:35:45 PM 
Item Receipt Control Value For GST_Category Data Initiated at 11/1/2018 3:35:45 PM 
Item Receipt Control Value For GST_Category Data Completed at 11/1/2018 3:35:45 PM 
Item Receipt Master Value For Place_Of_Supply Data Initiated at 11/1/2018 3:35:45 PM 
Item Receipt Master Value For Place_Of_Supply Data Completed at 11/1/2018 3:35:45 PM 
Item Receipt Control Value For Payment_Terms Data Initiated at 11/1/2018 3:35:45 PM 
Item Receipt Control Value For Payment_Terms Data Completed at 11/1/2018 3:35:45 PM 
Item Receipt Control Value For Payment_Mode Data Initiated at 11/1/2018 3:35:45 PM 
Item Receipt Control Value For Payment_Mode Data Completed at 11/1/2018 3:35:45 PM 
Item Receipt Master Value For Project# Data Initiated at 11/1/2018 3:35:45 PM 
Item Receipt Master Value For Project# Data Completed at 11/1/2018 3:35:45 PM 
Item Receipt Master Value For Operating_Unit Data Initiated at 11/1/2018 3:35:45 PM 
Item Receipt Master Value For Operating_Unit Data Completed at 11/1/2018 3:35:45 PM 
Item Receipt Master Value For Subsidary Data Initiated at 11/1/2018 3:35:45 PM 
Item Receipt Master Value For Subsidary Data Completed at 11/1/2018 3:35:45 PM 
Item Receipt Control Value For Class Data Initiated at 11/1/2018 3:35:45 PM 
Item Receipt Control Value For Class Data Completed at 11/1/2018 3:35:45 PM 
Item Receipt Control Value For Department Data Initiated at 11/1/2018 3:35:45 PM 
Item Receipt Control Value For Department Data Completed at 11/1/2018 3:35:45 PM 
Item Receipt Master Value For Location_ Data Initiated at 11/1/2018 3:35:45 PM 
Item Receipt Master Value For Location_ Data Completed at 11/1/2018 3:35:45 PM 
Item Receipt Feilds are Created at 11/1/2018 3:35:46 PM 
Item Receipt Feilds Creation Completed For PUTABLE003 at 11/1/2018 3:35:46 PM 
Item Receipt Feilds are Created at 11/1/2018 3:35:46 PM 
Item Receipt Feilds Creation Completed For PUTABLE004 at 11/1/2018 3:35:46 PM 
Item Receipt Total Fields Creation Completed at 11/1/2018 3:35:46 PM 
Item Receipt Process Completed at 11/1/2018 3:35:46 PM 
 11/1/2018 3:35:46 PM
Item Receipt Process Initiated at 11/1/2018 3:40:13 PM 
Item Receipt Tabs are Created at 11/1/2018 3:40:13 PM 
Item Receipt Master Value For Item Data Initiated at 11/1/2018 3:40:13 PM 
Item Receipt Master Value For Item Data Completed at 11/1/2018 3:40:13 PM 
Item Receipt Control Value For Units Data Initiated at 11/1/2018 3:40:13 PM 
Item Receipt Control Value For Units Data Completed at 11/1/2018 3:40:13 PM 
Item Receipt Master Value For Lot# Data Initiated at 11/1/2018 3:40:13 PM 
Item Receipt Master Value For Lot# Data Completed at 11/1/2018 3:40:13 PM 
Item Receipt Master Value For Location Data Initiated at 11/1/2018 3:40:13 PM 
Item Receipt Master Value For Location Data Completed at 11/1/2018 3:40:13 PM 
Item Receipt Master Value For OperatingUnit Data Initiated at 11/1/2018 3:40:13 PM 
Item Receipt Master Value For OperatingUnit Data Completed at 11/1/2018 3:40:13 PM 
Item Receipt Master Value For Subsidary Data Initiated at 11/1/2018 3:40:13 PM 
Item Receipt Master Value For Subsidary Data Completed at 11/1/2018 3:40:13 PM 
Item Receipt Control Value For Classification Data Initiated at 11/1/2018 3:40:13 PM 
Item Receipt Control Value For Classification Data Completed at 11/1/2018 3:40:13 PM 
Item Receipt Control Value For Department Data Initiated at 11/1/2018 3:40:13 PM 
Item Receipt Control Value For Department Data Completed at 11/1/2018 3:40:13 PM 
Item Receipt Master Value For Refered_Form Data Initiated at 11/1/2018 3:40:13 PM 
Item Receipt Master Value For Refered_Form Data Completed at 11/1/2018 3:40:13 PM 
Item Receipt Master Value For Vendor Data Initiated at 11/1/2018 3:40:13 PM 
Item Receipt Master Value For Vendor Data Completed at 11/1/2018 3:40:13 PM 
Item Receipt Master Value For Receipt_Type Data Initiated at 11/1/2018 3:40:13 PM 
Item Receipt Master Value For Receipt_Type Data Completed at 11/1/2018 3:40:13 PM 
Item Receipt Master Value For Purchase_Order# Data Initiated at 11/1/2018 3:40:13 PM 
Item Receipt Master Value For Purchase_Order# Data Completed at 11/1/2018 3:40:13 PM 
Item Receipt Control Value For GST_Category Data Initiated at 11/1/2018 3:40:13 PM 
Item Receipt Control Value For GST_Category Data Completed at 11/1/2018 3:40:13 PM 
Item Receipt Master Value For Place_Of_Supply Data Initiated at 11/1/2018 3:40:13 PM 
Item Receipt Master Value For Place_Of_Supply Data Completed at 11/1/2018 3:40:13 PM 
Item Receipt Control Value For Payment_Terms Data Initiated at 11/1/2018 3:40:13 PM 
Item Receipt Control Value For Payment_Terms Data Completed at 11/1/2018 3:40:13 PM 
Item Receipt Control Value For Payment_Mode Data Initiated at 11/1/2018 3:40:13 PM 
Item Receipt Control Value For Payment_Mode Data Completed at 11/1/2018 3:40:13 PM 
Item Receipt Master Value For Project# Data Initiated at 11/1/2018 3:40:13 PM 
Item Receipt Master Value For Project# Data Completed at 11/1/2018 3:40:13 PM 
Item Receipt Master Value For Operating_Unit Data Initiated at 11/1/2018 3:40:13 PM 
Item Receipt Master Value For Operating_Unit Data Completed at 11/1/2018 3:40:13 PM 
Item Receipt Master Value For Subsidary Data Initiated at 11/1/2018 3:40:13 PM 
Item Receipt Master Value For Subsidary Data Completed at 11/1/2018 3:40:13 PM 
Item Receipt Control Value For Class Data Initiated at 11/1/2018 3:40:13 PM 
Item Receipt Control Value For Class Data Completed at 11/1/2018 3:40:13 PM 
Item Receipt Control Value For Department Data Initiated at 11/1/2018 3:40:13 PM 
Item Receipt Control Value For Department Data Completed at 11/1/2018 3:40:13 PM 
Item Receipt Master Value For Location_ Data Initiated at 11/1/2018 3:40:13 PM 
Item Receipt Master Value For Location_ Data Completed at 11/1/2018 3:40:13 PM 
Item Receipt Feilds are Created at 11/1/2018 3:40:13 PM 
Item Receipt Feilds Creation Completed For PUTABLE003 at 11/1/2018 3:40:13 PM 
Item Receipt Feilds are Created at 11/1/2018 3:40:13 PM 
Item Receipt Feilds Creation Completed For PUTABLE004 at 11/1/2018 3:40:13 PM 
Item Receipt Total Fields Creation Completed at 11/1/2018 3:40:13 PM 
Item Receipt Process Completed at 11/1/2018 3:40:13 PM 
 11/1/2018 3:40:14 PM
 
***********************TARGET1*********************** 
 
 Line Data Received . 11/1/2018 3:40:49 PM
 
***********************TARGET4*********************** 
 
 Header Data Created for Item Receipt . 
 
 11/1/2018 3:40:56 PM
 
***********************TARGET7*********************** 
 
 Line Data 0 Created For Item Receipt . 
 
 11/1/2018 3:40:59 PM
 
***********************TARGET1*********************** 
 
 Line Data Received . 11/1/2018 3:44:56 PM
 
***********************TARGET4*********************** 
 
 Header Data Updated for Item Receipt . 
 
 11/1/2018 3:45:01 PM
 
***********************TARGET7*********************** 
 
 Line Data 0 Updated For Item Receipt . 
 
 11/1/2018 3:45:05 PM
Item Receipt Process Initiated at 11/1/2018 4:41:26 PM 
Item Receipt Tabs are Created at 11/1/2018 4:41:26 PM 
Item Receipt Master Value For Item Data Initiated at 11/1/2018 4:41:26 PM 
Item Receipt Master Value For Item Data Completed at 11/1/2018 4:41:26 PM 
Item Receipt Control Value For Units Data Initiated at 11/1/2018 4:41:26 PM 
Item Receipt Control Value For Units Data Completed at 11/1/2018 4:41:26 PM 
Item Receipt Master Value For Lot# Data Initiated at 11/1/2018 4:41:26 PM 
Item Receipt Master Value For Lot# Data Completed at 11/1/2018 4:41:26 PM 
Item Receipt Master Value For Location Data Initiated at 11/1/2018 4:41:26 PM 
Item Receipt Master Value For Location Data Completed at 11/1/2018 4:41:27 PM 
Item Receipt Master Value For OperatingUnit Data Initiated at 11/1/2018 4:41:27 PM 
Item Receipt Master Value For OperatingUnit Data Completed at 11/1/2018 4:41:27 PM 
Item Receipt Master Value For Subsidary Data Initiated at 11/1/2018 4:41:27 PM 
Item Receipt Master Value For Subsidary Data Completed at 11/1/2018 4:41:27 PM 
Item Receipt Control Value For Classification Data Initiated at 11/1/2018 4:41:27 PM 
Item Receipt Control Value For Classification Data Completed at 11/1/2018 4:41:27 PM 
Item Receipt Control Value For Department Data Initiated at 11/1/2018 4:41:27 PM 
Item Receipt Control Value For Department Data Completed at 11/1/2018 4:41:27 PM 
Item Receipt Master Value For Refered_Form Data Initiated at 11/1/2018 4:41:27 PM 
Item Receipt Master Value For Refered_Form Data Completed at 11/1/2018 4:41:27 PM 
Item Receipt Master Value For Vendor Data Initiated at 11/1/2018 4:41:27 PM 
Item Receipt Master Value For Vendor Data Completed at 11/1/2018 4:41:27 PM 
Item Receipt Master Value For Receipt_Type Data Initiated at 11/1/2018 4:41:27 PM 
Item Receipt Master Value For Receipt_Type Data Completed at 11/1/2018 4:41:27 PM 
Item Receipt Master Value For Purchase_Order# Data Initiated at 11/1/2018 4:41:27 PM 
Item Receipt Master Value For Purchase_Order# Data Completed at 11/1/2018 4:41:27 PM 
Item Receipt Control Value For GST_Category Data Initiated at 11/1/2018 4:41:27 PM 
Item Receipt Control Value For GST_Category Data Completed at 11/1/2018 4:41:27 PM 
Item Receipt Master Value For Place_Of_Supply Data Initiated at 11/1/2018 4:41:27 PM 
Item Receipt Master Value For Place_Of_Supply Data Completed at 11/1/2018 4:41:27 PM 
Item Receipt Control Value For Payment_Terms Data Initiated at 11/1/2018 4:41:27 PM 
Item Receipt Control Value For Payment_Terms Data Completed at 11/1/2018 4:41:27 PM 
Item Receipt Control Value For Payment_Mode Data Initiated at 11/1/2018 4:41:27 PM 
Item Receipt Control Value For Payment_Mode Data Completed at 11/1/2018 4:41:27 PM 
Item Receipt Master Value For Project# Data Initiated at 11/1/2018 4:41:27 PM 
Item Receipt Master Value For Project# Data Completed at 11/1/2018 4:41:27 PM 
Item Receipt Master Value For Operating_Unit Data Initiated at 11/1/2018 4:41:27 PM 
Item Receipt Master Value For Operating_Unit Data Completed at 11/1/2018 4:41:27 PM 
Item Receipt Master Value For Subsidary Data Initiated at 11/1/2018 4:41:27 PM 
Item Receipt Master Value For Subsidary Data Completed at 11/1/2018 4:41:27 PM 
Item Receipt Control Value For Class Data Initiated at 11/1/2018 4:41:27 PM 
Item Receipt Control Value For Class Data Completed at 11/1/2018 4:41:27 PM 
Item Receipt Control Value For Department Data Initiated at 11/1/2018 4:41:27 PM 
Item Receipt Control Value For Department Data Completed at 11/1/2018 4:41:27 PM 
Item Receipt Master Value For Location_ Data Initiated at 11/1/2018 4:41:27 PM 
Item Receipt Master Value For Location_ Data Completed at 11/1/2018 4:41:27 PM 
Item Receipt Feilds are Created at 11/1/2018 4:41:30 PM 
Item Receipt Feilds Creation Completed For PUTABLE003 at 11/1/2018 4:41:30 PM 
Item Receipt Feilds are Created at 11/1/2018 4:41:31 PM 
Item Receipt Feilds Creation Completed For PUTABLE004 at 11/1/2018 4:41:31 PM 
Item Receipt Total Fields Creation Completed at 11/1/2018 4:41:31 PM 
Item Receipt Process Completed at 11/1/2018 4:41:31 PM 
 11/1/2018 4:41:31 PM
Item Receipt Process Initiated at 11/1/2018 4:42:40 PM 
Item Receipt Tabs are Created at 11/1/2018 4:42:40 PM 
Item Receipt Master Value For Item Data Initiated at 11/1/2018 4:42:40 PM 
Item Receipt Master Value For Item Data Completed at 11/1/2018 4:42:40 PM 
Item Receipt Control Value For Units Data Initiated at 11/1/2018 4:42:40 PM 
Item Receipt Control Value For Units Data Completed at 11/1/2018 4:42:40 PM 
Item Receipt Master Value For Lot# Data Initiated at 11/1/2018 4:42:40 PM 
Item Receipt Master Value For Lot# Data Completed at 11/1/2018 4:42:40 PM 
Item Receipt Master Value For Location Data Initiated at 11/1/2018 4:42:40 PM 
Item Receipt Master Value For Location Data Completed at 11/1/2018 4:42:40 PM 
Item Receipt Master Value For OperatingUnit Data Initiated at 11/1/2018 4:42:40 PM 
Item Receipt Master Value For OperatingUnit Data Completed at 11/1/2018 4:42:40 PM 
Item Receipt Master Value For Subsidary Data Initiated at 11/1/2018 4:42:40 PM 
Item Receipt Master Value For Subsidary Data Completed at 11/1/2018 4:42:40 PM 
Item Receipt Control Value For Classification Data Initiated at 11/1/2018 4:42:40 PM 
Item Receipt Control Value For Classification Data Completed at 11/1/2018 4:42:40 PM 
Item Receipt Control Value For Department Data Initiated at 11/1/2018 4:42:40 PM 
Item Receipt Control Value For Department Data Completed at 11/1/2018 4:42:40 PM 
Item Receipt Master Value For Refered_Form Data Initiated at 11/1/2018 4:42:40 PM 
Item Receipt Master Value For Refered_Form Data Completed at 11/1/2018 4:42:40 PM 
Item Receipt Master Value For Vendor Data Initiated at 11/1/2018 4:42:40 PM 
Item Receipt Master Value For Vendor Data Completed at 11/1/2018 4:42:40 PM 
Item Receipt Master Value For Receipt_Type Data Initiated at 11/1/2018 4:42:40 PM 
Item Receipt Master Value For Receipt_Type Data Completed at 11/1/2018 4:42:40 PM 
Item Receipt Master Value For Purchase_Order# Data Initiated at 11/1/2018 4:42:40 PM 
Item Receipt Master Value For Purchase_Order# Data Completed at 11/1/2018 4:42:40 PM 
Item Receipt Control Value For GST_Category Data Initiated at 11/1/2018 4:42:40 PM 
Item Receipt Control Value For GST_Category Data Completed at 11/1/2018 4:42:40 PM 
Item Receipt Master Value For Place_Of_Supply Data Initiated at 11/1/2018 4:42:40 PM 
Item Receipt Master Value For Place_Of_Supply Data Completed at 11/1/2018 4:42:40 PM 
Item Receipt Control Value For Payment_Terms Data Initiated at 11/1/2018 4:42:40 PM 
Item Receipt Control Value For Payment_Terms Data Completed at 11/1/2018 4:42:40 PM 
Item Receipt Control Value For Payment_Mode Data Initiated at 11/1/2018 4:42:40 PM 
Item Receipt Control Value For Payment_Mode Data Completed at 11/1/2018 4:42:40 PM 
Item Receipt Master Value For Project# Data Initiated at 11/1/2018 4:42:40 PM 
Item Receipt Master Value For Project# Data Completed at 11/1/2018 4:42:40 PM 
Item Receipt Master Value For Operating_Unit Data Initiated at 11/1/2018 4:42:40 PM 
Item Receipt Master Value For Operating_Unit Data Completed at 11/1/2018 4:42:40 PM 
Item Receipt Master Value For Subsidary Data Initiated at 11/1/2018 4:42:40 PM 
Item Receipt Master Value For Subsidary Data Completed at 11/1/2018 4:42:40 PM 
Item Receipt Control Value For Class Data Initiated at 11/1/2018 4:42:40 PM 
Item Receipt Control Value For Class Data Completed at 11/1/2018 4:42:40 PM 
Item Receipt Control Value For Department Data Initiated at 11/1/2018 4:42:40 PM 
Item Receipt Control Value For Department Data Completed at 11/1/2018 4:42:40 PM 
Item Receipt Master Value For Location_ Data Initiated at 11/1/2018 4:42:40 PM 
Item Receipt Master Value For Location_ Data Completed at 11/1/2018 4:42:40 PM 
Item Receipt Feilds are Created at 11/1/2018 4:42:41 PM 
Item Receipt Feilds Creation Completed For PUTABLE003 at 11/1/2018 4:42:41 PM 
Item Receipt Feilds are Created at 11/1/2018 4:42:41 PM 
Item Receipt Feilds Creation Completed For PUTABLE004 at 11/1/2018 4:42:41 PM 
Item Receipt Total Fields Creation Completed at 11/1/2018 4:42:41 PM 
Item Receipt Process Completed at 11/1/2018 4:42:41 PM 
 11/1/2018 4:42:41 PM
Item Receipt Process Initiated at 11/1/2018 4:43:10 PM 
Item Receipt Tabs are Created at 11/1/2018 4:43:10 PM 
Item Receipt Master Value For Item Data Initiated at 11/1/2018 4:43:10 PM 
Item Receipt Master Value For Item Data Completed at 11/1/2018 4:43:10 PM 
Item Receipt Control Value For Units Data Initiated at 11/1/2018 4:43:10 PM 
Item Receipt Control Value For Units Data Completed at 11/1/2018 4:43:10 PM 
Item Receipt Master Value For Lot# Data Initiated at 11/1/2018 4:43:10 PM 
Item Receipt Master Value For Lot# Data Completed at 11/1/2018 4:43:10 PM 
Item Receipt Master Value For Location Data Initiated at 11/1/2018 4:43:10 PM 
Item Receipt Master Value For Location Data Completed at 11/1/2018 4:43:10 PM 
Item Receipt Master Value For OperatingUnit Data Initiated at 11/1/2018 4:43:10 PM 
Item Receipt Master Value For OperatingUnit Data Completed at 11/1/2018 4:43:10 PM 
Item Receipt Master Value For Subsidary Data Initiated at 11/1/2018 4:43:10 PM 
Item Receipt Master Value For Subsidary Data Completed at 11/1/2018 4:43:10 PM 
Item Receipt Control Value For Classification Data Initiated at 11/1/2018 4:43:10 PM 
Item Receipt Control Value For Classification Data Completed at 11/1/2018 4:43:10 PM 
Item Receipt Control Value For Department Data Initiated at 11/1/2018 4:43:10 PM 
Item Receipt Control Value For Department Data Completed at 11/1/2018 4:43:10 PM 
Item Receipt Master Value For Refered_Form Data Initiated at 11/1/2018 4:43:10 PM 
Item Receipt Master Value For Refered_Form Data Completed at 11/1/2018 4:43:10 PM 
Item Receipt Master Value For Vendor Data Initiated at 11/1/2018 4:43:10 PM 
Item Receipt Master Value For Vendor Data Completed at 11/1/2018 4:43:10 PM 
Item Receipt Master Value For Receipt_Type Data Initiated at 11/1/2018 4:43:10 PM 
Item Receipt Master Value For Receipt_Type Data Completed at 11/1/2018 4:43:10 PM 
Item Receipt Master Value For Purchase_Order# Data Initiated at 11/1/2018 4:43:10 PM 
Item Receipt Master Value For Purchase_Order# Data Completed at 11/1/2018 4:43:10 PM 
Item Receipt Control Value For GST_Category Data Initiated at 11/1/2018 4:43:10 PM 
Item Receipt Control Value For GST_Category Data Completed at 11/1/2018 4:43:10 PM 
Item Receipt Master Value For Place_Of_Supply Data Initiated at 11/1/2018 4:43:10 PM 
Item Receipt Master Value For Place_Of_Supply Data Completed at 11/1/2018 4:43:10 PM 
Item Receipt Control Value For Payment_Terms Data Initiated at 11/1/2018 4:43:10 PM 
Item Receipt Control Value For Payment_Terms Data Completed at 11/1/2018 4:43:10 PM 
Item Receipt Control Value For Payment_Mode Data Initiated at 11/1/2018 4:43:10 PM 
Item Receipt Control Value For Payment_Mode Data Completed at 11/1/2018 4:43:10 PM 
Item Receipt Master Value For Project# Data Initiated at 11/1/2018 4:43:10 PM 
Item Receipt Master Value For Project# Data Completed at 11/1/2018 4:43:11 PM 
Item Receipt Master Value For Operating_Unit Data Initiated at 11/1/2018 4:43:11 PM 
Item Receipt Master Value For Operating_Unit Data Completed at 11/1/2018 4:43:11 PM 
Item Receipt Master Value For Subsidary Data Initiated at 11/1/2018 4:43:11 PM 
Item Receipt Master Value For Subsidary Data Completed at 11/1/2018 4:43:11 PM 
Item Receipt Control Value For Class Data Initiated at 11/1/2018 4:43:11 PM 
Item Receipt Control Value For Class Data Completed at 11/1/2018 4:43:11 PM 
Item Receipt Control Value For Department Data Initiated at 11/1/2018 4:43:11 PM 
Item Receipt Control Value For Department Data Completed at 11/1/2018 4:43:11 PM 
Item Receipt Master Value For Location_ Data Initiated at 11/1/2018 4:43:11 PM 
Item Receipt Master Value For Location_ Data Completed at 11/1/2018 4:43:11 PM 
Item Receipt Feilds are Created at 11/1/2018 4:43:11 PM 
Item Receipt Feilds Creation Completed For PUTABLE003 at 11/1/2018 4:43:11 PM 
Item Receipt Feilds are Created at 11/1/2018 4:43:11 PM 
Item Receipt Feilds Creation Completed For PUTABLE004 at 11/1/2018 4:43:11 PM 
Item Receipt Total Fields Creation Completed at 11/1/2018 4:43:11 PM 
Item Receipt Process Completed at 11/1/2018 4:43:11 PM 
 11/1/2018 4:43:11 PM
 
***********************TARGET1*********************** 
 
 Line Data Received . 11/1/2018 4:43:30 PM
 
***********************TARGET4*********************** 
 
 Header Data Created for Item Receipt . 
 
 11/1/2018 4:43:32 PM
 
***********************TARGET7*********************** 
 
 Line Data 0 Created For Item Receipt . 
 
 11/1/2018 4:43:35 PM
 
***********************TARGET1*********************** 
 
 Line Data Received . 11/1/2018 4:44:25 PM
 
***********************TARGET4*********************** 
 
 Header Data Updated for Item Receipt . 
 
 11/1/2018 4:44:26 PM
 
***********************TARGET7*********************** 
 
 Line Data 0 Updated For Item Receipt . 
 
 11/1/2018 4:44:26 PM
Item Receipt Process Initiated at 11/1/2018 4:47:08 PM 
Item Receipt Tabs are Created at 11/1/2018 4:47:09 PM 
Item Receipt Master Value For Item Data Initiated at 11/1/2018 4:47:09 PM 
Item Receipt Master Value For Item Data Completed at 11/1/2018 4:47:09 PM 
Item Receipt Control Value For Units Data Initiated at 11/1/2018 4:47:09 PM 
Item Receipt Control Value For Units Data Completed at 11/1/2018 4:47:09 PM 
Item Receipt Master Value For Lot# Data Initiated at 11/1/2018 4:47:09 PM 
Item Receipt Master Value For Lot# Data Completed at 11/1/2018 4:47:09 PM 
Item Receipt Master Value For Location Data Initiated at 11/1/2018 4:47:09 PM 
Item Receipt Master Value For Location Data Completed at 11/1/2018 4:47:09 PM 
Item Receipt Master Value For OperatingUnit Data Initiated at 11/1/2018 4:47:09 PM 
Item Receipt Master Value For OperatingUnit Data Completed at 11/1/2018 4:47:09 PM 
Item Receipt Master Value For Subsidary Data Initiated at 11/1/2018 4:47:09 PM 
Item Receipt Master Value For Subsidary Data Completed at 11/1/2018 4:47:09 PM 
Item Receipt Control Value For Classification Data Initiated at 11/1/2018 4:47:09 PM 
Item Receipt Control Value For Classification Data Completed at 11/1/2018 4:47:09 PM 
Item Receipt Control Value For Department Data Initiated at 11/1/2018 4:47:09 PM 
Item Receipt Control Value For Department Data Completed at 11/1/2018 4:47:09 PM 
Item Receipt Master Value For Refered_Form Data Initiated at 11/1/2018 4:47:09 PM 
Item Receipt Master Value For Refered_Form Data Completed at 11/1/2018 4:47:09 PM 
Item Receipt Master Value For Vendor Data Initiated at 11/1/2018 4:47:09 PM 
Item Receipt Master Value For Vendor Data Completed at 11/1/2018 4:47:09 PM 
Item Receipt Master Value For Receipt_Type Data Initiated at 11/1/2018 4:47:09 PM 
Item Receipt Master Value For Receipt_Type Data Completed at 11/1/2018 4:47:09 PM 
Item Receipt Master Value For Purchase_Order# Data Initiated at 11/1/2018 4:47:09 PM 
Item Receipt Master Value For Purchase_Order# Data Completed at 11/1/2018 4:47:09 PM 
Item Receipt Control Value For GST_Category Data Initiated at 11/1/2018 4:47:09 PM 
Item Receipt Control Value For GST_Category Data Completed at 11/1/2018 4:47:09 PM 
Item Receipt Master Value For Place_Of_Supply Data Initiated at 11/1/2018 4:47:09 PM 
Item Receipt Master Value For Place_Of_Supply Data Completed at 11/1/2018 4:47:09 PM 
Item Receipt Control Value For Payment_Terms Data Initiated at 11/1/2018 4:47:09 PM 
Item Receipt Control Value For Payment_Terms Data Completed at 11/1/2018 4:47:09 PM 
Item Receipt Control Value For Payment_Mode Data Initiated at 11/1/2018 4:47:09 PM 
Item Receipt Control Value For Payment_Mode Data Completed at 11/1/2018 4:47:09 PM 
Item Receipt Master Value For Project# Data Initiated at 11/1/2018 4:47:09 PM 
Item Receipt Master Value For Project# Data Completed at 11/1/2018 4:47:09 PM 
Item Receipt Master Value For Operating_Unit Data Initiated at 11/1/2018 4:47:09 PM 
Item Receipt Master Value For Operating_Unit Data Completed at 11/1/2018 4:47:09 PM 
Item Receipt Master Value For Subsidary Data Initiated at 11/1/2018 4:47:09 PM 
Item Receipt Master Value For Subsidary Data Completed at 11/1/2018 4:47:09 PM 
Item Receipt Control Value For Class Data Initiated at 11/1/2018 4:47:09 PM 
Item Receipt Control Value For Class Data Completed at 11/1/2018 4:47:09 PM 
Item Receipt Control Value For Department Data Initiated at 11/1/2018 4:47:09 PM 
Item Receipt Control Value For Department Data Completed at 11/1/2018 4:47:09 PM 
Item Receipt Master Value For Location_ Data Initiated at 11/1/2018 4:47:09 PM 
Item Receipt Master Value For Location_ Data Completed at 11/1/2018 4:47:09 PM 
Item Receipt Feilds are Created at 11/1/2018 4:47:09 PM 
Item Receipt Feilds Creation Completed For PUTABLE003 at 11/1/2018 4:47:09 PM 
Item Receipt Feilds are Created at 11/1/2018 4:47:09 PM 
Item Receipt Feilds Creation Completed For PUTABLE004 at 11/1/2018 4:47:09 PM 
Item Receipt Total Fields Creation Completed at 11/1/2018 4:47:09 PM 
Item Receipt Process Completed at 11/1/2018 4:47:09 PM 
 11/1/2018 4:47:09 PM
 
***********************TARGET1*********************** 
 
 Line Data Received . 11/1/2018 4:47:26 PM
 
***********************TARGET4*********************** 
 
 Header Data Created for Item Receipt . 
 
 11/1/2018 4:47:26 PM
 
***********************TARGET7*********************** 
 
 Line Data 0 Created For Item Receipt . 
 
 11/1/2018 4:47:27 PM
 
***********************TARGET1*********************** 
 
 Line Data Received . 11/1/2018 4:48:33 PM
 
***********************TARGET4*********************** 
 
 Header Data Updated for Item Receipt . 
 
 11/1/2018 4:48:33 PM
 
***********************TARGET7*********************** 
 
 Line Data 0 Updated For Item Receipt . 
 
 11/1/2018 4:48:34 PM
