
 8/9/2019 11:53:52 AM 8/9/2019 11:54:01 AM
 8/9/2019 11:54:21 AM
 8/9/2019 11:55:13 AM
 8/9/2019 11:55:37 AM
 8/9/2019 12:18:01 PM
 8/9/2019 12:18:05 PM
 8/9/2019 12:18:50 PM
 8/9/2019 12:18:53 PM
 8/9/2019 12:20:32 PM
 8/9/2019 12:20:36 PM
 8/9/2019 3:25:51 PM
 8/9/2019 3:26:00 PM
 8/9/2019 3:29:10 PM
 8/9/2019 3:29:21 PM
 8/9/2019 3:29:43 PM
 8/9/2019 3:29:52 PM
