
NOAUTH Authentication required., sPort: 6446, LastCommand:  8/9/2019 11:37:19 AMNOAUTH Authentication required., sPort: 6539, LastCommand:  8/9/2019 11:57:43 AM
NOAUTH Authentication required., sPort: 7986, LastCommand:  8/9/2019 2:57:35 PM
NOAUTH Authentication required., sPort: 8135, LastCommand:  8/9/2019 3:14:09 PM
NOAUTH Authentication required., sPort: 8243, LastCommand:  8/9/2019 3:20:15 PM
