
 
***********************TARGET1*********************** 
 
 Line Data Received . 4/27/2018 10:25:49 AM 
***********************TARGET4*********************** 
 
 Header Data Updated for Invoice . 
 
 4/27/2018 10:26:29 AM
 
***********************TARGET7*********************** 
 
 Line Data 0 Updated For Invoice . 
 
 4/27/2018 10:26:29 AM
 
***********************TARGET7*********************** 
 
 Line Data 1 Updated For Invoice . 
 
 4/27/2018 10:26:30 AM
 
***********************TARGET7*********************** 
 
 Line Data 2 Updated For Invoice . 
 
 4/27/2018 10:26:30 AM
 
***********************TARGET7*********************** 
 
 Line Data 3 Updated For Invoice . 
 
 4/27/2018 10:26:31 AM
 
***********************TARGET7*********************** 
 
 Line Data 4 Updated For Invoice . 
 
 4/27/2018 10:26:31 AM
 
***********************TARGET7*********************** 
 
 Line Data 5 Updated For Invoice . 
 
 4/27/2018 10:26:31 AM
 
***********************TARGET7*********************** 
 
 Line Data 6 Updated For Invoice . 
 
 4/27/2018 10:26:32 AM
 
***********************TARGET7*********************** 
 
 Line Data 7 Updated For Invoice . 
 
 4/27/2018 10:26:32 AM
 
***********************TARGET7*********************** 
 
 Line Data 8 Updated For Invoice . 
 
 4/27/2018 10:26:33 AM
 
***********************TARGET7*********************** 
 
 Line Data 9 Updated For Invoice . 
 
 4/27/2018 10:26:33 AM
 
***********************TARGET7*********************** 
 
 Line Data 10 Updated For Invoice . 
 
 4/27/2018 10:26:33 AM
 
***********************TARGET7*********************** 
 
 Line Data 11 Updated For Invoice . 
 
 4/27/2018 10:26:34 AM
 
***********************TARGET7*********************** 
 
 Line Data 12 Updated For Invoice . 
 
 4/27/2018 10:26:34 AM
 
***********************TARGET7*********************** 
 
 Line Data 13 Updated For Invoice . 
 
 4/27/2018 10:26:34 AM
 
***********************TARGET7*********************** 
 
 Line Data 14 Updated For Invoice . 
 
 4/27/2018 10:26:35 AM
 
***********************TARGET7*********************** 
 
 Line Data 15 Updated For Invoice . 
 
 4/27/2018 10:26:35 AM
 
***********************TARGET7*********************** 
 
 Line Data 16 Updated For Invoice . 
 
 4/27/2018 10:26:35 AM
 
***********************TARGET7*********************** 
 
 Line Data 17 Updated For Invoice . 
 
 4/27/2018 10:26:36 AM
 
***********************TARGET7*********************** 
 
 Line Data 18 Updated For Invoice . 
 
 4/27/2018 10:26:36 AM
 
***********************TARGET7*********************** 
 
 Line Data 19 Updated For Invoice . 
 
 4/27/2018 10:26:36 AM
 
***********************TARGET7*********************** 
 
 Line Data 20 Updated For Invoice . 
 
 4/27/2018 10:26:37 AM
 
***********************TARGET7*********************** 
 
 Line Data 21 Updated For Invoice . 
 
 4/27/2018 10:26:37 AM
 
***********************TARGET7*********************** 
 
 Line Data 22 Updated For Invoice . 
 
 4/27/2018 10:26:37 AM
 
***********************TARGET7*********************** 
 
 Line Data 23 Updated For Invoice . 
 
 4/27/2018 10:26:38 AM
 
***********************TARGET7*********************** 
 
 Line Data 24 Updated For Invoice . 
 
 4/27/2018 10:26:38 AM
 
***********************TARGET7*********************** 
 
 Line Data 25 Updated For Invoice . 
 
 4/27/2018 10:26:39 AM
 
***********************TARGET7*********************** 
 
 Line Data 26 Updated For Invoice . 
 
 4/27/2018 10:26:39 AM
 
***********************TARGET7*********************** 
 
 Line Data 27 Updated For Invoice . 
 
 4/27/2018 10:26:39 AM
 
***********************TARGET7*********************** 
 
 Line Data 28 Updated For Invoice . 
 
 4/27/2018 10:26:40 AM
 
***********************TARGET7*********************** 
 
 Line Data 29 Updated For Invoice . 
 
 4/27/2018 10:26:40 AM
 
***********************TARGET7*********************** 
 
 Line Data 30 Updated For Invoice . 
 
 4/27/2018 10:26:40 AM
 
***********************TARGET7*********************** 
 
 Line Data 31 Updated For Invoice . 
 
 4/27/2018 10:26:41 AM
 
***********************TARGET7*********************** 
 
 Line Data 32 Updated For Invoice . 
 
 4/27/2018 10:26:41 AM
 
***********************TARGET7*********************** 
 
 Line Data 33 Updated For Invoice . 
 
 4/27/2018 10:26:41 AM
 
***********************TARGET7*********************** 
 
 Line Data 34 Updated For Invoice . 
 
 4/27/2018 10:26:42 AM
 
***********************TARGET7*********************** 
 
 Line Data 35 Updated For Invoice . 
 
 4/27/2018 10:26:42 AM
 
***********************TARGET7*********************** 
 
 Line Data 36 Updated For Invoice . 
 
 4/27/2018 10:26:42 AM
 
***********************TARGET7*********************** 
 
 Line Data 37 Updated For Invoice . 
 
 4/27/2018 10:26:43 AM
 
***********************TARGET7*********************** 
 
 Line Data 38 Updated For Invoice . 
 
 4/27/2018 10:26:43 AM
 
***********************TARGET7*********************** 
 
 Line Data 39 Updated For Invoice . 
 
 4/27/2018 10:26:43 AM
 
***********************TARGET7*********************** 
 
 Line Data 40 Updated For Invoice . 
 
 4/27/2018 10:26:44 AM
 
***********************TARGET7*********************** 
 
 Line Data 41 Updated For Invoice . 
 
 4/27/2018 10:26:44 AM
 
***********************TARGET7*********************** 
 
 Line Data 42 Updated For Invoice . 
 
 4/27/2018 10:26:45 AM
 
***********************TARGET7*********************** 
 
 Line Data 43 Updated For Invoice . 
 
 4/27/2018 10:26:45 AM
 
***********************TARGET7*********************** 
 
 Line Data 44 Updated For Invoice . 
 
 4/27/2018 10:26:45 AM
 
***********************TARGET7*********************** 
 
 Line Data 45 Updated For Invoice . 
 
 4/27/2018 10:26:46 AM
 
***********************TARGET7*********************** 
 
 Line Data 46 Updated For Invoice . 
 
 4/27/2018 10:26:46 AM
 
***********************TARGET7*********************** 
 
 Line Data 47 Updated For Invoice . 
 
 4/27/2018 10:26:46 AM
 
***********************TARGET7*********************** 
 
 Line Data 48 Updated For Invoice . 
 
 4/27/2018 10:26:47 AM
 
***********************TARGET7*********************** 
 
 Line Data 49 Updated For Invoice . 
 
 4/27/2018 10:26:47 AM
 
***********************TARGET7*********************** 
 
 Line Data 50 Updated For Invoice . 
 
 4/27/2018 10:26:47 AM
 
***********************TARGET7*********************** 
 
 Line Data 51 Updated For Invoice . 
 
 4/27/2018 10:26:48 AM
 
***********************TARGET7*********************** 
 
 Line Data 52 Updated For Invoice . 
 
 4/27/2018 10:26:48 AM
 
***********************TARGET7*********************** 
 
 Line Data 53 Updated For Invoice . 
 
 4/27/2018 10:26:48 AM
 
***********************TARGET7*********************** 
 
 Line Data 54 Updated For Invoice . 
 
 4/27/2018 10:26:49 AM
 
***********************TARGET7*********************** 
 
 Line Data 55 Updated For Invoice . 
 
 4/27/2018 10:26:49 AM
 
***********************TARGET7*********************** 
 
 Line Data 56 Updated For Invoice . 
 
 4/27/2018 10:26:49 AM
 
***********************TARGET7*********************** 
 
 Line Data 57 Updated For Invoice . 
 
 4/27/2018 10:26:50 AM
 
***********************TARGET7*********************** 
 
 Line Data 58 Updated For Invoice . 
 
 4/27/2018 10:26:50 AM
 
***********************TARGET7*********************** 
 
 Line Data 59 Updated For Invoice . 
 
 4/27/2018 10:26:50 AM
 
***********************TARGET7*********************** 
 
 Line Data 60 Updated For Invoice . 
 
 4/27/2018 10:26:51 AM
 
***********************TARGET7*********************** 
 
 Line Data 61 Updated For Invoice . 
 
 4/27/2018 10:26:51 AM
 
***********************TARGET7*********************** 
 
 Line Data 62 Updated For Invoice . 
 
 4/27/2018 10:26:51 AM
 
***********************TARGET7*********************** 
 
 Line Data 63 Updated For Invoice . 
 
 4/27/2018 10:26:52 AM
 
***********************TARGET7*********************** 
 
 Line Data 64 Updated For Invoice . 
 
 4/27/2018 10:26:52 AM
 
***********************TARGET7*********************** 
 
 Line Data 65 Updated For Invoice . 
 
 4/27/2018 10:26:53 AM
 
***********************TARGET7*********************** 
 
 Line Data 66 Updated For Invoice . 
 
 4/27/2018 10:26:53 AM
 
***********************TARGET7*********************** 
 
 Line Data 67 Updated For Invoice . 
 
 4/27/2018 10:26:53 AM
 
***********************TARGET7*********************** 
 
 Line Data 68 Updated For Invoice . 
 
 4/27/2018 10:26:54 AM
 
***********************TARGET7*********************** 
 
 Line Data 69 Updated For Invoice . 
 
 4/27/2018 10:26:54 AM
 
***********************TARGET7*********************** 
 
 Line Data 70 Updated For Invoice . 
 
 4/27/2018 10:26:54 AM
 
***********************TARGET7*********************** 
 
 Line Data 71 Updated For Invoice . 
 
 4/27/2018 10:26:55 AM
 
***********************TARGET7*********************** 
 
 Line Data 72 Updated For Invoice . 
 
 4/27/2018 10:26:55 AM
