
 04/20/2020 10:36:22 AM 04/20/2020 10:36:27 AM
 04/20/2020 10:36:53 AM
 04/20/2020 10:36:59 AM
 04/20/2020 10:50:15 AM
 04/20/2020 10:50:23 AM
 04/20/2020 10:50:30 AM
 04/20/2020 10:50:42 AM
 04/20/2020 10:50:50 AM
 04/20/2020 10:50:59 AM
 04/20/2020 2:12:28 PM
 04/20/2020 2:13:50 PM
 04/20/2020 2:13:57 PM
 04/20/2020 2:14:02 PM
 04/20/2020 2:15:19 PM
 04/20/2020 2:15:24 PM
 04/20/2020 2:15:51 PM
 04/20/2020 2:15:57 PM
 04/20/2020 2:16:27 PM
 04/20/2020 2:17:23 PM
 04/20/2020 2:17:45 PM
 04/20/2020 2:17:50 PM
 04/20/2020 4:53:57 PM
 04/20/2020 4:54:34 PM
 04/20/2020 4:55:13 PM
 04/20/2020 4:55:18 PM
 04/20/2020 5:01:07 PM
 04/20/2020 5:20:00 PM
 04/20/2020 5:20:09 PM
 04/20/2020 5:20:25 PM
 04/20/2020 5:20:38 PM
 04/20/2020 5:32:53 PM
 04/20/2020 5:33:46 PM
 04/20/2020 5:33:54 PM
 04/20/2020 5:33:59 PM
 04/20/2020 5:35:15 PM
 04/20/2020 5:39:46 PM
 04/20/2020 5:40:12 PM
 04/20/2020 5:40:47 PM
 04/20/2020 5:41:03 PM
 04/20/2020 5:41:18 PM
 04/20/2020 5:41:18 PM
 04/20/2020 5:41:22 PM
 04/20/2020 5:41:31 PM
 04/20/2020 5:42:05 PM
 04/20/2020 5:44:45 PM
 04/20/2020 5:46:23 PM
 04/20/2020 5:46:32 PM
 04/20/2020 5:55:07 PM
 04/20/2020 5:55:12 PM
 04/20/2020 6:32:46 PM
 04/20/2020 6:32:52 PM
 04/20/2020 6:35:43 PM
 04/20/2020 6:35:47 PM
 04/20/2020 6:51:05 PM
 04/20/2020 6:51:10 PM
 04/20/2020 6:52:32 PM
 04/20/2020 7:57:40 PM
