

 Line Tax Amount = Total (2200.00)  * Tax (0.00) 
 Line Amount = Total (2200)  
 Line Total Amount = Amount (2200) + Tax Amount (0.00)  
 Header Total Amount  = Sub Total (2200.00) Tax (0.00)+ PackingCharges (0.00)+ ShippingCharges (0.00) 
 6/21/2018 11:35:25 AM
 Line Tax Amount = Total (2200.00)  * Tax (0.00) 
 Line Amount = Total (2200)  
 Line Total Amount = Amount (2200) + Tax Amount (0.00)  
 Header Total Amount  = Sub Total (2200.00) Tax (0.00)+ PackingCharges (0.00)+ ShippingCharges (0.00) 
 Header Tax Amount = Subtotal (2200.00)  - PackingCharges (0) - ShippingCharges (0) * Tax (0.00) 
 Line Tax Amount Item 1= (0.00) 
 Total Tax Amount = Heder Tax (0.00) + Line Tax (0) 
 Total Amount = Sub Total (2200.00)  + Heder Tax (0.00) + Line Tax (0) 
 Line Tax Amount = Total (3200.00)  * Tax (0.00) 
 Line Amount = Total (2200)  
 Line Total Amount = Amount (2200) + Tax Amount (0.00)  
 Line Amount = Total (3200)  
 Line Total Amount = Amount (3200) + Tax Amount (0.00)  
 Header Total Amount  = Sub Total (5400.00) Tax (0.00)+ PackingCharges (0.00)+ ShippingCharges (0.00) 
 6/21/2018 11:35:40 AM
