
 the  values 16742`1283`JO00011`2121``Approved`06/21/18`06/21/18`1`1000```57217`````1000`5400.00`0.00`5400.00`````0`0````0``0`0`0``56578`6/21/2018 11:35:54 AM`6/21/2018 11:35:54 AM`1`0`1035 of form Job Order(Out) and Table SATABLE005 has succeeded at  6/21/2018 11:35:55 AM the  values  of form Job Order(Out) and Table SATABLE006 succeeded at  6/21/2018 11:35:57 AM
 the  values  of form Job Order(Out) and Table SATABLE006 succeeded at  6/21/2018 11:35:57 AM
 the  values 9998` ` ``1007````0`0`56578`6/21/2018 11:35:57 AM`6/21/2018 11:35:57 AM`1`0`1035 of form Job Order(Out) and Table SATABLE003 has succeeded at  6/21/2018 11:35:57 AM
