
Sales Quotation Process Initiated at 3/13/2020 9:32:54 AM 
Sales Quotation Tabs are Created at 3/13/2020 9:32:54 AM 
Sales Quotation Master Value For Item Data Initiated at 3/13/2020 9:32:54 AM 
Sales Quotation Master Value For Item Data Completed at 3/13/2020 9:32:54 AM 
Sales Quotation Control Value For Units Data Initiated at 3/13/2020 9:32:54 AM 
Sales Quotation Control Value For Units Data Completed at 3/13/2020 9:32:54 AM 
Sales Quotation Master Value For Tax Data Initiated at 3/13/2020 9:32:54 AM 
Sales Quotation Master Value For Tax Data Completed at 3/13/2020 9:32:54 AM 
Sales Quotation Master Value For Customer Data Initiated at 3/13/2020 9:32:54 AM 
Sales Quotation Master Value For Customer Data Completed at 3/13/2020 9:32:54 AM 
Sales Quotation Master Value For Order_Type Data Initiated at 3/13/2020 9:32:54 AM 
Sales Quotation Master Value For Order_Type Data Completed at 3/13/2020 9:32:54 AM 
Sales Quotation Master Value For Payment_Terms Data Initiated at 3/13/2020 9:32:54 AM 
Sales Quotation Master Value For Payment_Terms Data Completed at 3/13/2020 9:32:54 AM 
Sales Quotation Control Value For Payment_Mode Data Initiated at 3/13/2020 9:32:54 AM 
Sales Quotation Control Value For Payment_Mode Data Completed at 3/13/2020 9:32:54 AM 
Sales Quotation Control Value For GST_Category Data Initiated at 3/13/2020 9:32:54 AM 
Sales Quotation Control Value For GST_Category Data Completed at 3/13/2020 9:32:54 AM 
Sales Quotation Master Value For Place_Of_Supply Data Initiated at 3/13/2020 9:32:54 AM 
Sales Quotation Master Value For Place_Of_Supply Data Completed at 3/13/2020 9:32:54 AM 
Sales Quotation Master Value For Operating_Unit Data Initiated at 3/13/2020 9:32:54 AM 
Sales Quotation Master Value For Operating_Unit Data Completed at 3/13/2020 9:32:54 AM 
Sales Quotation Control Value For Department Data Initiated at 3/13/2020 9:32:54 AM 
Sales Quotation Control Value For Department Data Completed at 3/13/2020 9:32:54 AM 
Sales Quotation Master Value For Tax_Type Data Initiated at 3/13/2020 9:32:54 AM 
Sales Quotation Master Value For Tax_Type Data Completed at 3/13/2020 9:32:54 AM 
Sales Quotation Master Value For Sales_ Rep Data Initiated at 3/13/2020 9:32:54 AM 
Sales Quotation Master Value For Sales_ Rep Data Completed at 3/13/2020 9:32:54 AM 
Sales Quotation Master Value For Opportunity# Data Initiated at 3/13/2020 9:32:54 AM 
Sales Quotation Master Value For Opportunity# Data Completed at 3/13/2020 9:32:54 AM 
Sales Quotation Master Value For Project# Data Initiated at 3/13/2020 9:32:54 AM 
Sales Quotation Master Value For Project# Data Completed at 3/13/2020 9:32:54 AM 
Sales Quotation Master Value For Country Data Initiated at 3/13/2020 9:32:54 AM 
Sales Quotation Master Value For Country Data Completed at 3/13/2020 9:32:54 AM 
Sales Quotation Master Value For State Data Initiated at 3/13/2020 9:32:54 AM 
Sales Quotation Master Value For State Data Completed at 3/13/2020 9:32:54 AM 
Sales Quotation Feilds are Created at 3/13/2020 9:32:54 AM 
Sales Quotation Feilds Creation Completed For SATABLE003 at 3/13/2020 9:32:54 AM 
Sales Quotation Feilds are Created at 3/13/2020 9:32:54 AM 
Sales Quotation Feilds Creation Completed For SATABLE015 at 3/13/2020 9:32:54 AM 
Sales Quotation Feilds are Created at 3/13/2020 9:32:54 AM 
Sales Quotation Feilds Creation Completed For SATABLE016 at 3/13/2020 9:32:54 AM 
Sales Quotation Total Fields Creation Completed at 3/13/2020 9:32:54 AM 
Sales Quotation Process Completed at 3/13/2020 9:32:55 AM 
 3/13/2020 9:32:55 AM 
***********************TARGET1*********************** 
 
 Line Data Received . 3/13/2020 9:35:55 AM
 
***********************TARGET4*********************** 
 
 Header Data Created for Sales Quotation . 
 
 3/13/2020 9:35:55 AM
 
***********************TARGET7*********************** 
 
 Line Data 0 Created For Sales Quotation . 
 
 3/13/2020 9:35:55 AM
 
***********************TARGET7*********************** 
 
 Line Data 1 Created For Sales Quotation . 
 
 3/13/2020 9:35:55 AM
 
***********************TARGET7*********************** 
 
 Line Data 2 Created For Sales Quotation . 
 
 3/13/2020 9:35:55 AM
 
***********************TARGET7*********************** 
 
 Line Data 3 Created For Sales Quotation . 
 
 3/13/2020 9:35:55 AM
 
***********************TARGET7*********************** 
 
 Line Data 4 Created For Sales Quotation . 
 
 3/13/2020 9:35:55 AM
 
***********************TARGET7*********************** 
 
 Line Data 5 Created For Sales Quotation . 
 
 3/13/2020 9:35:55 AM
 
***********************TARGET7*********************** 
 
 Line Data 6 Created For Sales Quotation . 
 
 3/13/2020 9:35:55 AM
 
***********************TARGET7*********************** 
 
 Line Data 7 Created For Sales Quotation . 
 
 3/13/2020 9:35:55 AM
 
***********************TARGET4*********************** 
 
 Header Data Created for Sales Quotation . 
 
 3/13/2020 9:35:55 AM
Sales Quotation Process Initiated at 3/13/2020 10:51:47 AM 
Sales Quotation Tabs are Created at 3/13/2020 10:51:47 AM 
Sales Quotation Master Value For Item Data Initiated at 3/13/2020 10:51:47 AM 
Sales Quotation Master Value For Item Data Completed at 3/13/2020 10:51:47 AM 
Sales Quotation Control Value For Units Data Initiated at 3/13/2020 10:51:47 AM 
Sales Quotation Control Value For Units Data Completed at 3/13/2020 10:51:47 AM 
Sales Quotation Master Value For Tax Data Initiated at 3/13/2020 10:51:47 AM 
Sales Quotation Master Value For Tax Data Completed at 3/13/2020 10:51:47 AM 
Sales Quotation Master Value For Customer Data Initiated at 3/13/2020 10:51:47 AM 
Sales Quotation Master Value For Customer Data Completed at 3/13/2020 10:51:47 AM 
Sales Quotation Master Value For Order_Type Data Initiated at 3/13/2020 10:51:47 AM 
Sales Quotation Master Value For Order_Type Data Completed at 3/13/2020 10:51:47 AM 
Sales Quotation Master Value For Payment_Terms Data Initiated at 3/13/2020 10:51:47 AM 
Sales Quotation Master Value For Payment_Terms Data Completed at 3/13/2020 10:51:47 AM 
Sales Quotation Control Value For Payment_Mode Data Initiated at 3/13/2020 10:51:47 AM 
Sales Quotation Control Value For Payment_Mode Data Completed at 3/13/2020 10:51:47 AM 
Sales Quotation Control Value For GST_Category Data Initiated at 3/13/2020 10:51:47 AM 
Sales Quotation Control Value For GST_Category Data Completed at 3/13/2020 10:51:47 AM 
Sales Quotation Master Value For Place_Of_Supply Data Initiated at 3/13/2020 10:51:47 AM 
Sales Quotation Master Value For Place_Of_Supply Data Completed at 3/13/2020 10:51:47 AM 
Sales Quotation Master Value For Operating_Unit Data Initiated at 3/13/2020 10:51:47 AM 
Sales Quotation Master Value For Operating_Unit Data Completed at 3/13/2020 10:51:47 AM 
Sales Quotation Control Value For Department Data Initiated at 3/13/2020 10:51:47 AM 
Sales Quotation Control Value For Department Data Completed at 3/13/2020 10:51:47 AM 
Sales Quotation Master Value For Tax_Type Data Initiated at 3/13/2020 10:51:47 AM 
Sales Quotation Master Value For Tax_Type Data Completed at 3/13/2020 10:51:47 AM 
Sales Quotation Master Value For Sales_ Rep Data Initiated at 3/13/2020 10:51:47 AM 
Sales Quotation Master Value For Sales_ Rep Data Completed at 3/13/2020 10:51:47 AM 
Sales Quotation Master Value For Opportunity# Data Initiated at 3/13/2020 10:51:47 AM 
Sales Quotation Master Value For Opportunity# Data Completed at 3/13/2020 10:51:47 AM 
Sales Quotation Master Value For Project# Data Initiated at 3/13/2020 10:51:47 AM 
Sales Quotation Master Value For Project# Data Completed at 3/13/2020 10:51:47 AM 
Sales Quotation Master Value For Country Data Initiated at 3/13/2020 10:51:47 AM 
Sales Quotation Master Value For Country Data Completed at 3/13/2020 10:51:47 AM 
Sales Quotation Master Value For State Data Initiated at 3/13/2020 10:51:47 AM 
Sales Quotation Master Value For State Data Completed at 3/13/2020 10:51:47 AM 
Sales Quotation Feilds are Created at 3/13/2020 10:51:47 AM 
Sales Quotation Feilds Creation Completed For SATABLE003 at 3/13/2020 10:51:47 AM 
Sales Quotation Feilds are Created at 3/13/2020 10:51:47 AM 
Sales Quotation Feilds Creation Completed For SATABLE015 at 3/13/2020 10:51:48 AM 
Sales Quotation Feilds are Created at 3/13/2020 10:51:48 AM 
Sales Quotation Feilds Creation Completed For SATABLE016 at 3/13/2020 10:51:48 AM 
Sales Quotation Total Fields Creation Completed at 3/13/2020 10:51:48 AM 
Sales Quotation Process Completed at 3/13/2020 10:51:48 AM 
 3/13/2020 10:51:48 AM
Sales Quotation Process Initiated at 3/13/2020 10:52:42 AM 
Sales Quotation Tabs are Created at 3/13/2020 10:52:42 AM 
Sales Quotation Master Value For Item Data Initiated at 3/13/2020 10:52:42 AM 
Sales Quotation Master Value For Item Data Completed at 3/13/2020 10:52:42 AM 
Sales Quotation Control Value For Units Data Initiated at 3/13/2020 10:52:42 AM 
Sales Quotation Control Value For Units Data Completed at 3/13/2020 10:52:42 AM 
Sales Quotation Master Value For Tax Data Initiated at 3/13/2020 10:52:42 AM 
Sales Quotation Master Value For Tax Data Completed at 3/13/2020 10:52:42 AM 
Sales Quotation Master Value For Customer Data Initiated at 3/13/2020 10:52:42 AM 
Sales Quotation Master Value For Customer Data Completed at 3/13/2020 10:52:42 AM 
Sales Quotation Master Value For Order_Type Data Initiated at 3/13/2020 10:52:42 AM 
Sales Quotation Master Value For Order_Type Data Completed at 3/13/2020 10:52:42 AM 
Sales Quotation Master Value For Payment_Terms Data Initiated at 3/13/2020 10:52:42 AM 
Sales Quotation Master Value For Payment_Terms Data Completed at 3/13/2020 10:52:42 AM 
Sales Quotation Control Value For Payment_Mode Data Initiated at 3/13/2020 10:52:42 AM 
Sales Quotation Control Value For Payment_Mode Data Completed at 3/13/2020 10:52:42 AM 
Sales Quotation Control Value For GST_Category Data Initiated at 3/13/2020 10:52:42 AM 
Sales Quotation Control Value For GST_Category Data Completed at 3/13/2020 10:52:42 AM 
Sales Quotation Master Value For Place_Of_Supply Data Initiated at 3/13/2020 10:52:42 AM 
Sales Quotation Master Value For Place_Of_Supply Data Completed at 3/13/2020 10:52:42 AM 
Sales Quotation Master Value For Operating_Unit Data Initiated at 3/13/2020 10:52:42 AM 
Sales Quotation Master Value For Operating_Unit Data Completed at 3/13/2020 10:52:42 AM 
Sales Quotation Control Value For Department Data Initiated at 3/13/2020 10:52:42 AM 
Sales Quotation Control Value For Department Data Completed at 3/13/2020 10:52:42 AM 
Sales Quotation Master Value For Tax_Type Data Initiated at 3/13/2020 10:52:42 AM 
Sales Quotation Master Value For Tax_Type Data Completed at 3/13/2020 10:52:42 AM 
Sales Quotation Master Value For Sales_ Rep Data Initiated at 3/13/2020 10:52:42 AM 
Sales Quotation Master Value For Sales_ Rep Data Completed at 3/13/2020 10:52:42 AM 
Sales Quotation Master Value For Opportunity# Data Initiated at 3/13/2020 10:52:42 AM 
Sales Quotation Master Value For Opportunity# Data Completed at 3/13/2020 10:52:42 AM 
Sales Quotation Master Value For Project# Data Initiated at 3/13/2020 10:52:42 AM 
Sales Quotation Master Value For Project# Data Completed at 3/13/2020 10:52:42 AM 
Sales Quotation Master Value For Country Data Initiated at 3/13/2020 10:52:42 AM 
Sales Quotation Master Value For Country Data Completed at 3/13/2020 10:52:42 AM 
Sales Quotation Master Value For State Data Initiated at 3/13/2020 10:52:42 AM 
Sales Quotation Master Value For State Data Completed at 3/13/2020 10:52:42 AM 
Sales Quotation Feilds are Created at 3/13/2020 10:52:42 AM 
Sales Quotation Feilds Creation Completed For SATABLE003 at 3/13/2020 10:52:42 AM 
Sales Quotation Feilds are Created at 3/13/2020 10:52:42 AM 
Sales Quotation Feilds Creation Completed For SATABLE015 at 3/13/2020 10:52:42 AM 
Sales Quotation Feilds are Created at 3/13/2020 10:52:42 AM 
Sales Quotation Feilds Creation Completed For SATABLE016 at 3/13/2020 10:52:42 AM 
Sales Quotation Total Fields Creation Completed at 3/13/2020 10:52:42 AM 
Sales Quotation Process Completed at 3/13/2020 10:52:42 AM 
 3/13/2020 10:52:42 AM
 
***********************TARGET1*********************** 
 
 Line Data Received . 3/13/2020 10:53:56 AM
 
***********************TARGET4*********************** 
 
 Header Data Created for Sales Quotation . 
 
 3/13/2020 10:53:57 AM
 
***********************TARGET7*********************** 
 
 Line Data 0 Created For Sales Quotation . 
 
 3/13/2020 10:53:58 AM
 
***********************TARGET7*********************** 
 
 Line Data 1 Created For Sales Quotation . 
 
 3/13/2020 10:53:58 AM
 
***********************TARGET7*********************** 
 
 Line Data 2 Created For Sales Quotation . 
 
 3/13/2020 10:53:58 AM
 
***********************TARGET7*********************** 
 
 Line Data 3 Created For Sales Quotation . 
 
 3/13/2020 10:53:58 AM
 
***********************TARGET4*********************** 
 
 Header Data Created for Sales Quotation . 
 
 3/13/2020 10:53:58 AM
Sales Quotation Process Initiated at 3/13/2020 10:55:37 AM 
Sales Quotation Tabs are Created at 3/13/2020 10:55:37 AM 
Sales Quotation Master Value For Item Data Initiated at 3/13/2020 10:55:37 AM 
Sales Quotation Master Value For Item Data Completed at 3/13/2020 10:55:37 AM 
Sales Quotation Control Value For Units Data Initiated at 3/13/2020 10:55:37 AM 
Sales Quotation Control Value For Units Data Completed at 3/13/2020 10:55:37 AM 
Sales Quotation Master Value For Tax Data Initiated at 3/13/2020 10:55:37 AM 
Sales Quotation Master Value For Tax Data Completed at 3/13/2020 10:55:37 AM 
Sales Quotation Master Value For Customer Data Initiated at 3/13/2020 10:55:37 AM 
Sales Quotation Master Value For Customer Data Completed at 3/13/2020 10:55:37 AM 
Sales Quotation Master Value For Order_Type Data Initiated at 3/13/2020 10:55:37 AM 
Sales Quotation Master Value For Order_Type Data Completed at 3/13/2020 10:55:37 AM 
Sales Quotation Master Value For Payment_Terms Data Initiated at 3/13/2020 10:55:37 AM 
Sales Quotation Master Value For Payment_Terms Data Completed at 3/13/2020 10:55:37 AM 
Sales Quotation Control Value For Payment_Mode Data Initiated at 3/13/2020 10:55:37 AM 
Sales Quotation Control Value For Payment_Mode Data Completed at 3/13/2020 10:55:37 AM 
Sales Quotation Control Value For GST_Category Data Initiated at 3/13/2020 10:55:37 AM 
Sales Quotation Control Value For GST_Category Data Completed at 3/13/2020 10:55:37 AM 
Sales Quotation Master Value For Place_Of_Supply Data Initiated at 3/13/2020 10:55:37 AM 
Sales Quotation Master Value For Place_Of_Supply Data Completed at 3/13/2020 10:55:37 AM 
Sales Quotation Master Value For Operating_Unit Data Initiated at 3/13/2020 10:55:37 AM 
Sales Quotation Master Value For Operating_Unit Data Completed at 3/13/2020 10:55:37 AM 
Sales Quotation Control Value For Department Data Initiated at 3/13/2020 10:55:37 AM 
Sales Quotation Control Value For Department Data Completed at 3/13/2020 10:55:37 AM 
Sales Quotation Master Value For Tax_Type Data Initiated at 3/13/2020 10:55:37 AM 
Sales Quotation Master Value For Tax_Type Data Completed at 3/13/2020 10:55:37 AM 
Sales Quotation Master Value For Sales_ Rep Data Initiated at 3/13/2020 10:55:37 AM 
Sales Quotation Master Value For Sales_ Rep Data Completed at 3/13/2020 10:55:37 AM 
Sales Quotation Master Value For Opportunity# Data Initiated at 3/13/2020 10:55:37 AM 
Sales Quotation Master Value For Opportunity# Data Completed at 3/13/2020 10:55:37 AM 
Sales Quotation Master Value For Project# Data Initiated at 3/13/2020 10:55:37 AM 
Sales Quotation Master Value For Project# Data Completed at 3/13/2020 10:55:37 AM 
Sales Quotation Master Value For Country Data Initiated at 3/13/2020 10:55:37 AM 
Sales Quotation Master Value For Country Data Completed at 3/13/2020 10:55:37 AM 
Sales Quotation Master Value For State Data Initiated at 3/13/2020 10:55:37 AM 
Sales Quotation Master Value For State Data Completed at 3/13/2020 10:55:37 AM 
Sales Quotation Feilds are Created at 3/13/2020 10:55:38 AM 
Sales Quotation Feilds Creation Completed For SATABLE003 at 3/13/2020 10:55:38 AM 
Sales Quotation Feilds are Created at 3/13/2020 10:55:38 AM 
Sales Quotation Feilds Creation Completed For SATABLE015 at 3/13/2020 10:55:38 AM 
Sales Quotation Feilds are Created at 3/13/2020 10:55:38 AM 
Sales Quotation Feilds Creation Completed For SATABLE016 at 3/13/2020 10:55:38 AM 
Sales Quotation Total Fields Creation Completed at 3/13/2020 10:55:38 AM 
Sales Quotation Process Completed at 3/13/2020 10:55:38 AM 
 3/13/2020 10:55:38 AM
 
***********************TARGET1*********************** 
 
 Line Data Received . 3/13/2020 10:57:37 AM
 
***********************TARGET4*********************** 
 
 Header Data Created for Sales Quotation . 
 
 3/13/2020 10:57:37 AM
 
***********************TARGET7*********************** 
 
 Line Data 0 Created For Sales Quotation . 
 
 3/13/2020 10:57:37 AM
 
***********************TARGET7*********************** 
 
 Line Data 1 Created For Sales Quotation . 
 
 3/13/2020 10:57:37 AM
 
***********************TARGET7*********************** 
 
 Line Data 2 Created For Sales Quotation . 
 
 3/13/2020 10:57:37 AM
 
***********************TARGET7*********************** 
 
 Line Data 3 Created For Sales Quotation . 
 
 3/13/2020 10:57:37 AM
 
***********************TARGET7*********************** 
 
 Line Data 4 Created For Sales Quotation . 
 
 3/13/2020 10:57:37 AM
 
***********************TARGET7*********************** 
 
 Line Data 5 Created For Sales Quotation . 
 
 3/13/2020 10:57:37 AM
 
***********************TARGET7*********************** 
 
 Line Data 6 Created For Sales Quotation . 
 
 3/13/2020 10:57:38 AM
 
***********************TARGET4*********************** 
 
 Header Data Created for Sales Quotation . 
 
 3/13/2020 10:57:38 AM
Sales Quotation Process Initiated at 3/13/2020 11:22:52 AM 
Sales Quotation Tabs are Created at 3/13/2020 11:22:52 AM 
Sales Quotation Master Value For Item Data Initiated at 3/13/2020 11:22:52 AM 
Sales Quotation Master Value For Item Data Completed at 3/13/2020 11:22:52 AM 
Sales Quotation Control Value For Units Data Initiated at 3/13/2020 11:22:52 AM 
Sales Quotation Control Value For Units Data Completed at 3/13/2020 11:22:52 AM 
Sales Quotation Master Value For Tax Data Initiated at 3/13/2020 11:22:52 AM 
Sales Quotation Master Value For Tax Data Completed at 3/13/2020 11:22:52 AM 
Sales Quotation Master Value For Customer Data Initiated at 3/13/2020 11:22:52 AM 
Sales Quotation Master Value For Customer Data Completed at 3/13/2020 11:22:52 AM 
Sales Quotation Master Value For Order_Type Data Initiated at 3/13/2020 11:22:52 AM 
Sales Quotation Master Value For Order_Type Data Completed at 3/13/2020 11:22:52 AM 
Sales Quotation Master Value For Payment_Terms Data Initiated at 3/13/2020 11:22:52 AM 
Sales Quotation Master Value For Payment_Terms Data Completed at 3/13/2020 11:22:52 AM 
Sales Quotation Control Value For Payment_Mode Data Initiated at 3/13/2020 11:22:52 AM 
Sales Quotation Control Value For Payment_Mode Data Completed at 3/13/2020 11:22:52 AM 
Sales Quotation Control Value For GST_Category Data Initiated at 3/13/2020 11:22:52 AM 
Sales Quotation Control Value For GST_Category Data Completed at 3/13/2020 11:22:52 AM 
Sales Quotation Master Value For Place_Of_Supply Data Initiated at 3/13/2020 11:22:52 AM 
Sales Quotation Master Value For Place_Of_Supply Data Completed at 3/13/2020 11:22:52 AM 
Sales Quotation Master Value For Operating_Unit Data Initiated at 3/13/2020 11:22:52 AM 
Sales Quotation Master Value For Operating_Unit Data Completed at 3/13/2020 11:22:52 AM 
Sales Quotation Control Value For Department Data Initiated at 3/13/2020 11:22:52 AM 
Sales Quotation Control Value For Department Data Completed at 3/13/2020 11:22:52 AM 
Sales Quotation Master Value For Tax_Type Data Initiated at 3/13/2020 11:22:52 AM 
Sales Quotation Master Value For Tax_Type Data Completed at 3/13/2020 11:22:52 AM 
Sales Quotation Master Value For Sales_ Rep Data Initiated at 3/13/2020 11:22:52 AM 
Sales Quotation Master Value For Sales_ Rep Data Completed at 3/13/2020 11:22:52 AM 
Sales Quotation Master Value For Opportunity# Data Initiated at 3/13/2020 11:22:52 AM 
Sales Quotation Master Value For Opportunity# Data Completed at 3/13/2020 11:22:52 AM 
Sales Quotation Master Value For Project# Data Initiated at 3/13/2020 11:22:52 AM 
Sales Quotation Master Value For Project# Data Completed at 3/13/2020 11:22:52 AM 
Sales Quotation Master Value For Country Data Initiated at 3/13/2020 11:22:52 AM 
Sales Quotation Master Value For Country Data Completed at 3/13/2020 11:22:52 AM 
Sales Quotation Master Value For State Data Initiated at 3/13/2020 11:22:52 AM 
Sales Quotation Master Value For State Data Completed at 3/13/2020 11:22:52 AM 
Sales Quotation Feilds are Created at 3/13/2020 11:22:52 AM 
Sales Quotation Feilds Creation Completed For SATABLE003 at 3/13/2020 11:22:52 AM 
Sales Quotation Feilds are Created at 3/13/2020 11:22:52 AM 
Sales Quotation Feilds Creation Completed For SATABLE015 at 3/13/2020 11:22:52 AM 
Sales Quotation Feilds are Created at 3/13/2020 11:22:52 AM 
Sales Quotation Feilds Creation Completed For SATABLE016 at 3/13/2020 11:22:52 AM 
Sales Quotation Total Fields Creation Completed at 3/13/2020 11:22:52 AM 
Sales Quotation Process Completed at 3/13/2020 11:22:52 AM 
 3/13/2020 11:22:52 AM
Sales Quotation Process Initiated at 3/13/2020 11:25:16 AM 
Sales Quotation Tabs are Created at 3/13/2020 11:25:16 AM 
Sales Quotation Master Value For Item Data Initiated at 3/13/2020 11:25:16 AM 
Sales Quotation Master Value For Item Data Completed at 3/13/2020 11:25:16 AM 
Sales Quotation Control Value For Units Data Initiated at 3/13/2020 11:25:16 AM 
Sales Quotation Control Value For Units Data Completed at 3/13/2020 11:25:16 AM 
Sales Quotation Master Value For Tax Data Initiated at 3/13/2020 11:25:16 AM 
Sales Quotation Master Value For Tax Data Completed at 3/13/2020 11:25:16 AM 
Sales Quotation Master Value For Customer Data Initiated at 3/13/2020 11:25:16 AM 
Sales Quotation Master Value For Customer Data Completed at 3/13/2020 11:25:16 AM 
Sales Quotation Master Value For Order_Type Data Initiated at 3/13/2020 11:25:16 AM 
Sales Quotation Master Value For Order_Type Data Completed at 3/13/2020 11:25:16 AM 
Sales Quotation Master Value For Payment_Terms Data Initiated at 3/13/2020 11:25:16 AM 
Sales Quotation Master Value For Payment_Terms Data Completed at 3/13/2020 11:25:16 AM 
Sales Quotation Control Value For Payment_Mode Data Initiated at 3/13/2020 11:25:16 AM 
Sales Quotation Control Value For Payment_Mode Data Completed at 3/13/2020 11:25:16 AM 
Sales Quotation Control Value For GST_Category Data Initiated at 3/13/2020 11:25:16 AM 
Sales Quotation Control Value For GST_Category Data Completed at 3/13/2020 11:25:16 AM 
Sales Quotation Master Value For Place_Of_Supply Data Initiated at 3/13/2020 11:25:16 AM 
Sales Quotation Master Value For Place_Of_Supply Data Completed at 3/13/2020 11:25:16 AM 
Sales Quotation Master Value For Operating_Unit Data Initiated at 3/13/2020 11:25:16 AM 
Sales Quotation Master Value For Operating_Unit Data Completed at 3/13/2020 11:25:16 AM 
Sales Quotation Control Value For Department Data Initiated at 3/13/2020 11:25:16 AM 
Sales Quotation Control Value For Department Data Completed at 3/13/2020 11:25:16 AM 
Sales Quotation Master Value For Tax_Type Data Initiated at 3/13/2020 11:25:16 AM 
Sales Quotation Master Value For Tax_Type Data Completed at 3/13/2020 11:25:16 AM 
Sales Quotation Master Value For Sales_ Rep Data Initiated at 3/13/2020 11:25:16 AM 
Sales Quotation Master Value For Sales_ Rep Data Completed at 3/13/2020 11:25:16 AM 
Sales Quotation Master Value For Opportunity# Data Initiated at 3/13/2020 11:25:16 AM 
Sales Quotation Master Value For Opportunity# Data Completed at 3/13/2020 11:25:16 AM 
Sales Quotation Master Value For Project# Data Initiated at 3/13/2020 11:25:16 AM 
Sales Quotation Master Value For Project# Data Completed at 3/13/2020 11:25:16 AM 
Sales Quotation Master Value For Country Data Initiated at 3/13/2020 11:25:16 AM 
Sales Quotation Master Value For Country Data Completed at 3/13/2020 11:25:16 AM 
Sales Quotation Master Value For State Data Initiated at 3/13/2020 11:25:16 AM 
Sales Quotation Master Value For State Data Completed at 3/13/2020 11:25:16 AM 
Sales Quotation Feilds are Created at 3/13/2020 11:25:16 AM 
Sales Quotation Feilds Creation Completed For SATABLE003 at 3/13/2020 11:25:16 AM 
Sales Quotation Feilds are Created at 3/13/2020 11:25:17 AM 
Sales Quotation Feilds Creation Completed For SATABLE015 at 3/13/2020 11:25:17 AM 
Sales Quotation Feilds are Created at 3/13/2020 11:25:17 AM 
Sales Quotation Feilds Creation Completed For SATABLE016 at 3/13/2020 11:25:17 AM 
Sales Quotation Total Fields Creation Completed at 3/13/2020 11:25:17 AM 
Sales Quotation Process Completed at 3/13/2020 11:25:17 AM 
 3/13/2020 11:25:17 AM
Sales Quotation Process Initiated at 3/13/2020 11:27:12 AM 
Sales Quotation Tabs are Created at 3/13/2020 11:27:12 AM 
Sales Quotation Master Value For Item Data Initiated at 3/13/2020 11:27:12 AM 
Sales Quotation Master Value For Item Data Completed at 3/13/2020 11:27:12 AM 
Sales Quotation Control Value For Units Data Initiated at 3/13/2020 11:27:12 AM 
Sales Quotation Control Value For Units Data Completed at 3/13/2020 11:27:12 AM 
Sales Quotation Master Value For Tax Data Initiated at 3/13/2020 11:27:12 AM 
Sales Quotation Master Value For Tax Data Completed at 3/13/2020 11:27:12 AM 
Sales Quotation Master Value For Customer Data Initiated at 3/13/2020 11:27:12 AM 
Sales Quotation Master Value For Customer Data Completed at 3/13/2020 11:27:12 AM 
Sales Quotation Master Value For Order_Type Data Initiated at 3/13/2020 11:27:12 AM 
Sales Quotation Master Value For Order_Type Data Completed at 3/13/2020 11:27:12 AM 
Sales Quotation Master Value For Payment_Terms Data Initiated at 3/13/2020 11:27:12 AM 
Sales Quotation Master Value For Payment_Terms Data Completed at 3/13/2020 11:27:12 AM 
Sales Quotation Control Value For Payment_Mode Data Initiated at 3/13/2020 11:27:12 AM 
Sales Quotation Control Value For Payment_Mode Data Completed at 3/13/2020 11:27:12 AM 
Sales Quotation Control Value For GST_Category Data Initiated at 3/13/2020 11:27:12 AM 
Sales Quotation Control Value For GST_Category Data Completed at 3/13/2020 11:27:12 AM 
Sales Quotation Master Value For Place_Of_Supply Data Initiated at 3/13/2020 11:27:12 AM 
Sales Quotation Master Value For Place_Of_Supply Data Completed at 3/13/2020 11:27:12 AM 
Sales Quotation Master Value For Operating_Unit Data Initiated at 3/13/2020 11:27:12 AM 
Sales Quotation Master Value For Operating_Unit Data Completed at 3/13/2020 11:27:12 AM 
Sales Quotation Control Value For Department Data Initiated at 3/13/2020 11:27:12 AM 
Sales Quotation Control Value For Department Data Completed at 3/13/2020 11:27:12 AM 
Sales Quotation Master Value For Tax_Type Data Initiated at 3/13/2020 11:27:12 AM 
Sales Quotation Master Value For Tax_Type Data Completed at 3/13/2020 11:27:12 AM 
Sales Quotation Master Value For Sales_ Rep Data Initiated at 3/13/2020 11:27:12 AM 
Sales Quotation Master Value For Sales_ Rep Data Completed at 3/13/2020 11:27:12 AM 
Sales Quotation Master Value For Opportunity# Data Initiated at 3/13/2020 11:27:12 AM 
Sales Quotation Master Value For Opportunity# Data Completed at 3/13/2020 11:27:12 AM 
Sales Quotation Master Value For Project# Data Initiated at 3/13/2020 11:27:12 AM 
Sales Quotation Master Value For Project# Data Completed at 3/13/2020 11:27:12 AM 
Sales Quotation Master Value For Country Data Initiated at 3/13/2020 11:27:12 AM 
Sales Quotation Master Value For Country Data Completed at 3/13/2020 11:27:12 AM 
Sales Quotation Master Value For State Data Initiated at 3/13/2020 11:27:12 AM 
Sales Quotation Master Value For State Data Completed at 3/13/2020 11:27:12 AM 
Sales Quotation Feilds are Created at 3/13/2020 11:27:12 AM 
Sales Quotation Feilds Creation Completed For SATABLE003 at 3/13/2020 11:27:12 AM 
Sales Quotation Feilds are Created at 3/13/2020 11:27:12 AM 
Sales Quotation Feilds Creation Completed For SATABLE015 at 3/13/2020 11:27:12 AM 
Sales Quotation Feilds are Created at 3/13/2020 11:27:12 AM 
Sales Quotation Feilds Creation Completed For SATABLE016 at 3/13/2020 11:27:12 AM 
Sales Quotation Total Fields Creation Completed at 3/13/2020 11:27:12 AM 
Sales Quotation Process Completed at 3/13/2020 11:27:12 AM 
 3/13/2020 11:27:12 AM
 
***********************TARGET1*********************** 
 
 Line Data Received . 3/13/2020 11:28:56 AM
 
***********************TARGET4*********************** 
 
 Header Data Created for Sales Quotation . 
 
 3/13/2020 11:28:56 AM
 
***********************TARGET7*********************** 
 
 Line Data 0 Created For Sales Quotation . 
 
 3/13/2020 11:28:56 AM
 
***********************TARGET7*********************** 
 
 Line Data 1 Created For Sales Quotation . 
 
 3/13/2020 11:28:56 AM
 
***********************TARGET7*********************** 
 
 Line Data 2 Created For Sales Quotation . 
 
 3/13/2020 11:28:56 AM
 
***********************TARGET7*********************** 
 
 Line Data 3 Created For Sales Quotation . 
 
 3/13/2020 11:28:56 AM
 
***********************TARGET7*********************** 
 
 Line Data 4 Created For Sales Quotation . 
 
 3/13/2020 11:28:56 AM
 
***********************TARGET7*********************** 
 
 Line Data 5 Created For Sales Quotation . 
 
 3/13/2020 11:28:56 AM
 
***********************TARGET7*********************** 
 
 Line Data 6 Created For Sales Quotation . 
 
 3/13/2020 11:28:56 AM
 
***********************TARGET7*********************** 
 
 Line Data 7 Created For Sales Quotation . 
 
 3/13/2020 11:28:56 AM
 
***********************TARGET7*********************** 
 
 Line Data 8 Created For Sales Quotation . 
 
 3/13/2020 11:28:56 AM
 
***********************TARGET4*********************** 
 
 Header Data Created for Sales Quotation . 
 
 3/13/2020 11:28:57 AM
Sales Quotation Process Initiated at 3/13/2020 12:21:40 PM 
Sales Quotation Tabs are Created at 3/13/2020 12:21:40 PM 
Sales Quotation Master Value For Item Data Initiated at 3/13/2020 12:21:40 PM 
Sales Quotation Master Value For Item Data Completed at 3/13/2020 12:21:40 PM 
Sales Quotation Control Value For Units Data Initiated at 3/13/2020 12:21:40 PM 
Sales Quotation Control Value For Units Data Completed at 3/13/2020 12:21:40 PM 
Sales Quotation Master Value For Tax Data Initiated at 3/13/2020 12:21:40 PM 
Sales Quotation Master Value For Tax Data Completed at 3/13/2020 12:21:40 PM 
Sales Quotation Master Value For Customer Data Initiated at 3/13/2020 12:21:40 PM 
Sales Quotation Master Value For Customer Data Completed at 3/13/2020 12:21:40 PM 
Sales Quotation Master Value For Order_Type Data Initiated at 3/13/2020 12:21:40 PM 
Sales Quotation Master Value For Order_Type Data Completed at 3/13/2020 12:21:40 PM 
Sales Quotation Master Value For Payment_Terms Data Initiated at 3/13/2020 12:21:40 PM 
Sales Quotation Master Value For Payment_Terms Data Completed at 3/13/2020 12:21:40 PM 
Sales Quotation Control Value For Payment_Mode Data Initiated at 3/13/2020 12:21:40 PM 
Sales Quotation Control Value For Payment_Mode Data Completed at 3/13/2020 12:21:40 PM 
Sales Quotation Control Value For GST_Category Data Initiated at 3/13/2020 12:21:40 PM 
Sales Quotation Control Value For GST_Category Data Completed at 3/13/2020 12:21:40 PM 
Sales Quotation Master Value For Place_Of_Supply Data Initiated at 3/13/2020 12:21:40 PM 
Sales Quotation Master Value For Place_Of_Supply Data Completed at 3/13/2020 12:21:40 PM 
Sales Quotation Master Value For Operating_Unit Data Initiated at 3/13/2020 12:21:40 PM 
Sales Quotation Master Value For Operating_Unit Data Completed at 3/13/2020 12:21:40 PM 
Sales Quotation Control Value For Department Data Initiated at 3/13/2020 12:21:40 PM 
Sales Quotation Control Value For Department Data Completed at 3/13/2020 12:21:40 PM 
Sales Quotation Master Value For Tax_Type Data Initiated at 3/13/2020 12:21:40 PM 
Sales Quotation Master Value For Tax_Type Data Completed at 3/13/2020 12:21:40 PM 
Sales Quotation Master Value For Sales_ Rep Data Initiated at 3/13/2020 12:21:40 PM 
Sales Quotation Master Value For Sales_ Rep Data Completed at 3/13/2020 12:21:40 PM 
Sales Quotation Master Value For Opportunity# Data Initiated at 3/13/2020 12:21:40 PM 
Sales Quotation Master Value For Opportunity# Data Completed at 3/13/2020 12:21:40 PM 
Sales Quotation Master Value For Project# Data Initiated at 3/13/2020 12:21:40 PM 
Sales Quotation Master Value For Project# Data Completed at 3/13/2020 12:21:40 PM 
Sales Quotation Master Value For Country Data Initiated at 3/13/2020 12:21:40 PM 
Sales Quotation Master Value For Country Data Completed at 3/13/2020 12:21:40 PM 
Sales Quotation Master Value For State Data Initiated at 3/13/2020 12:21:40 PM 
Sales Quotation Master Value For State Data Completed at 3/13/2020 12:21:40 PM 
Sales Quotation Feilds are Created at 3/13/2020 12:21:40 PM 
Sales Quotation Feilds Creation Completed For SATABLE003 at 3/13/2020 12:21:40 PM 
Sales Quotation Feilds are Created at 3/13/2020 12:21:40 PM 
Sales Quotation Feilds Creation Completed For SATABLE015 at 3/13/2020 12:21:40 PM 
Sales Quotation Feilds are Created at 3/13/2020 12:21:40 PM 
Sales Quotation Feilds Creation Completed For SATABLE016 at 3/13/2020 12:21:40 PM 
Sales Quotation Total Fields Creation Completed at 3/13/2020 12:21:40 PM 
Sales Quotation Process Completed at 3/13/2020 12:21:41 PM 
 3/13/2020 12:21:41 PM
Sales Quotation Process Initiated at 3/13/2020 12:21:45 PM 
Sales Quotation Tabs are Created at 3/13/2020 12:21:45 PM 
Sales Quotation Master Value For Item Data Initiated at 3/13/2020 12:21:45 PM 
Sales Quotation Master Value For Item Data Completed at 3/13/2020 12:21:45 PM 
Sales Quotation Control Value For Units Data Initiated at 3/13/2020 12:21:45 PM 
Sales Quotation Control Value For Units Data Completed at 3/13/2020 12:21:45 PM 
Sales Quotation Master Value For Tax Data Initiated at 3/13/2020 12:21:45 PM 
Sales Quotation Master Value For Tax Data Completed at 3/13/2020 12:21:45 PM 
Sales Quotation Master Value For Customer Data Initiated at 3/13/2020 12:21:45 PM 
Sales Quotation Master Value For Customer Data Completed at 3/13/2020 12:21:45 PM 
Sales Quotation Master Value For Order_Type Data Initiated at 3/13/2020 12:21:45 PM 
Sales Quotation Master Value For Order_Type Data Completed at 3/13/2020 12:21:45 PM 
Sales Quotation Master Value For Payment_Terms Data Initiated at 3/13/2020 12:21:45 PM 
Sales Quotation Master Value For Payment_Terms Data Completed at 3/13/2020 12:21:45 PM 
Sales Quotation Control Value For Payment_Mode Data Initiated at 3/13/2020 12:21:45 PM 
Sales Quotation Control Value For Payment_Mode Data Completed at 3/13/2020 12:21:45 PM 
Sales Quotation Control Value For GST_Category Data Initiated at 3/13/2020 12:21:45 PM 
Sales Quotation Control Value For GST_Category Data Completed at 3/13/2020 12:21:45 PM 
Sales Quotation Master Value For Place_Of_Supply Data Initiated at 3/13/2020 12:21:45 PM 
Sales Quotation Master Value For Place_Of_Supply Data Completed at 3/13/2020 12:21:45 PM 
Sales Quotation Master Value For Operating_Unit Data Initiated at 3/13/2020 12:21:45 PM 
Sales Quotation Master Value For Operating_Unit Data Completed at 3/13/2020 12:21:45 PM 
Sales Quotation Control Value For Department Data Initiated at 3/13/2020 12:21:45 PM 
Sales Quotation Control Value For Department Data Completed at 3/13/2020 12:21:45 PM 
Sales Quotation Master Value For Tax_Type Data Initiated at 3/13/2020 12:21:45 PM 
Sales Quotation Master Value For Tax_Type Data Completed at 3/13/2020 12:21:45 PM 
Sales Quotation Master Value For Sales_ Rep Data Initiated at 3/13/2020 12:21:45 PM 
Sales Quotation Master Value For Sales_ Rep Data Completed at 3/13/2020 12:21:45 PM 
Sales Quotation Master Value For Opportunity# Data Initiated at 3/13/2020 12:21:45 PM 
Sales Quotation Master Value For Opportunity# Data Completed at 3/13/2020 12:21:45 PM 
Sales Quotation Master Value For Project# Data Initiated at 3/13/2020 12:21:45 PM 
Sales Quotation Master Value For Project# Data Completed at 3/13/2020 12:21:45 PM 
Sales Quotation Master Value For Country Data Initiated at 3/13/2020 12:21:45 PM 
Sales Quotation Master Value For Country Data Completed at 3/13/2020 12:21:45 PM 
Sales Quotation Master Value For State Data Initiated at 3/13/2020 12:21:45 PM 
Sales Quotation Master Value For State Data Completed at 3/13/2020 12:21:45 PM 
Sales Quotation Feilds are Created at 3/13/2020 12:21:45 PM 
Sales Quotation Feilds Creation Completed For SATABLE003 at 3/13/2020 12:21:45 PM 
Sales Quotation Feilds are Created at 3/13/2020 12:21:45 PM 
Sales Quotation Feilds Creation Completed For SATABLE015 at 3/13/2020 12:21:45 PM 
Sales Quotation Feilds are Created at 3/13/2020 12:21:45 PM 
Sales Quotation Feilds Creation Completed For SATABLE016 at 3/13/2020 12:21:45 PM 
Sales Quotation Total Fields Creation Completed at 3/13/2020 12:21:45 PM 
Sales Quotation Process Completed at 3/13/2020 12:21:45 PM 
 3/13/2020 12:21:45 PM
 
***********************TARGET1*********************** 
 
 Line Data Received . 3/13/2020 12:22:50 PM
 
***********************TARGET4*********************** 
 
 Header Data Created for Sales Quotation . 
 
 3/13/2020 12:22:51 PM
 
***********************TARGET7*********************** 
 
 Line Data 0 Created For Sales Quotation . 
 
 3/13/2020 12:22:51 PM
 
***********************TARGET7*********************** 
 
 Line Data 1 Created For Sales Quotation . 
 
 3/13/2020 12:22:51 PM
 
***********************TARGET7*********************** 
 
 Line Data 2 Created For Sales Quotation . 
 
 3/13/2020 12:22:51 PM
 
***********************TARGET7*********************** 
 
 Line Data 3 Created For Sales Quotation . 
 
 3/13/2020 12:22:51 PM
 
***********************TARGET7*********************** 
 
 Line Data 4 Created For Sales Quotation . 
 
 3/13/2020 12:22:51 PM
 
***********************TARGET4*********************** 
 
 Header Data Created for Sales Quotation . 
 
 3/13/2020 12:22:51 PM
