
 11/2/2018 10:44:19 AM 11/2/2018 10:44:49 AM
 11/2/2018 10:45:59 AM
 11/2/2018 10:46:29 AM
 11/2/2018 10:46:44 AM
 11/2/2018 10:46:56 AM
 11/2/2018 10:47:18 AM
 11/2/2018 10:49:22 AM
 11/2/2018 10:49:35 AM
 11/2/2018 10:50:09 AM
 11/2/2018 11:01:16 AM
 11/2/2018 11:02:29 AM
 11/2/2018 11:03:12 AM
 11/2/2018 11:03:37 AM
 11/2/2018 11:06:33 AM
 11/2/2018 11:08:37 AM
 11/2/2018 11:09:52 AM
 11/2/2018 11:10:45 AM
 11/2/2018 11:11:51 AM
 11/2/2018 11:14:28 AM
 11/2/2018 11:14:50 AM
 11/2/2018 11:15:02 AM
 11/2/2018 11:15:16 AM
 11/2/2018 11:16:14 AM
 11/2/2018 11:16:43 AM
 11/2/2018 11:17:26 AM
 11/2/2018 11:18:47 AM
 11/2/2018 11:19:00 AM
 11/2/2018 11:19:15 AM
 11/2/2018 11:19:22 AM
 11/2/2018 11:19:31 AM
 11/2/2018 11:19:55 AM
 11/2/2018 11:20:09 AM
 11/2/2018 3:39:27 PM
 11/2/2018 3:39:54 PM
 11/2/2018 3:40:09 PM
 11/2/2018 3:40:27 PM
 11/2/2018 3:40:48 PM
 11/2/2018 3:40:58 PM
 11/2/2018 3:42:16 PM
 11/2/2018 3:42:30 PM
 11/2/2018 3:43:09 PM
 11/2/2018 3:43:52 PM
 11/2/2018 3:44:19 PM
 11/2/2018 3:45:00 PM
 11/2/2018 3:45:52 PM
 11/2/2018 3:46:00 PM
 11/2/2018 3:46:14 PM
 11/2/2018 3:47:41 PM
 11/2/2018 3:47:54 PM
 11/2/2018 3:51:17 PM
 11/2/2018 3:51:29 PM
 11/2/2018 3:52:02 PM
 11/2/2018 3:52:13 PM
 11/2/2018 3:52:22 PM
 11/2/2018 3:56:12 PM
 11/2/2018 3:56:52 PM
 11/2/2018 3:57:04 PM
 11/2/2018 3:57:17 PM
 11/2/2018 3:57:32 PM
 11/2/2018 3:57:45 PM
 11/2/2018 3:58:15 PM
 11/2/2018 3:58:34 PM
 11/2/2018 3:58:57 PM
 11/2/2018 3:59:07 PM
 11/2/2018 3:59:17 PM
 11/2/2018 3:59:27 PM
 11/2/2018 4:00:38 PM
 11/2/2018 4:00:50 PM
 11/2/2018 4:01:00 PM
 11/2/2018 4:01:10 PM
 11/2/2018 4:01:25 PM
 11/2/2018 4:01:36 PM
 11/2/2018 4:01:50 PM
 11/2/2018 4:02:05 PM
 11/2/2018 4:02:15 PM
 11/2/2018 4:03:46 PM
 11/2/2018 4:03:58 PM
 11/2/2018 4:05:04 PM
 11/2/2018 4:05:12 PM
 11/2/2018 4:05:37 PM
 11/2/2018 4:06:38 PM
 11/2/2018 4:16:38 PM
 11/2/2018 4:16:45 PM
 11/2/2018 4:16:57 PM
 11/2/2018 4:17:12 PM
 11/2/2018 4:17:34 PM
 11/2/2018 4:17:39 PM
 11/2/2018 4:18:52 PM
 11/2/2018 4:19:06 PM
 11/2/2018 4:19:16 PM
 11/2/2018 4:19:22 PM
 11/2/2018 4:19:59 PM
 11/2/2018 4:20:04 PM
 11/2/2018 4:21:21 PM
 11/2/2018 4:21:29 PM
 11/2/2018 4:22:03 PM
 11/2/2018 4:22:16 PM
 11/2/2018 4:22:43 PM
 11/2/2018 4:22:53 PM
 11/2/2018 4:23:24 PM
 11/2/2018 4:23:38 PM
 11/2/2018 4:23:50 PM
 11/2/2018 4:23:59 PM
 11/2/2018 4:24:10 PM
 11/2/2018 4:24:16 PM
 11/2/2018 4:25:08 PM
 11/2/2018 4:25:35 PM
 11/2/2018 4:25:50 PM
 11/2/2018 4:26:05 PM
 11/2/2018 4:26:23 PM
 11/2/2018 4:26:32 PM
 11/2/2018 4:27:02 PM
 11/2/2018 4:27:14 PM
 11/2/2018 4:27:41 PM
 11/2/2018 4:27:58 PM
 11/2/2018 4:28:13 PM
 11/2/2018 4:28:21 PM
 11/2/2018 4:28:32 PM
 11/2/2018 4:28:40 PM
 11/2/2018 4:28:49 PM
 11/2/2018 4:29:03 PM
 11/2/2018 4:29:15 PM
 11/2/2018 4:29:25 PM
 11/2/2018 4:29:56 PM
 11/2/2018 4:31:04 PM
 11/2/2018 4:31:48 PM
 11/2/2018 4:32:25 PM
 11/2/2018 4:32:41 PM
 11/2/2018 4:32:57 PM
 11/2/2018 4:33:06 PM
 11/2/2018 4:33:49 PM
 11/2/2018 4:33:57 PM
 11/2/2018 4:34:42 PM
 11/2/2018 4:35:13 PM
 11/2/2018 4:35:35 PM
 11/2/2018 4:35:49 PM
 11/2/2018 4:36:25 PM
 11/2/2018 4:36:42 PM
 11/2/2018 4:36:53 PM
 11/2/2018 4:37:08 PM
