
Inventory Adjustments Process Initiated at 11/2/2018 4:03:52 PM 
Inventory Adjustments Tabs are Created at 11/2/2018 4:03:52 PM 
Inventory Adjustments Master Value For Items Data Initiated at 11/2/2018 4:03:52 PM 
Inventory Adjustments Master Value For Items Data Completed at 11/2/2018 4:03:52 PM 
Inventory Adjustments Control Value For Units Data Initiated at 11/2/2018 4:03:52 PM 
Inventory Adjustments Control Value For Units Data Completed at 11/2/2018 4:03:52 PM 
Inventory Adjustments Master Value For Lot# Data Initiated at 11/2/2018 4:03:52 PM 
Inventory Adjustments Master Value For Lot# Data Completed at 11/2/2018 4:03:52 PM 
Inventory Adjustments Master Value For Adjustment_Account Data Initiated at 11/2/2018 4:03:52 PM 
Inventory Adjustments Master Value For Adjustment_Account Data Completed at 11/2/2018 4:03:52 PM 
Inventory Adjustments Control Value For Reason_Code Data Initiated at 11/2/2018 4:03:52 PM 
Inventory Adjustments Control Value For Reason_Code Data Completed at 11/2/2018 4:03:52 PM 
Inventory Adjustments Control Value For Department Data Initiated at 11/2/2018 4:03:52 PM 
Inventory Adjustments Control Value For Department Data Completed at 11/2/2018 4:03:52 PM 
Inventory Adjustments Master Value For Operating_Unit Data Initiated at 11/2/2018 4:03:52 PM 
Inventory Adjustments Master Value For Operating_Unit Data Completed at 11/2/2018 4:03:52 PM 
Inventory Adjustments Master Value For Location Data Initiated at 11/2/2018 4:03:52 PM 
Inventory Adjustments Master Value For Location Data Completed at 11/2/2018 4:03:52 PM 
Inventory Adjustments Master Value For Project# Data Initiated at 11/2/2018 4:03:52 PM 
Inventory Adjustments Master Value For Project# Data Completed at 11/2/2018 4:03:52 PM 
Inventory Adjustments Master Value For Subsidary Data Initiated at 11/2/2018 4:03:52 PM 
Inventory Adjustments Master Value For Subsidary Data Completed at 11/2/2018 4:03:52 PM 
Inventory Adjustments Control Value For Class Data Initiated at 11/2/2018 4:03:52 PM 
Inventory Adjustments Control Value For Class Data Completed at 11/2/2018 4:03:53 PM 
Inventory Adjustments Feilds are Created at 11/2/2018 4:03:53 PM 
Inventory Adjustments Feilds Creation Completed For FITABLE014 at 11/2/2018 4:03:53 PM 
Inventory Adjustments Feilds are Created at 11/2/2018 4:03:54 PM 
Inventory Adjustments Feilds Creation Completed For FITABLE015 at 11/2/2018 4:03:54 PM 
Inventory Adjustments Total Fields Creation Completed at 11/2/2018 4:03:54 PM 
Inventory Adjustments Process Completed at 11/2/2018 4:03:54 PM 
 11/2/2018 4:03:54 PM 
***********************TARGET1*********************** 
 
 Line Data Received . 11/2/2018 4:04:55 PM
 
***********************TARGET4*********************** 
 
 Header Data Created for Inventory Adjustments . 
 
 11/2/2018 4:04:57 PM
 
***********************TARGET7*********************** 
 
 Line Data 0 Created For Inventory Adjustments . 
 
 11/2/2018 4:05:00 PM
 
***********************TARGET7*********************** 
 
 Line Data 1 Created For Inventory Adjustments . 
 
 11/2/2018 4:05:00 PM
 
***********************TARGET1*********************** 
 
 Line Data Received . 11/2/2018 4:16:06 PM
 
***********************TARGET4*********************** 
 
 Header Data Updated for Inventory Adjustments . 
 
 11/2/2018 4:16:30 PM
 
***********************TARGET7*********************** 
 
 Line Data 0 Updated For Inventory Adjustments . 
 
 11/2/2018 4:16:31 PM
 
***********************TARGET7*********************** 
 
 Line Data 1 Updated For Inventory Adjustments . 
 
 11/2/2018 4:16:31 PM
 
***********************TARGET1*********************** 
 
 Line Data Received . 11/2/2018 4:17:27 PM
 
***********************TARGET4*********************** 
 
 Header Data Updated for Inventory Adjustments . 
 
 11/2/2018 4:17:29 PM
 
***********************TARGET7*********************** 
 
 Line Data 0 Updated For Inventory Adjustments . 
 
 11/2/2018 4:17:29 PM
 
***********************TARGET7*********************** 
 
 Line Data 1 Updated For Inventory Adjustments . 
 
 11/2/2018 4:17:30 PM
Inventory Adjustments Process Initiated at 11/2/2018 4:32:58 PM 
Inventory Adjustments Tabs are Created at 11/2/2018 4:32:59 PM 
Inventory Adjustments Master Value For Items Data Initiated at 11/2/2018 4:32:59 PM 
Inventory Adjustments Master Value For Items Data Completed at 11/2/2018 4:32:59 PM 
Inventory Adjustments Control Value For Units Data Initiated at 11/2/2018 4:32:59 PM 
Inventory Adjustments Control Value For Units Data Completed at 11/2/2018 4:32:59 PM 
Inventory Adjustments Master Value For Lot# Data Initiated at 11/2/2018 4:32:59 PM 
Inventory Adjustments Master Value For Lot# Data Completed at 11/2/2018 4:32:59 PM 
Inventory Adjustments Master Value For Adjustment_Account Data Initiated at 11/2/2018 4:32:59 PM 
Inventory Adjustments Master Value For Adjustment_Account Data Completed at 11/2/2018 4:32:59 PM 
Inventory Adjustments Control Value For Reason_Code Data Initiated at 11/2/2018 4:32:59 PM 
Inventory Adjustments Control Value For Reason_Code Data Completed at 11/2/2018 4:32:59 PM 
Inventory Adjustments Control Value For Department Data Initiated at 11/2/2018 4:32:59 PM 
Inventory Adjustments Control Value For Department Data Completed at 11/2/2018 4:32:59 PM 
Inventory Adjustments Master Value For Operating_Unit Data Initiated at 11/2/2018 4:32:59 PM 
Inventory Adjustments Master Value For Operating_Unit Data Completed at 11/2/2018 4:32:59 PM 
Inventory Adjustments Master Value For Location Data Initiated at 11/2/2018 4:32:59 PM 
Inventory Adjustments Master Value For Location Data Completed at 11/2/2018 4:32:59 PM 
Inventory Adjustments Master Value For Project# Data Initiated at 11/2/2018 4:32:59 PM 
Inventory Adjustments Master Value For Project# Data Completed at 11/2/2018 4:32:59 PM 
Inventory Adjustments Master Value For Subsidary Data Initiated at 11/2/2018 4:32:59 PM 
Inventory Adjustments Master Value For Subsidary Data Completed at 11/2/2018 4:32:59 PM 
Inventory Adjustments Control Value For Class Data Initiated at 11/2/2018 4:32:59 PM 
Inventory Adjustments Control Value For Class Data Completed at 11/2/2018 4:32:59 PM 
Inventory Adjustments Feilds are Created at 11/2/2018 4:32:59 PM 
Inventory Adjustments Feilds Creation Completed For FITABLE014 at 11/2/2018 4:32:59 PM 
Inventory Adjustments Feilds are Created at 11/2/2018 4:32:59 PM 
Inventory Adjustments Feilds Creation Completed For FITABLE015 at 11/2/2018 4:32:59 PM 
Inventory Adjustments Total Fields Creation Completed at 11/2/2018 4:32:59 PM 
Inventory Adjustments Process Completed at 11/2/2018 4:32:59 PM 
 11/2/2018 4:32:59 PM
 
***********************TARGET1*********************** 
 
 Line Data Received . 11/2/2018 4:33:42 PM
 
***********************TARGET4*********************** 
 
 Header Data Created for Inventory Adjustments . 
 
 11/2/2018 4:33:44 PM
 
***********************TARGET7*********************** 
 
 Line Data 0 Created For Inventory Adjustments . 
 
 11/2/2018 4:33:44 PM
 
***********************TARGET7*********************** 
 
 Line Data 1 Created For Inventory Adjustments . 
 
 11/2/2018 4:33:44 PM
 
***********************TARGET1*********************** 
 
 Line Data Received . 11/2/2018 4:35:28 PM
 
***********************TARGET4*********************** 
 
 Header Data Updated for Inventory Adjustments . 
 
 11/2/2018 4:35:29 PM
 
***********************TARGET7*********************** 
 
 Line Data 0 Updated For Inventory Adjustments . 
 
 11/2/2018 4:35:30 PM
 
***********************TARGET7*********************** 
 
 Line Data 1 Updated For Inventory Adjustments . 
 
 11/2/2018 4:35:30 PM
