
Project Process Initiated at 10/13/2018 10:59:37 AM 
Project Tabs are Created at 10/13/2018 10:59:38 AM 
Project Master Value For Project_Work_Order Data Initiated at 10/13/2018 10:59:38 AM 
Project Master Value For Project_Work_Order Data Completed at 10/13/2018 10:59:38 AM 
Project Control Value For MS_Status Data Initiated at 10/13/2018 10:59:38 AM 
Project Control Value For MS_Status Data Completed at 10/13/2018 10:59:38 AM 
Project Master Value For Customer Data Initiated at 10/13/2018 10:59:38 AM 
Project Master Value For Customer Data Completed at 10/13/2018 10:59:38 AM 
Project Control Value For Status Data Initiated at 10/13/2018 10:59:38 AM 
Project Control Value For Status Data Completed at 10/13/2018 10:59:38 AM 
Project Control Value For Billing_Type Data Initiated at 10/13/2018 10:59:38 AM 
Project Control Value For Billing_Type Data Completed at 10/13/2018 10:59:38 AM 
Project Control Value For Deparment Data Initiated at 10/13/2018 10:59:38 AM 
Project Control Value For Deparment Data Completed at 10/13/2018 10:59:38 AM 
Project Master Value For Operating_Unit Data Initiated at 10/13/2018 10:59:38 AM 
Project Master Value For Operating_Unit Data Completed at 10/13/2018 10:59:38 AM 
Project Master Value For Country Data Initiated at 10/13/2018 10:59:38 AM 
Project Master Value For Country Data Completed at 10/13/2018 10:59:38 AM 
Project Master Value For State Data Initiated at 10/13/2018 10:59:38 AM 
Project Master Value For State Data Completed at 10/13/2018 10:59:39 AM 
Project Feilds are Created at 10/13/2018 10:59:39 AM 
Project Feilds Creation Completed For SATABLE003 at 10/13/2018 10:59:39 AM 
Project Feilds are Created at 10/13/2018 10:59:39 AM 
Project Feilds Creation Completed For PRTABLE001 at 10/13/2018 10:59:39 AM 
Project Feilds are Created at 10/13/2018 10:59:39 AM 
Project Feilds Creation Completed For PRTABLE002 at 10/13/2018 10:59:39 AM 
Project Total Fields Creation Completed at 10/13/2018 10:59:39 AM 
Project Process Completed at 10/13/2018 10:59:39 AM 
 10/13/2018 10:59:39 AM