
NOAUTH Authentication required., sPort: 7024, LastCommand:  7/30/2019 4:36:58 PMNOAUTH Authentication required., sPort: 7155, LastCommand:  7/30/2019 5:22:22 PM
NOAUTH Authentication required., sPort: 1096, LastCommand:  7/30/2019 6:03:15 PM
