
 9/24/2018 11:24:20 AM 9/24/2018 11:24:29 AM
 9/24/2018 11:24:42 AM
 9/24/2018 11:24:57 AM
 9/24/2018 11:25:03 AM
 9/24/2018 11:28:10 AM
 9/24/2018 11:28:15 AM
 9/24/2018 11:28:50 AM
 9/24/2018 11:28:55 AM
 9/24/2018 11:29:56 AM
 9/24/2018 11:33:34 AM
 9/24/2018 11:34:41 AM
 9/24/2018 11:35:34 AM
 9/24/2018 11:35:55 AM
 9/24/2018 11:37:35 AM
 9/24/2018 11:45:52 AM
 9/24/2018 11:46:05 AM
 9/24/2018 12:36:46 PM
 9/24/2018 12:37:00 PM
 9/24/2018 12:37:07 PM
 9/24/2018 12:37:13 PM
