
Item Issue Process Initiated at 7/4/2019 12:11:03 PM 
Item Issue Tabs are Created at 7/4/2019 12:11:03 PM 
Item Issue Master Value For Customer Data Initiated at 7/4/2019 12:11:03 PM 
Item Issue Master Value For Customer Data Completed at 7/4/2019 12:11:03 PM 
Item Issue Master Value For Order_Type Data Initiated at 7/4/2019 12:11:03 PM 
Item Issue Master Value For Order_Type Data Completed at 7/4/2019 12:11:03 PM 
Item Issue Master Value For Sales_Order# Data Initiated at 7/4/2019 12:11:03 PM 
Item Issue Master Value For Sales_Order# Data Completed at 7/4/2019 12:11:03 PM 
Item Issue Master Value For Item Data Initiated at 7/4/2019 12:11:03 PM 
Item Issue Master Value For Item Data Completed at 7/4/2019 12:11:03 PM 
Item Issue Control Value For Units Data Initiated at 7/4/2019 12:11:03 PM 
Item Issue Control Value For Units Data Completed at 7/4/2019 12:11:03 PM 
Item Issue Master Value For Lot# Data Initiated at 7/4/2019 12:11:03 PM 
Item Issue Master Value For Lot# Data Completed at 7/4/2019 12:11:03 PM 
Item Issue Master Value For Location Data Initiated at 7/4/2019 12:11:03 PM 
Item Issue Master Value For Location Data Completed at 7/4/2019 12:11:03 PM 
Item Issue Control Value For GST_Category Data Initiated at 7/4/2019 12:11:03 PM 
Item Issue Control Value For GST_Category Data Completed at 7/4/2019 12:11:03 PM 
Item Issue Master Value For Place_Of_Supply Data Initiated at 7/4/2019 12:11:03 PM 
Item Issue Master Value For Place_Of_Supply Data Completed at 7/4/2019 12:11:03 PM 
Item Issue Master Value For Project# Data Initiated at 7/4/2019 12:11:03 PM 
Item Issue Master Value For Project# Data Completed at 7/4/2019 12:11:03 PM 
Item Issue Master Value For Operating_Unit Data Initiated at 7/4/2019 12:11:03 PM 
Item Issue Master Value For Operating_Unit Data Completed at 7/4/2019 12:11:03 PM 
Item Issue Master Value For Location_ Data Initiated at 7/4/2019 12:11:03 PM 
Item Issue Master Value For Location_ Data Completed at 7/4/2019 12:11:03 PM 
Item Issue Control Value For Department Data Initiated at 7/4/2019 12:11:03 PM 
Item Issue Control Value For Department Data Completed at 7/4/2019 12:11:03 PM 
Item Issue Control Value For Payment_Terms Data Initiated at 7/4/2019 12:11:03 PM 
Item Issue Control Value For Payment_Terms Data Completed at 7/4/2019 12:11:03 PM 
Item Issue Control Value For Payment_Mode Data Initiated at 7/4/2019 12:11:03 PM 
Item Issue Control Value For Payment_Mode Data Completed at 7/4/2019 12:11:03 PM 
Item Issue Master Value For Subsidary Data Initiated at 7/4/2019 12:11:03 PM 
Item Issue Master Value For Subsidary Data Completed at 7/4/2019 12:11:03 PM 
Item Issue Control Value For Classification Data Initiated at 7/4/2019 12:11:03 PM 
Item Issue Control Value For Classification Data Completed at 7/4/2019 12:11:03 PM 
Item Issue Feilds are Created at 7/4/2019 12:11:03 PM 
Item Issue Feilds Creation Completed For SATABLE007 at 7/4/2019 12:11:03 PM 
Item Issue Feilds are Created at 7/4/2019 12:11:03 PM 
Item Issue Feilds Creation Completed For SATABLE008 at 7/4/2019 12:11:03 PM 
Item Issue Total Fields Creation Completed at 7/4/2019 12:11:03 PM 
Item Issue Process Completed at 7/4/2019 12:11:03 PM 
 7/4/2019 12:11:03 PM 
***********************TARGET1*********************** 
 
 Line Data Received . 7/4/2019 12:11:13 PM
 
***********************TARGET4*********************** 
 
 Header Data Created for Item Issue . 
 
 7/4/2019 12:11:13 PM
 
***********************TARGET7*********************** 
 
 Line Data 0 Created For Item Issue . 
 
 7/4/2019 12:11:14 PM
 
***********************TARGET7*********************** 
 
 Line Data 1 Created For Item Issue . 
 
 7/4/2019 12:11:14 PM
 
***********************TARGET7*********************** 
 
 Line Data 2 Created For Item Issue . 
 
 7/4/2019 12:11:14 PM
 
***********************TARGET7*********************** 
 
 Line Data 3 Created For Item Issue . 
 
 7/4/2019 12:11:14 PM
 
***********************TARGET7*********************** 
 
 Line Data 4 Created For Item Issue . 
 
 7/4/2019 12:11:14 PM
 
***********************TARGET7*********************** 
 
 Line Data 5 Created For Item Issue . 
 
 7/4/2019 12:11:15 PM
Item Issue Process Initiated at 7/4/2019 12:19:26 PM 
Item Issue Tabs are Created at 7/4/2019 12:19:26 PM 
Item Issue Master Value For Customer Data Initiated at 7/4/2019 12:19:26 PM 
Item Issue Master Value For Customer Data Completed at 7/4/2019 12:19:26 PM 
Item Issue Master Value For Order_Type Data Initiated at 7/4/2019 12:19:26 PM 
Item Issue Master Value For Order_Type Data Completed at 7/4/2019 12:19:26 PM 
Item Issue Master Value For Sales_Order# Data Initiated at 7/4/2019 12:19:26 PM 
Item Issue Master Value For Sales_Order# Data Completed at 7/4/2019 12:19:26 PM 
Item Issue Master Value For Item Data Initiated at 7/4/2019 12:19:26 PM 
Item Issue Master Value For Item Data Completed at 7/4/2019 12:19:26 PM 
Item Issue Control Value For Units Data Initiated at 7/4/2019 12:19:26 PM 
Item Issue Control Value For Units Data Completed at 7/4/2019 12:19:26 PM 
Item Issue Master Value For Lot# Data Initiated at 7/4/2019 12:19:26 PM 
Item Issue Master Value For Lot# Data Completed at 7/4/2019 12:19:26 PM 
Item Issue Master Value For Location Data Initiated at 7/4/2019 12:19:26 PM 
Item Issue Master Value For Location Data Completed at 7/4/2019 12:19:26 PM 
Item Issue Control Value For GST_Category Data Initiated at 7/4/2019 12:19:26 PM 
Item Issue Control Value For GST_Category Data Completed at 7/4/2019 12:19:26 PM 
Item Issue Master Value For Place_Of_Supply Data Initiated at 7/4/2019 12:19:26 PM 
Item Issue Master Value For Place_Of_Supply Data Completed at 7/4/2019 12:19:26 PM 
Item Issue Master Value For Project# Data Initiated at 7/4/2019 12:19:26 PM 
Item Issue Master Value For Project# Data Completed at 7/4/2019 12:19:26 PM 
Item Issue Master Value For Operating_Unit Data Initiated at 7/4/2019 12:19:26 PM 
Item Issue Master Value For Operating_Unit Data Completed at 7/4/2019 12:19:26 PM 
Item Issue Master Value For Location_ Data Initiated at 7/4/2019 12:19:26 PM 
Item Issue Master Value For Location_ Data Completed at 7/4/2019 12:19:26 PM 
Item Issue Control Value For Department Data Initiated at 7/4/2019 12:19:26 PM 
Item Issue Control Value For Department Data Completed at 7/4/2019 12:19:26 PM 
Item Issue Control Value For Payment_Terms Data Initiated at 7/4/2019 12:19:26 PM 
Item Issue Control Value For Payment_Terms Data Completed at 7/4/2019 12:19:26 PM 
Item Issue Control Value For Payment_Mode Data Initiated at 7/4/2019 12:19:26 PM 
Item Issue Control Value For Payment_Mode Data Completed at 7/4/2019 12:19:26 PM 
Item Issue Master Value For Subsidary Data Initiated at 7/4/2019 12:19:26 PM 
Item Issue Master Value For Subsidary Data Completed at 7/4/2019 12:19:26 PM 
Item Issue Control Value For Classification Data Initiated at 7/4/2019 12:19:26 PM 
Item Issue Control Value For Classification Data Completed at 7/4/2019 12:19:26 PM 
Item Issue Feilds are Created at 7/4/2019 12:19:26 PM 
Item Issue Feilds Creation Completed For SATABLE007 at 7/4/2019 12:19:26 PM 
Item Issue Feilds are Created at 7/4/2019 12:19:26 PM 
Item Issue Feilds Creation Completed For SATABLE008 at 7/4/2019 12:19:26 PM 
Item Issue Total Fields Creation Completed at 7/4/2019 12:19:26 PM 
Item Issue Process Completed at 7/4/2019 12:19:26 PM 
 7/4/2019 12:19:26 PM
Item Issue Process Initiated at 7/4/2019 12:20:47 PM 
Item Issue Tabs are Created at 7/4/2019 12:20:47 PM 
Item Issue Master Value For Customer Data Initiated at 7/4/2019 12:20:47 PM 
Item Issue Master Value For Customer Data Completed at 7/4/2019 12:20:47 PM 
Item Issue Master Value For Order_Type Data Initiated at 7/4/2019 12:20:47 PM 
Item Issue Master Value For Order_Type Data Completed at 7/4/2019 12:20:47 PM 
Item Issue Master Value For Sales_Order# Data Initiated at 7/4/2019 12:20:47 PM 
Item Issue Master Value For Sales_Order# Data Completed at 7/4/2019 12:20:47 PM 
Item Issue Master Value For Item Data Initiated at 7/4/2019 12:20:47 PM 
Item Issue Master Value For Item Data Completed at 7/4/2019 12:20:47 PM 
Item Issue Control Value For Units Data Initiated at 7/4/2019 12:20:47 PM 
Item Issue Control Value For Units Data Completed at 7/4/2019 12:20:47 PM 
Item Issue Master Value For Lot# Data Initiated at 7/4/2019 12:20:47 PM 
Item Issue Master Value For Lot# Data Completed at 7/4/2019 12:20:47 PM 
Item Issue Master Value For Location Data Initiated at 7/4/2019 12:20:47 PM 
Item Issue Master Value For Location Data Completed at 7/4/2019 12:20:47 PM 
Item Issue Control Value For GST_Category Data Initiated at 7/4/2019 12:20:47 PM 
Item Issue Control Value For GST_Category Data Completed at 7/4/2019 12:20:47 PM 
Item Issue Master Value For Place_Of_Supply Data Initiated at 7/4/2019 12:20:47 PM 
Item Issue Master Value For Place_Of_Supply Data Completed at 7/4/2019 12:20:47 PM 
Item Issue Master Value For Project# Data Initiated at 7/4/2019 12:20:47 PM 
Item Issue Master Value For Project# Data Completed at 7/4/2019 12:20:47 PM 
Item Issue Master Value For Operating_Unit Data Initiated at 7/4/2019 12:20:47 PM 
Item Issue Master Value For Operating_Unit Data Completed at 7/4/2019 12:20:47 PM 
Item Issue Master Value For Location_ Data Initiated at 7/4/2019 12:20:47 PM 
Item Issue Master Value For Location_ Data Completed at 7/4/2019 12:20:47 PM 
Item Issue Control Value For Department Data Initiated at 7/4/2019 12:20:47 PM 
Item Issue Control Value For Department Data Completed at 7/4/2019 12:20:47 PM 
Item Issue Control Value For Payment_Terms Data Initiated at 7/4/2019 12:20:47 PM 
Item Issue Control Value For Payment_Terms Data Completed at 7/4/2019 12:20:47 PM 
Item Issue Control Value For Payment_Mode Data Initiated at 7/4/2019 12:20:47 PM 
Item Issue Control Value For Payment_Mode Data Completed at 7/4/2019 12:20:47 PM 
Item Issue Master Value For Subsidary Data Initiated at 7/4/2019 12:20:47 PM 
Item Issue Master Value For Subsidary Data Completed at 7/4/2019 12:20:47 PM 
Item Issue Control Value For Classification Data Initiated at 7/4/2019 12:20:47 PM 
Item Issue Control Value For Classification Data Completed at 7/4/2019 12:20:47 PM 
Item Issue Feilds are Created at 7/4/2019 12:20:47 PM 
Item Issue Feilds Creation Completed For SATABLE007 at 7/4/2019 12:20:47 PM 
Item Issue Feilds are Created at 7/4/2019 12:20:47 PM 
Item Issue Feilds Creation Completed For SATABLE008 at 7/4/2019 12:20:47 PM 
Item Issue Total Fields Creation Completed at 7/4/2019 12:20:47 PM 
Item Issue Process Completed at 7/4/2019 12:20:47 PM 
 7/4/2019 12:20:47 PM
 
***********************TARGET1*********************** 
 
 Line Data Received . 7/4/2019 12:20:58 PM
 
***********************TARGET4*********************** 
 
 Header Data Created for Item Issue . 
 
 7/4/2019 12:21:00 PM
 
***********************TARGET7*********************** 
 
 Line Data 0 Created For Item Issue . 
 
 7/4/2019 12:21:00 PM
 
***********************TARGET7*********************** 
 
 Line Data 1 Created For Item Issue . 
 
 7/4/2019 12:21:00 PM
 
***********************TARGET7*********************** 
 
 Line Data 2 Created For Item Issue . 
 
 7/4/2019 12:21:00 PM
 
***********************TARGET7*********************** 
 
 Line Data 3 Created For Item Issue . 
 
 7/4/2019 12:21:00 PM
 
***********************TARGET7*********************** 
 
 Line Data 4 Created For Item Issue . 
 
 7/4/2019 12:21:00 PM
 
***********************TARGET7*********************** 
 
 Line Data 5 Created For Item Issue . 
 
 7/4/2019 12:21:01 PM
