
NOAUTH Authentication required., sPort: 54212, LastCommand:  7/4/2019 11:46:35 AMNOAUTH Authentication required., sPort: 63114, LastCommand:  7/4/2019 11:48:03 AM
NOAUTH Authentication required., sPort: 12419, LastCommand:  7/4/2019 12:26:14 PM
NOAUTH Authentication required., sPort: 26711, LastCommand:  7/4/2019 2:08:30 PM
NOAUTH Authentication required., sPort: 21430, LastCommand:  7/4/2019 2:49:27 PM
NOAUTH Authentication required., sPort: 26644, LastCommand:  7/4/2019 3:11:01 PM
