
NOAUTH Authentication required., sPort: 49919, LastCommand:  7/4/2019 11:45:57 AMNOAUTH Authentication required., sPort: 65457, LastCommand:  7/4/2019 12:08:58 PM
NOAUTH Authentication required., sPort: 5434, LastCommand:  7/4/2019 12:24:47 PM
NOAUTH Authentication required., sPort: 64526, LastCommand:  7/4/2019 12:34:01 PM
NOAUTH Authentication required., sPort: 8331, LastCommand:  7/4/2019 12:35:10 PM
