
 1/4/2019 10:16:55 AM 1/4/2019 10:22:13 AM
 1/4/2019 10:22:21 AM
 1/4/2019 10:22:25 AM
 1/4/2019 10:23:39 AM
 1/4/2019 10:27:15 AM
 1/4/2019 10:27:18 AM
 1/4/2019 10:27:47 AM
 1/4/2019 10:43:13 AM
 1/4/2019 10:44:39 AM
 1/4/2019 5:21:19 PM
 1/4/2019 5:22:08 PM
 1/4/2019 5:27:57 PM
 1/4/2019 6:04:46 PM
 1/4/2019 6:04:53 PM
