
 04/30/2020 8:31:19 AM 04/30/2020 8:31:27 AM
 04/30/2020 8:32:10 AM
 04/30/2020 8:32:15 AM
 04/30/2020 8:32:26 AM
 04/30/2020 8:32:31 AM
 04/30/2020 8:33:19 AM
 04/30/2020 8:33:31 AM
 04/30/2020 8:34:51 AM
 04/30/2020 8:35:07 AM
 04/30/2020 8:35:13 AM
 04/30/2020 8:35:31 AM
 04/30/2020 8:35:37 AM
 04/30/2020 8:36:23 AM
 04/30/2020 8:37:47 AM
 04/30/2020 8:37:53 AM
 04/30/2020 8:38:19 AM
 04/30/2020 8:39:15 AM
 04/30/2020 8:39:21 AM
 04/30/2020 8:40:02 AM
 04/30/2020 8:47:19 AM
 04/30/2020 8:47:22 AM
 04/30/2020 10:06:23 AM
 04/30/2020 10:13:02 AM
 04/30/2020 10:13:15 AM
 04/30/2020 10:13:24 AM
 04/30/2020 10:24:43 AM
 04/30/2020 10:25:01 AM
 04/30/2020 10:25:09 AM
 04/30/2020 10:25:12 AM
 04/30/2020 10:25:31 AM
 04/30/2020 10:25:37 AM
 04/30/2020 10:47:43 AM
 04/30/2020 10:47:48 AM
 04/30/2020 10:48:20 AM
 04/30/2020 10:49:10 AM
 04/30/2020 10:52:04 AM
 04/30/2020 10:52:06 AM
 04/30/2020 10:52:10 AM
 04/30/2020 10:52:14 AM
 04/30/2020 10:52:18 AM
 04/30/2020 10:52:23 AM
 04/30/2020 10:52:29 AM
 04/30/2020 10:52:34 AM
 04/30/2020 10:53:15 AM
 04/30/2020 10:53:37 AM
 04/30/2020 10:53:50 AM
 04/30/2020 11:07:32 AM
 04/30/2020 11:07:39 AM
 04/30/2020 11:07:43 AM
 04/30/2020 11:07:48 AM
 04/30/2020 11:07:52 AM
 04/30/2020 11:08:16 AM
 04/30/2020 11:11:16 AM
 04/30/2020 11:11:24 AM
 04/30/2020 11:13:20 AM
 04/30/2020 11:14:01 AM
 04/30/2020 11:14:23 AM
 04/30/2020 11:16:40 AM
 04/30/2020 12:23:17 PM
 04/30/2020 12:23:22 PM
 04/30/2020 12:23:36 PM
 04/30/2020 12:25:35 PM
 04/30/2020 12:46:00 PM
 04/30/2020 12:46:16 PM
 04/30/2020 4:53:40 PM
 04/30/2020 4:54:05 PM
 04/30/2020 4:54:28 PM
 04/30/2020 4:56:10 PM
 04/30/2020 4:56:25 PM
 04/30/2020 4:56:29 PM
 04/30/2020 4:56:54 PM
 04/30/2020 4:57:45 PM
 04/30/2020 4:58:54 PM
 04/30/2020 4:59:13 PM
 04/30/2020 4:59:32 PM
 04/30/2020 4:59:41 PM
 04/30/2020 5:00:00 PM
 04/30/2020 6:16:52 PM
 04/30/2020 6:27:41 PM
 04/30/2020 6:44:44 PM
 04/30/2020 6:44:48 PM
 04/30/2020 6:45:42 PM
 04/30/2020 6:45:47 PM
 04/30/2020 6:48:50 PM
 04/30/2020 6:51:55 PM
 04/30/2020 6:54:07 PM
 04/30/2020 7:04:33 PM
 04/30/2020 7:33:02 PM
 04/30/2020 7:33:08 PM
 04/30/2020 7:36:51 PM
 04/30/2020 7:37:03 PM
