
 04/16/2020 12:03:23 PM 04/16/2020 12:03:54 PM
 04/16/2020 5:38:15 PM
 04/16/2020 5:38:31 PM
 04/16/2020 5:38:45 PM
 04/16/2020 5:39:17 PM
 04/16/2020 5:39:32 PM
 04/16/2020 5:39:40 PM
 04/16/2020 5:39:58 PM
 04/16/2020 5:40:53 PM
 04/16/2020 5:41:06 PM
 04/16/2020 5:42:50 PM
 04/16/2020 6:08:55 PM
 04/16/2020 6:10:45 PM
 04/16/2020 10:08:17 PM
 04/16/2020 10:08:59 PM
 04/16/2020 10:12:12 PM
 04/16/2020 10:12:33 PM
 04/16/2020 10:35:27 PM
 04/16/2020 11:00:06 PM
 04/16/2020 11:00:13 PM
 04/16/2020 11:42:39 PM
 04/16/2020 11:42:59 PM
