
 the  values 20482`1283`JO00020`8199`10125`Approved`04/16/20`04/16/20`1`1000```57416`````1000`750.00`0.00`750.00`````0`0````0``0`0`0``56578`04/16/2020 4:37:13 PM`04/16/2020 4:37:13 PM`1`0`1035 of form Job Order(Out) and Table SATABLE005 has succeeded at  04/16/2020 4:37:14 PM the  values  of form Job Order(Out) and Table SATABLE006 succeeded at  04/16/2020 4:37:14 PM
 the  values 9998` ` ``1007`` ``1`1`56578`04/16/2020 4:37:15 PM`04/16/2020 4:37:15 PM`1`0`1035 of form Job Order(Out) and Table SATABLE003 has succeeded at  04/16/2020 4:37:15 PM
 the  values 20483`1283`JO00021`4331``Approved`04/16/20`04/16/20`1`1000```57416`````1000`500.00`0.00`500.00`````0`0````0``0`0`0``56578`04/16/2020 11:30:11 PM`04/16/2020 11:30:11 PM`1`0`1035 of form Job Order(Out) and Table SATABLE005 has succeeded at  04/16/2020 11:30:12 PM
 the  values  of form Job Order(Out) and Table SATABLE006 succeeded at  04/16/2020 11:30:14 PM
 the  values 9998`vivek nagar`478``1007`1049`kdp`516390`1`1`56578`04/16/2020 11:30:14 PM`04/16/2020 11:30:14 PM`1`0`1035 of form Job Order(Out) and Table SATABLE003 has succeeded at  04/16/2020 11:30:14 PM
