

 Line Tax Amount = Total (750.00)  * Tax (0.00) 
 Line Amount = Total (750)  
 Line Total Amount = Amount (750) + Tax Amount (0.00)  
 Header Total Amount  = Sub Total (750.00) Tax (0.00)+ PackingCharges (0.00)+ ShippingCharges (0.00) 
 04/16/2020 4:36:55 PM
 Line Tax Amount = Total (500.00)  * Tax (0.00) 
 Line Amount = Total (500)  
 Line Total Amount = Amount (500) + Tax Amount (0.00)  
 Header Total Amount  = Sub Total (500.00) Tax (0.00)+ PackingCharges (0.00)+ ShippingCharges (0.00) 
 04/16/2020 11:29:35 PM
