
 the  values 13021`1286``1000``1``JOR00010`04/16/20`````57416```56578`04/16/2020 4:30:43 PM`04/16/2020 4:30:43 PM`1`0`1035 of form Receipt(Out) and Table PUTABLE003 has succeeded at  04/16/2020 4:30:48 PM the  values  of form Receipt(Out) and Table PUTABLE004 succeeded at  04/16/2020 4:30:50 PM
 the  values 13021`1286`4331`1000`20481``JOR00010`04/16/20``````57416``1`56578`04/16/2020 4:32:19 PM`04/16/2020 4:32:19 PM`1`0`1035`1035 of form Receipt(Out) and Table PUTABLE003 edit succeeded at  04/16/2020 4:32:20 PM
 the  values  of form Receipt(Out) and Table PUTABLE004 edit succeeded at  04/16/2020 4:32:21 PM
 the  values 13022`1286`4331`1000`20481`1``JOR00011`04/16/20``JOI00014`vivek nagar,
478,
kdp,
Goa,
516390,
India.``57416```56578`04/16/2020 4:35:06 PM`04/16/2020 4:35:06 PM`1`0`1035 of form Receipt(Out) and Table PUTABLE003 has succeeded at  04/16/2020 4:35:08 PM
 the  values  of form Receipt(Out) and Table PUTABLE004 succeeded at  04/16/2020 4:35:08 PM
 the  values 13023`1286`8199`1000`20482`1``JOR00012`04/16/20``JOI00015` ,
 ,
 ,
India.``57416```56578`04/16/2020 4:38:45 PM`04/16/2020 4:38:45 PM`1`0`1035 of form Receipt(Out) and Table PUTABLE003 has succeeded at  04/16/2020 4:38:46 PM
 the  values  of form Receipt(Out) and Table PUTABLE004 succeeded at  04/16/2020 4:38:47 PM
 the  values 13025`1286``1000`20482`1``JOR00013`04/16/20`````57416```56578`04/16/2020 9:48:03 PM`04/16/2020 9:48:03 PM`1`0`1035 of form Receipt(Out) and Table PUTABLE003 has succeeded at  04/16/2020 9:48:06 PM
 the  values  of form Receipt(Out) and Table PUTABLE004 succeeded at  04/16/2020 9:48:23 PM
 the  values 13025`1286`8199`1000`20482``JOR00013`04/16/20``````57416``1`56578`04/16/2020 9:49:05 PM`04/16/2020 9:49:05 PM`1`0`1035`1035 of form Receipt(Out) and Table PUTABLE003 edit succeeded at  04/16/2020 9:49:08 PM
 the  values  of form Receipt(Out) and Table PUTABLE004 edit succeeded at  04/16/2020 9:49:08 PM
 the  values 13026`1286`4331`1000`20483`1``JOR00014`04/16/20``JOI00016`vivek nagar,
478,
kdp,
Goa,
516390,
India.``57416```56578`04/16/2020 11:41:02 PM`04/16/2020 11:41:02 PM`1`0`1035 of form Receipt(Out) and Table PUTABLE003 has succeeded at  04/16/2020 11:41:03 PM
 the  values  of form Receipt(Out) and Table PUTABLE004 succeeded at  04/16/2020 11:41:03 PM
