
 
***********************TARGET4*********************** 
 
 Header Data Updated for Employee . 
 
 5/21/2020 10:53:51 AM 
***********************TARGET4*********************** 
 
 Header Data Updated for Employee . 
 
 5/21/2020 10:53:51 AM
 
***********************TARGET4*********************** 
 
 Header Data Updated for Employee . 
 
 5/21/2020 10:53:51 AM
 
***********************TARGET4*********************** 
 
 Header Data Updated for Employee . 
 
 5/21/2020 10:53:51 AM
Employee Process Initiated at 5/21/2020 10:53:57 AM 
Employee Tabs are Created at 5/21/2020 10:53:57 AM 
Employee Control Value For Refered_Form Data Initiated at 5/21/2020 10:53:57 AM 
Employee Control Value For Refered_Form Data Completed at 5/21/2020 10:53:57 AM 
Employee Control Value For Gender Data Initiated at 5/21/2020 10:53:57 AM 
Employee Control Value For Gender Data Completed at 5/21/2020 10:53:57 AM 
Employee Master Value For Supervisior Data Initiated at 5/21/2020 10:53:57 AM 
Employee Master Value For Supervisior Data Completed at 5/21/2020 10:53:57 AM 
Employee Control Value For Department Data Initiated at 5/21/2020 10:53:57 AM 
Employee Control Value For Department Data Completed at 5/21/2020 10:53:57 AM 
Employee Master Value For Operating_Unit Data Initiated at 5/21/2020 10:53:57 AM 
Employee Master Value For Operating_Unit Data Completed at 5/21/2020 10:53:57 AM 
Employee Master Value For Subsidary Data Initiated at 5/21/2020 10:53:57 AM 
Employee Master Value For Subsidary Data Completed at 5/21/2020 10:53:57 AM 
Employee Control Value For Classification Data Initiated at 5/21/2020 10:53:57 AM 
Employee Control Value For Classification Data Completed at 5/21/2020 10:53:57 AM 
Employee Master Value For Country Data Initiated at 5/21/2020 10:53:57 AM 
Employee Master Value For Country Data Completed at 5/21/2020 10:53:57 AM 
Employee Master Value For State Data Initiated at 5/21/2020 10:53:57 AM 
Employee Master Value For State Data Completed at 5/21/2020 10:53:57 AM 
Employee Control Value For Permission_Mode Data Initiated at 5/21/2020 10:53:57 AM 
Employee Control Value For Permission_Mode Data Completed at 5/21/2020 10:53:57 AM 
Employee Master Value For Company Data Initiated at 5/21/2020 10:53:57 AM 
Employee Master Value For Company Data Completed at 5/21/2020 10:53:57 AM 
Employee Feilds are Created at 5/21/2020 10:53:57 AM 
Employee Feilds Creation Completed For SATABLE003 at 5/21/2020 10:53:57 AM 
Employee Feilds are Created at 5/21/2020 10:53:58 AM 
Employee Feilds Creation Completed For MATABLE010 at 5/21/2020 10:53:58 AM 
Employee Feilds are Created at 5/21/2020 10:53:58 AM 
Employee Feilds Creation Completed For SETABLE013 at 5/21/2020 10:53:58 AM 
Employee Feilds are Created at 5/21/2020 10:53:58 AM 
Employee Feilds Creation Completed For MATABLE028 at 5/21/2020 10:53:58 AM 
Employee Total Fields Creation Completed at 5/21/2020 10:53:58 AM 
Employee Process Completed at 5/21/2020 10:53:58 AM 
 5/21/2020 10:53:58 AM
