
could not connect to redis Instance at 202.65.131.29:6379 5/21/2020 10:41:34 AMcould not connect to redis Instance at 202.65.131.29:6379 5/21/2020 3:43:29 PM
could not connect to redis Instance at 202.65.131.29:6379 5/21/2020 5:29:07 PM
could not connect to redis Instance at 202.65.131.29:6379 5/21/2020 5:34:32 PM
