
Inventory Adjustments Process Initiated at 8/28/2020 1:45:59 PM 
Inventory Adjustments Tabs are Created at 8/28/2020 1:45:59 PM 
Inventory Adjustments Master Value For Items Data Initiated at 8/28/2020 1:45:59 PM 
Inventory Adjustments Master Value For Items Data Completed at 8/28/2020 1:45:59 PM 
Inventory Adjustments Control Value For Units Data Initiated at 8/28/2020 1:45:59 PM 
Inventory Adjustments Control Value For Units Data Completed at 8/28/2020 1:45:59 PM 
Inventory Adjustments Master Value For Lot# Data Initiated at 8/28/2020 1:45:59 PM 
Inventory Adjustments Master Value For Lot# Data Completed at 8/28/2020 1:45:59 PM 
Inventory Adjustments Master Value For Adjustment_Account Data Initiated at 8/28/2020 1:45:59 PM 
Inventory Adjustments Master Value For Adjustment_Account Data Completed at 8/28/2020 1:45:59 PM 
Inventory Adjustments Control Value For Reason_Code Data Initiated at 8/28/2020 1:45:59 PM 
Inventory Adjustments Control Value For Reason_Code Data Completed at 8/28/2020 1:45:59 PM 
Inventory Adjustments Control Value For Department Data Initiated at 8/28/2020 1:45:59 PM 
Inventory Adjustments Control Value For Department Data Completed at 8/28/2020 1:45:59 PM 
Inventory Adjustments Master Value For Operating_Unit Data Initiated at 8/28/2020 1:45:59 PM 
Inventory Adjustments Master Value For Operating_Unit Data Completed at 8/28/2020 1:45:59 PM 
Inventory Adjustments Master Value For Location Data Initiated at 8/28/2020 1:45:59 PM 
Inventory Adjustments Master Value For Location Data Completed at 8/28/2020 1:45:59 PM 
Inventory Adjustments Master Value For Project# Data Initiated at 8/28/2020 1:45:59 PM 
Inventory Adjustments Master Value For Project# Data Completed at 8/28/2020 1:45:59 PM 
Inventory Adjustments Master Value For Subsidary Data Initiated at 8/28/2020 1:45:59 PM 
Inventory Adjustments Master Value For Subsidary Data Completed at 8/28/2020 1:45:59 PM 
Inventory Adjustments Control Value For Class Data Initiated at 8/28/2020 1:45:59 PM 
Inventory Adjustments Control Value For Class Data Completed at 8/28/2020 1:45:59 PM 
Inventory Adjustments Feilds are Created at 8/28/2020 1:45:59 PM 
Inventory Adjustments Feilds Creation Completed For FITABLE014 at 8/28/2020 1:45:59 PM 
Inventory Adjustments Feilds are Created at 8/28/2020 1:45:59 PM 
Inventory Adjustments Feilds Creation Completed For FITABLE015 at 8/28/2020 1:45:59 PM 
Inventory Adjustments Total Fields Creation Completed at 8/28/2020 1:45:59 PM 
Inventory Adjustments Process Completed at 8/28/2020 1:45:59 PM 
 8/28/2020 1:45:59 PM 
***********************TARGET1*********************** 
 
 Line Data Received . 8/28/2020 1:46:43 PM
 
***********************TARGET4*********************** 
 
 Header Data Created for Inventory Adjustments . 
 
 8/28/2020 1:46:45 PM
 
***********************TARGET7*********************** 
 
 Line Data 0 Created For Inventory Adjustments . 
 
 8/28/2020 1:46:47 PM
 
***********************TARGET7*********************** 
 
 Line Data 1 Created For Inventory Adjustments . 
 
 8/28/2020 1:46:47 PM
 
***********************TARGET7*********************** 
 
 Line Data 2 Created For Inventory Adjustments . 
 
 8/28/2020 1:46:47 PM
