

 Line Tax Amount = Total (0.00)  * Tax (0.00) 
 Header Total Amount  = Sub Total (0.00) Tax (0.00)+ PackingCharges (0.00)+ ShippingCharges (0.00) 
 8/28/2020 1:47:17 PM
 Line Tax Amount = Total (0.00)  * Tax (0.00) 
 Header Total Amount  = Sub Total (0.00) Tax (0.00)+ PackingCharges (0.00)+ ShippingCharges (0.00) 
 Header Tax Amount = Subtotal (0.00)  - PackingCharges (0) - ShippingCharges (0) * Tax (0.00) 
 Line Tax Amount Item 1= (0.00) 
 Total Tax Amount = Heder Tax (0.00) + Line Tax (0) 
 Total Amount = Sub Total (0.00)  + Heder Tax (0.00) + Line Tax (0) 
 Line Tax Amount = Total (200.00)  * Tax (0.00) 
 Line Amount = Total (200)  
 Line Total Amount = Amount (200) + Tax Amount (0.00)  
 Header Total Amount  = Sub Total (200.00) Tax (0.00)+ PackingCharges (0.00)+ ShippingCharges (0.00) 
 8/28/2020 1:47:20 PM

 Line Tax Amount = Total (0.00)  * Tax (0.00) 
 Header Total Amount  = Sub Total (0.00) Tax (0.00)+ PackingCharges (0.00)+ ShippingCharges (0.00) 
 Header Tax Amount = Subtotal (0.00)  - PackingCharges (0) - ShippingCharges (0) * Tax (0.00) 
 Line Tax Amount Item 1= (0.00) 
 Total Tax Amount = Heder Tax (0.00) + Line Tax (0) 
 Total Amount = Sub Total (0.00)  + Heder Tax (0.00) + Line Tax (0) 
 Line Tax Amount = Total (200.00)  * Tax (0.00) 
 Line Amount = Total (200)  
 Line Total Amount = Amount (200) + Tax Amount (0.00)  
 Header Total Amount  = Sub Total (200.00) Tax (0.00)+ PackingCharges (0.00)+ ShippingCharges (0.00) 
 Header Tax Amount = Subtotal (200.00)  - PackingCharges (0) - ShippingCharges (0) * Tax (0.00) 
 Line Tax Amount Item 1= (0.00) 
 Total Tax Amount = Heder Tax (0.00) + Line Tax (0) 
 Total Amount = Sub Total (200.00)  + Heder Tax (0.00) + Line Tax (0) 
 Line Tax Amount = Total (0.00)  * Tax (0.00) 
 Line Amount = Total (200)  
 Line Total Amount = Amount (200) + Tax Amount (0.00)  
 Header Total Amount  = Sub Total (200.00) Tax (0.00)+ PackingCharges (0.00)+ ShippingCharges (0.00) 
 8/28/2020 1:47:36 PM

 Line Tax Amount = Total (0.00)  * Tax (0.00) 
 Header Total Amount  = Sub Total (0.00) Tax (0.00)+ PackingCharges (0.00)+ ShippingCharges (0.00) 
 Header Tax Amount = Subtotal (0.00)  - PackingCharges (0) - ShippingCharges (0) * Tax (0.00) 
 Line Tax Amount Item 1= (0.00) 
 Total Tax Amount = Heder Tax (0.00) + Line Tax (0) 
 Total Amount = Sub Total (0.00)  + Heder Tax (0.00) + Line Tax (0) 
 Line Tax Amount = Total (200.00)  * Tax (0.00) 
 Line Amount = Total (200)  
 Line Total Amount = Amount (200) + Tax Amount (0.00)  
 Header Total Amount  = Sub Total (200.00) Tax (0.00)+ PackingCharges (0.00)+ ShippingCharges (0.00) 
 Header Tax Amount = Subtotal (200.00)  - PackingCharges (0) - ShippingCharges (0) * Tax (0.00) 
 Line Tax Amount Item 1= (0.00) 
 Total Tax Amount = Heder Tax (0.00) + Line Tax (0) 
 Total Amount = Sub Total (200.00)  + Heder Tax (0.00) + Line Tax (0) 
 Line Tax Amount = Total (0.00)  * Tax (0.00) 
 Line Amount = Total (200)  
 Line Total Amount = Amount (200) + Tax Amount (0.00)  
 Header Total Amount  = Sub Total (200.00) Tax (0.00)+ PackingCharges (0.00)+ ShippingCharges (0.00) 
 Header Tax Amount = Subtotal (200.00)  - PackingCharges (0) - ShippingCharges (0) * Tax (0.00) 
 Line Tax Amount Item 1= (0.00) 
 Line Tax Amount Item 2= (0.00) 
 Total Tax Amount = Heder Tax (0.00) + Line Tax (0) 
 Total Amount = Sub Total (200.00)  + Heder Tax (0.00) + Line Tax (0) 
 Line Tax Amount = Total (240.00)  * Tax (0.00) 
 Line Amount = Total (200)  
 Line Total Amount = Amount (200) + Tax Amount (0.00)  
 Line Amount = Total (240)  
 Line Total Amount = Amount (240) + Tax Amount (0.00)  
 Header Total Amount  = Sub Total (440.00) Tax (0.00)+ PackingCharges (0.00)+ ShippingCharges (0.00) 
 8/28/2020 1:47:40 PM

 Line Tax Amount = Total (0.00)  * Tax (0.00) 
 Header Total Amount  = Sub Total (0.00) Tax (0.00)+ PackingCharges (0.00)+ ShippingCharges (0.00) 
 8/28/2020 2:51:52 PM

 Line Tax Amount = Total (0.00)  * Tax (0.00) 
 Header Total Amount  = Sub Total (0.00) Tax (0.00)+ PackingCharges (0.00)+ ShippingCharges (0.00) 
 Header Tax Amount = Subtotal (0.00)  - PackingCharges (0) - ShippingCharges (0) * Tax (0.00) 
 Line Tax Amount Item 1= (0.00) 
 Total Tax Amount = Heder Tax (0.00) + Line Tax (0) 
 Total Amount = Sub Total (0.00)  + Heder Tax (0.00) + Line Tax (0) 
 Line Tax Amount = Total (200.00)  * Tax (0.00) 
 Line Amount = Total (200)  
 Line Total Amount = Amount (200) + Tax Amount (0.00)  
 Header Total Amount  = Sub Total (200.00) Tax (0.00)+ PackingCharges (0.00)+ ShippingCharges (0.00) 
 8/28/2020 2:51:55 PM

 Line Tax Amount = Total (0.00)  * Tax (0.00) 
 Header Total Amount  = Sub Total (0.00) Tax (0.00)+ PackingCharges (0.00)+ ShippingCharges (0.00) 
 Header Tax Amount = Subtotal (0.00)  - PackingCharges (0) - ShippingCharges (0) * Tax (0.00) 
 Line Tax Amount Item 1= (0.00) 
 Total Tax Amount = Heder Tax (0.00) + Line Tax (0) 
 Total Amount = Sub Total (0.00)  + Heder Tax (0.00) + Line Tax (0) 
 Line Tax Amount = Total (200.00)  * Tax (0.00) 
 Line Amount = Total (200)  
 Line Total Amount = Amount (200) + Tax Amount (0.00)  
 Header Total Amount  = Sub Total (200.00) Tax (0.00)+ PackingCharges (0.00)+ ShippingCharges (0.00) 
 Header Tax Amount = Subtotal (200.00)  - PackingCharges (0) - ShippingCharges (0) * Tax (0.00) 
 Line Tax Amount Item 1= (0.00) 
 Total Tax Amount = Heder Tax (0.00) + Line Tax (0) 
 Total Amount = Sub Total (200.00)  + Heder Tax (0.00) + Line Tax (0) 
 Line Tax Amount = Total (0.00)  * Tax (0.00) 
 Line Amount = Total (200)  
 Line Total Amount = Amount (200) + Tax Amount (0.00)  
 Header Total Amount  = Sub Total (200.00) Tax (0.00)+ PackingCharges (0.00)+ ShippingCharges (0.00) 
 8/28/2020 2:52:18 PM

 Line Tax Amount = Total (0.00)  * Tax (0.00) 
 Header Total Amount  = Sub Total (0.00) Tax (0.00)+ PackingCharges (0.00)+ ShippingCharges (0.00) 
 Header Tax Amount = Subtotal (0.00)  - PackingCharges (0) - ShippingCharges (0) * Tax (0.00) 
 Line Tax Amount Item 1= (0.00) 
 Total Tax Amount = Heder Tax (0.00) + Line Tax (0) 
 Total Amount = Sub Total (0.00)  + Heder Tax (0.00) + Line Tax (0) 
 Line Tax Amount = Total (200.00)  * Tax (0.00) 
 Line Amount = Total (200)  
 Line Total Amount = Amount (200) + Tax Amount (0.00)  
 Header Total Amount  = Sub Total (200.00) Tax (0.00)+ PackingCharges (0.00)+ ShippingCharges (0.00) 
 Header Tax Amount = Subtotal (200.00)  - PackingCharges (0) - ShippingCharges (0) * Tax (0.00) 
 Line Tax Amount Item 1= (0.00) 
 Total Tax Amount = Heder Tax (0.00) + Line Tax (0) 
 Total Amount = Sub Total (200.00)  + Heder Tax (0.00) + Line Tax (0) 
 Line Tax Amount = Total (0.00)  * Tax (0.00) 
 Line Amount = Total (200)  
 Line Total Amount = Amount (200) + Tax Amount (0.00)  
 Header Total Amount  = Sub Total (200.00) Tax (0.00)+ PackingCharges (0.00)+ ShippingCharges (0.00) 
 Header Tax Amount = Subtotal (200.00)  - PackingCharges (0) - ShippingCharges (0) * Tax (0.00) 
 Line Tax Amount Item 1= (0.00) 
 Line Tax Amount Item 2= (0.00) 
 Total Tax Amount = Heder Tax (0.00) + Line Tax (0) 
 Total Amount = Sub Total (200.00)  + Heder Tax (0.00) + Line Tax (0) 
 Line Tax Amount = Total (240.00)  * Tax (0.00) 
 Line Amount = Total (200)  
 Line Total Amount = Amount (200) + Tax Amount (0.00)  
 Line Amount = Total (240)  
 Line Total Amount = Amount (240) + Tax Amount (0.00)  
 Header Total Amount  = Sub Total (440.00) Tax (0.00)+ PackingCharges (0.00)+ ShippingCharges (0.00) 
 8/28/2020 2:52:25 PM
