
 12/11/2019 10:36:45 AM 12/11/2019 10:37:10 AM
 12/11/2019 10:37:54 AM
 12/11/2019 10:38:06 AM
 12/11/2019 10:38:57 AM
 12/11/2019 10:39:44 AM
 12/11/2019 10:40:00 AM
 12/11/2019 10:41:15 AM
 12/11/2019 10:41:39 AM
 12/11/2019 10:41:45 AM
 12/11/2019 10:45:23 AM
 12/11/2019 10:46:42 AM
 12/11/2019 10:53:16 AM
 12/11/2019 11:09:49 AM
 12/11/2019 11:09:59 AM
 12/11/2019 11:10:28 AM
 12/11/2019 11:10:39 AM
 12/11/2019 11:14:10 AM
 12/11/2019 11:14:15 AM
 12/11/2019 11:14:24 AM
 12/11/2019 11:14:29 AM
 12/11/2019 11:14:41 AM
 12/11/2019 11:30:35 AM
