
could not connect to redis Instance at 202.65.131.29:6379 12/11/2019 10:35:35 AMcould not connect to redis Instance at 202.65.131.29:6379 12/11/2019 10:45:07 AM
could not connect to redis Instance at 202.65.131.29:6379 12/11/2019 10:54:17 AM
could not connect to redis Instance at 202.65.131.29:6379 12/11/2019 11:09:34 AM
