
Item Receipt Process Initiated at 04/23/2020 11:59:39 AM 
Item Receipt Tabs are Created at 04/23/2020 11:59:39 AM 
Item Receipt Master Value For Item Data Initiated at 04/23/2020 11:59:39 AM 
Item Receipt Master Value For Item Data Completed at 04/23/2020 11:59:39 AM 
Item Receipt Control Value For Units Data Initiated at 04/23/2020 11:59:39 AM 
Item Receipt Control Value For Units Data Completed at 04/23/2020 11:59:39 AM 
Item Receipt Master Value For Lot# Data Initiated at 04/23/2020 11:59:39 AM 
Item Receipt Master Value For Lot# Data Completed at 04/23/2020 11:59:39 AM 
Item Receipt Master Value For Location Data Initiated at 04/23/2020 11:59:39 AM 
Item Receipt Master Value For Location Data Completed at 04/23/2020 11:59:39 AM 
Item Receipt Master Value For OperatingUnit Data Initiated at 04/23/2020 11:59:39 AM 
Item Receipt Master Value For OperatingUnit Data Completed at 04/23/2020 11:59:39 AM 
Item Receipt Master Value For Subsidary Data Initiated at 04/23/2020 11:59:39 AM 
Item Receipt Master Value For Subsidary Data Completed at 04/23/2020 11:59:39 AM 
Item Receipt Control Value For Classification Data Initiated at 04/23/2020 11:59:39 AM 
Item Receipt Control Value For Classification Data Completed at 04/23/2020 11:59:39 AM 
Item Receipt Control Value For Department Data Initiated at 04/23/2020 11:59:39 AM 
Item Receipt Control Value For Department Data Completed at 04/23/2020 11:59:39 AM 
Item Receipt Master Value For Refered_Form Data Initiated at 04/23/2020 11:59:39 AM 
Item Receipt Master Value For Refered_Form Data Completed at 04/23/2020 11:59:39 AM 
Item Receipt Master Value For Vendor Data Initiated at 04/23/2020 11:59:39 AM 
Item Receipt Master Value For Vendor Data Completed at 04/23/2020 11:59:39 AM 
Item Receipt Master Value For Receipt_Type Data Initiated at 04/23/2020 11:59:39 AM 
Item Receipt Master Value For Receipt_Type Data Completed at 04/23/2020 11:59:39 AM 
Item Receipt Master Value For Purchase_Order# Data Initiated at 04/23/2020 11:59:39 AM 
Item Receipt Master Value For Purchase_Order# Data Completed at 04/23/2020 11:59:39 AM 
Item Receipt Control Value For GST_Category Data Initiated at 04/23/2020 11:59:39 AM 
Item Receipt Control Value For GST_Category Data Completed at 04/23/2020 11:59:39 AM 
Item Receipt Master Value For Place_Of_Supply Data Initiated at 04/23/2020 11:59:39 AM 
Item Receipt Master Value For Place_Of_Supply Data Completed at 04/23/2020 11:59:39 AM 
Item Receipt Control Value For Payment_Terms Data Initiated at 04/23/2020 11:59:39 AM 
Item Receipt Control Value For Payment_Terms Data Completed at 04/23/2020 11:59:39 AM 
Item Receipt Control Value For Payment_Mode Data Initiated at 04/23/2020 11:59:39 AM 
Item Receipt Control Value For Payment_Mode Data Completed at 04/23/2020 11:59:39 AM 
Item Receipt Master Value For Project# Data Initiated at 04/23/2020 11:59:39 AM 
Item Receipt Master Value For Project# Data Completed at 04/23/2020 11:59:39 AM 
Item Receipt Master Value For Operating_Unit Data Initiated at 04/23/2020 11:59:39 AM 
Item Receipt Master Value For Operating_Unit Data Completed at 04/23/2020 11:59:39 AM 
Item Receipt Master Value For Subsidary Data Initiated at 04/23/2020 11:59:39 AM 
Item Receipt Master Value For Subsidary Data Completed at 04/23/2020 11:59:39 AM 
Item Receipt Control Value For Class Data Initiated at 04/23/2020 11:59:39 AM 
Item Receipt Control Value For Class Data Completed at 04/23/2020 11:59:39 AM 
Item Receipt Control Value For Department Data Initiated at 04/23/2020 11:59:39 AM 
Item Receipt Control Value For Department Data Completed at 04/23/2020 11:59:39 AM 
Item Receipt Master Value For Location_ Data Initiated at 04/23/2020 11:59:39 AM 
Item Receipt Master Value For Location_ Data Completed at 04/23/2020 11:59:39 AM 
Item Receipt Feilds are Created at 04/23/2020 11:59:39 AM 
Item Receipt Feilds Creation Completed For PUTABLE003 at 04/23/2020 11:59:39 AM 
Item Receipt Feilds are Created at 04/23/2020 11:59:40 AM 
Item Receipt Feilds Creation Completed For PUTABLE004 at 04/23/2020 11:59:40 AM 
Item Receipt Total Fields Creation Completed at 04/23/2020 11:59:40 AM 
Item Receipt Process Completed at 04/23/2020 11:59:40 AM 
 04/23/2020 11:59:40 AM 
***********************TARGET1*********************** 
 
 Line Data Received . 04/23/2020 11:59:45 AM
 
***********************TARGET4*********************** 
 
 Header Data Created for Item Receipt . 
 
 04/23/2020 11:59:46 AM
 
***********************TARGET7*********************** 
 
 Line Data 0 Created For Item Receipt . 
 
 04/23/2020 11:59:48 AM
Item Receipt Process Initiated at 04/23/2020 12:47:44 PM 
Item Receipt Tabs are Created at 04/23/2020 12:47:44 PM 
Item Receipt Master Value For Item Data Initiated at 04/23/2020 12:47:44 PM 
Item Receipt Master Value For Item Data Completed at 04/23/2020 12:47:44 PM 
Item Receipt Control Value For Units Data Initiated at 04/23/2020 12:47:44 PM 
Item Receipt Control Value For Units Data Completed at 04/23/2020 12:47:44 PM 
Item Receipt Master Value For Lot# Data Initiated at 04/23/2020 12:47:44 PM 
Item Receipt Master Value For Lot# Data Completed at 04/23/2020 12:47:44 PM 
Item Receipt Master Value For Location Data Initiated at 04/23/2020 12:47:44 PM 
Item Receipt Master Value For Location Data Completed at 04/23/2020 12:47:44 PM 
Item Receipt Master Value For OperatingUnit Data Initiated at 04/23/2020 12:47:44 PM 
Item Receipt Master Value For OperatingUnit Data Completed at 04/23/2020 12:47:44 PM 
Item Receipt Master Value For Subsidary Data Initiated at 04/23/2020 12:47:44 PM 
Item Receipt Master Value For Subsidary Data Completed at 04/23/2020 12:47:44 PM 
Item Receipt Control Value For Classification Data Initiated at 04/23/2020 12:47:44 PM 
Item Receipt Control Value For Classification Data Completed at 04/23/2020 12:47:44 PM 
Item Receipt Control Value For Department Data Initiated at 04/23/2020 12:47:44 PM 
Item Receipt Control Value For Department Data Completed at 04/23/2020 12:47:44 PM 
Item Receipt Master Value For Refered_Form Data Initiated at 04/23/2020 12:47:44 PM 
Item Receipt Master Value For Refered_Form Data Completed at 04/23/2020 12:47:44 PM 
Item Receipt Master Value For Vendor Data Initiated at 04/23/2020 12:47:44 PM 
Item Receipt Master Value For Vendor Data Completed at 04/23/2020 12:47:44 PM 
Item Receipt Master Value For Receipt_Type Data Initiated at 04/23/2020 12:47:44 PM 
Item Receipt Master Value For Receipt_Type Data Completed at 04/23/2020 12:47:44 PM 
Item Receipt Master Value For Purchase_Order# Data Initiated at 04/23/2020 12:47:44 PM 
Item Receipt Master Value For Purchase_Order# Data Completed at 04/23/2020 12:47:44 PM 
Item Receipt Control Value For GST_Category Data Initiated at 04/23/2020 12:47:44 PM 
Item Receipt Control Value For GST_Category Data Completed at 04/23/2020 12:47:44 PM 
Item Receipt Master Value For Place_Of_Supply Data Initiated at 04/23/2020 12:47:44 PM 
Item Receipt Master Value For Place_Of_Supply Data Completed at 04/23/2020 12:47:44 PM 
Item Receipt Control Value For Payment_Terms Data Initiated at 04/23/2020 12:47:44 PM 
Item Receipt Control Value For Payment_Terms Data Completed at 04/23/2020 12:47:44 PM 
Item Receipt Control Value For Payment_Mode Data Initiated at 04/23/2020 12:47:44 PM 
Item Receipt Control Value For Payment_Mode Data Completed at 04/23/2020 12:47:44 PM 
Item Receipt Master Value For Project# Data Initiated at 04/23/2020 12:47:44 PM 
Item Receipt Master Value For Project# Data Completed at 04/23/2020 12:47:44 PM 
Item Receipt Master Value For Operating_Unit Data Initiated at 04/23/2020 12:47:44 PM 
Item Receipt Master Value For Operating_Unit Data Completed at 04/23/2020 12:47:44 PM 
Item Receipt Master Value For Subsidary Data Initiated at 04/23/2020 12:47:44 PM 
Item Receipt Master Value For Subsidary Data Completed at 04/23/2020 12:47:44 PM 
Item Receipt Control Value For Class Data Initiated at 04/23/2020 12:47:44 PM 
Item Receipt Control Value For Class Data Completed at 04/23/2020 12:47:44 PM 
Item Receipt Control Value For Department Data Initiated at 04/23/2020 12:47:44 PM 
Item Receipt Control Value For Department Data Completed at 04/23/2020 12:47:44 PM 
Item Receipt Master Value For Location_ Data Initiated at 04/23/2020 12:47:44 PM 
Item Receipt Master Value For Location_ Data Completed at 04/23/2020 12:47:44 PM 
Item Receipt Feilds are Created at 04/23/2020 12:47:44 PM 
Item Receipt Feilds Creation Completed For PUTABLE003 at 04/23/2020 12:47:44 PM 
Item Receipt Feilds are Created at 04/23/2020 12:47:44 PM 
Item Receipt Feilds Creation Completed For PUTABLE004 at 04/23/2020 12:47:44 PM 
Item Receipt Total Fields Creation Completed at 04/23/2020 12:47:44 PM 
Item Receipt Process Completed at 04/23/2020 12:47:44 PM 
 04/23/2020 12:47:44 PM
 
***********************TARGET1*********************** 
 
 Line Data Received . 04/23/2020 12:47:50 PM
 
***********************TARGET4*********************** 
 
 Header Data Created for Item Receipt . 
 
 04/23/2020 12:47:51 PM
 
***********************TARGET7*********************** 
 
 Line Data 0 Created For Item Receipt . 
 
 04/23/2020 12:47:52 PM
Item Receipt Process Initiated at 04/23/2020 4:20:08 PM 
Item Receipt Tabs are Created at 04/23/2020 4:20:08 PM 
Item Receipt Master Value For Item Data Initiated at 04/23/2020 4:20:08 PM 
Item Receipt Master Value For Item Data Completed at 04/23/2020 4:20:09 PM 
Item Receipt Control Value For Units Data Initiated at 04/23/2020 4:20:09 PM 
Item Receipt Control Value For Units Data Completed at 04/23/2020 4:20:09 PM 
Item Receipt Master Value For Lot# Data Initiated at 04/23/2020 4:20:09 PM 
Item Receipt Master Value For Lot# Data Completed at 04/23/2020 4:20:09 PM 
Item Receipt Master Value For Location Data Initiated at 04/23/2020 4:20:09 PM 
Item Receipt Master Value For Location Data Completed at 04/23/2020 4:20:09 PM 
Item Receipt Master Value For OperatingUnit Data Initiated at 04/23/2020 4:20:09 PM 
Item Receipt Master Value For OperatingUnit Data Completed at 04/23/2020 4:20:09 PM 
Item Receipt Master Value For Subsidary Data Initiated at 04/23/2020 4:20:09 PM 
Item Receipt Master Value For Subsidary Data Completed at 04/23/2020 4:20:09 PM 
Item Receipt Control Value For Classification Data Initiated at 04/23/2020 4:20:09 PM 
Item Receipt Control Value For Classification Data Completed at 04/23/2020 4:20:09 PM 
Item Receipt Control Value For Department Data Initiated at 04/23/2020 4:20:09 PM 
Item Receipt Control Value For Department Data Completed at 04/23/2020 4:20:09 PM 
Item Receipt Master Value For Refered_Form Data Initiated at 04/23/2020 4:20:09 PM 
Item Receipt Master Value For Refered_Form Data Completed at 04/23/2020 4:20:09 PM 
Item Receipt Master Value For Vendor Data Initiated at 04/23/2020 4:20:09 PM 
Item Receipt Master Value For Vendor Data Completed at 04/23/2020 4:20:09 PM 
Item Receipt Master Value For Receipt_Type Data Initiated at 04/23/2020 4:20:09 PM 
Item Receipt Master Value For Receipt_Type Data Completed at 04/23/2020 4:20:09 PM 
Item Receipt Master Value For Purchase_Order# Data Initiated at 04/23/2020 4:20:09 PM 
Item Receipt Master Value For Purchase_Order# Data Completed at 04/23/2020 4:20:09 PM 
Item Receipt Control Value For GST_Category Data Initiated at 04/23/2020 4:20:09 PM 
Item Receipt Control Value For GST_Category Data Completed at 04/23/2020 4:20:09 PM 
Item Receipt Master Value For Place_Of_Supply Data Initiated at 04/23/2020 4:20:09 PM 
Item Receipt Master Value For Place_Of_Supply Data Completed at 04/23/2020 4:20:09 PM 
Item Receipt Control Value For Payment_Terms Data Initiated at 04/23/2020 4:20:09 PM 
Item Receipt Control Value For Payment_Terms Data Completed at 04/23/2020 4:20:09 PM 
Item Receipt Control Value For Payment_Mode Data Initiated at 04/23/2020 4:20:09 PM 
Item Receipt Control Value For Payment_Mode Data Completed at 04/23/2020 4:20:09 PM 
Item Receipt Master Value For Project# Data Initiated at 04/23/2020 4:20:09 PM 
Item Receipt Master Value For Project# Data Completed at 04/23/2020 4:20:09 PM 
Item Receipt Master Value For Operating_Unit Data Initiated at 04/23/2020 4:20:09 PM 
Item Receipt Master Value For Operating_Unit Data Completed at 04/23/2020 4:20:09 PM 
Item Receipt Master Value For Subsidary Data Initiated at 04/23/2020 4:20:09 PM 
Item Receipt Master Value For Subsidary Data Completed at 04/23/2020 4:20:09 PM 
Item Receipt Control Value For Class Data Initiated at 04/23/2020 4:20:09 PM 
Item Receipt Control Value For Class Data Completed at 04/23/2020 4:20:09 PM 
Item Receipt Control Value For Department Data Initiated at 04/23/2020 4:20:09 PM 
Item Receipt Control Value For Department Data Completed at 04/23/2020 4:20:09 PM 
Item Receipt Master Value For Location_ Data Initiated at 04/23/2020 4:20:09 PM 
Item Receipt Master Value For Location_ Data Completed at 04/23/2020 4:20:09 PM 
Item Receipt Feilds are Created at 04/23/2020 4:20:09 PM 
Item Receipt Feilds Creation Completed For PUTABLE003 at 04/23/2020 4:20:09 PM 
Item Receipt Feilds are Created at 04/23/2020 4:20:09 PM 
Item Receipt Feilds Creation Completed For PUTABLE004 at 04/23/2020 4:20:09 PM 
Item Receipt Total Fields Creation Completed at 04/23/2020 4:20:09 PM 
Item Receipt Process Completed at 04/23/2020 4:20:09 PM 
 04/23/2020 4:20:09 PM
 
***********************TARGET1*********************** 
 
 Line Data Received . 04/23/2020 4:20:32 PM
 
***********************TARGET4*********************** 
 
 Header Data Created for Item Receipt . 
 
 04/23/2020 4:20:37 PM
 
***********************TARGET7*********************** 
 
 Line Data 0 Created For Item Receipt . 
 
 04/23/2020 4:20:53 PM
Item Receipt Process Initiated at 04/23/2020 6:34:32 PM 
Item Receipt Tabs are Created at 04/23/2020 6:34:32 PM 
Item Receipt Master Value For Item Data Initiated at 04/23/2020 6:34:32 PM 
Item Receipt Master Value For Item Data Completed at 04/23/2020 6:34:32 PM 
Item Receipt Control Value For Units Data Initiated at 04/23/2020 6:34:32 PM 
Item Receipt Control Value For Units Data Completed at 04/23/2020 6:34:32 PM 
Item Receipt Master Value For Lot# Data Initiated at 04/23/2020 6:34:32 PM 
Item Receipt Master Value For Lot# Data Completed at 04/23/2020 6:34:32 PM 
Item Receipt Master Value For Location Data Initiated at 04/23/2020 6:34:32 PM 
Item Receipt Master Value For Location Data Completed at 04/23/2020 6:34:32 PM 
Item Receipt Master Value For OperatingUnit Data Initiated at 04/23/2020 6:34:32 PM 
Item Receipt Master Value For OperatingUnit Data Completed at 04/23/2020 6:34:32 PM 
Item Receipt Master Value For Subsidary Data Initiated at 04/23/2020 6:34:32 PM 
Item Receipt Master Value For Subsidary Data Completed at 04/23/2020 6:34:32 PM 
Item Receipt Control Value For Classification Data Initiated at 04/23/2020 6:34:32 PM 
Item Receipt Control Value For Classification Data Completed at 04/23/2020 6:34:32 PM 
Item Receipt Control Value For Department Data Initiated at 04/23/2020 6:34:32 PM 
Item Receipt Control Value For Department Data Completed at 04/23/2020 6:34:32 PM 
Item Receipt Master Value For Refered_Form Data Initiated at 04/23/2020 6:34:32 PM 
Item Receipt Master Value For Refered_Form Data Completed at 04/23/2020 6:34:32 PM 
Item Receipt Master Value For Vendor Data Initiated at 04/23/2020 6:34:32 PM 
Item Receipt Master Value For Vendor Data Completed at 04/23/2020 6:34:32 PM 
Item Receipt Master Value For Receipt_Type Data Initiated at 04/23/2020 6:34:32 PM 
Item Receipt Master Value For Receipt_Type Data Completed at 04/23/2020 6:34:32 PM 
Item Receipt Master Value For Purchase_Order# Data Initiated at 04/23/2020 6:34:32 PM 
Item Receipt Master Value For Purchase_Order# Data Completed at 04/23/2020 6:34:32 PM 
Item Receipt Control Value For GST_Category Data Initiated at 04/23/2020 6:34:32 PM 
Item Receipt Control Value For GST_Category Data Completed at 04/23/2020 6:34:32 PM 
Item Receipt Master Value For Place_Of_Supply Data Initiated at 04/23/2020 6:34:32 PM 
Item Receipt Master Value For Place_Of_Supply Data Completed at 04/23/2020 6:34:32 PM 
Item Receipt Control Value For Payment_Terms Data Initiated at 04/23/2020 6:34:32 PM 
Item Receipt Control Value For Payment_Terms Data Completed at 04/23/2020 6:34:32 PM 
Item Receipt Control Value For Payment_Mode Data Initiated at 04/23/2020 6:34:32 PM 
Item Receipt Control Value For Payment_Mode Data Completed at 04/23/2020 6:34:32 PM 
Item Receipt Master Value For Project# Data Initiated at 04/23/2020 6:34:32 PM 
Item Receipt Master Value For Project# Data Completed at 04/23/2020 6:34:32 PM 
Item Receipt Master Value For Operating_Unit Data Initiated at 04/23/2020 6:34:32 PM 
Item Receipt Master Value For Operating_Unit Data Completed at 04/23/2020 6:34:32 PM 
Item Receipt Master Value For Subsidary Data Initiated at 04/23/2020 6:34:32 PM 
Item Receipt Master Value For Subsidary Data Completed at 04/23/2020 6:34:32 PM 
Item Receipt Control Value For Class Data Initiated at 04/23/2020 6:34:32 PM 
Item Receipt Control Value For Class Data Completed at 04/23/2020 6:34:32 PM 
Item Receipt Control Value For Department Data Initiated at 04/23/2020 6:34:32 PM 
Item Receipt Control Value For Department Data Completed at 04/23/2020 6:34:32 PM 
Item Receipt Master Value For Location_ Data Initiated at 04/23/2020 6:34:32 PM 
Item Receipt Master Value For Location_ Data Completed at 04/23/2020 6:34:32 PM 
Item Receipt Feilds are Created at 04/23/2020 6:34:33 PM 
Item Receipt Feilds Creation Completed For PUTABLE003 at 04/23/2020 6:34:33 PM 
Item Receipt Feilds are Created at 04/23/2020 6:34:33 PM 
Item Receipt Feilds Creation Completed For PUTABLE004 at 04/23/2020 6:34:33 PM 
Item Receipt Total Fields Creation Completed at 04/23/2020 6:34:33 PM 
Item Receipt Process Completed at 04/23/2020 6:34:33 PM 
 04/23/2020 6:34:33 PM
 
***********************TARGET1*********************** 
 
 Line Data Received . 04/23/2020 6:35:03 PM
 
***********************TARGET4*********************** 
 
 Header Data Created for Item Receipt . 
 
 04/23/2020 6:35:06 PM
 
***********************TARGET7*********************** 
 
 Line Data 0 Created For Item Receipt . 
 
 04/23/2020 6:35:10 PM
Item Receipt Process Initiated at 04/23/2020 9:24:17 PM 
Item Receipt Tabs are Created at 04/23/2020 9:24:17 PM 
Item Receipt Master Value For Item Data Initiated at 04/23/2020 9:24:17 PM 
Item Receipt Master Value For Item Data Completed at 04/23/2020 9:24:17 PM 
Item Receipt Control Value For Units Data Initiated at 04/23/2020 9:24:17 PM 
Item Receipt Control Value For Units Data Completed at 04/23/2020 9:24:17 PM 
Item Receipt Master Value For Lot# Data Initiated at 04/23/2020 9:24:17 PM 
Item Receipt Master Value For Lot# Data Completed at 04/23/2020 9:24:17 PM 
Item Receipt Master Value For Location Data Initiated at 04/23/2020 9:24:17 PM 
Item Receipt Master Value For Location Data Completed at 04/23/2020 9:24:17 PM 
Item Receipt Master Value For OperatingUnit Data Initiated at 04/23/2020 9:24:17 PM 
Item Receipt Master Value For OperatingUnit Data Completed at 04/23/2020 9:24:17 PM 
Item Receipt Master Value For Subsidary Data Initiated at 04/23/2020 9:24:17 PM 
Item Receipt Master Value For Subsidary Data Completed at 04/23/2020 9:24:17 PM 
Item Receipt Control Value For Classification Data Initiated at 04/23/2020 9:24:17 PM 
Item Receipt Control Value For Classification Data Completed at 04/23/2020 9:24:17 PM 
Item Receipt Control Value For Department Data Initiated at 04/23/2020 9:24:17 PM 
Item Receipt Control Value For Department Data Completed at 04/23/2020 9:24:17 PM 
Item Receipt Master Value For Refered_Form Data Initiated at 04/23/2020 9:24:17 PM 
Item Receipt Master Value For Refered_Form Data Completed at 04/23/2020 9:24:17 PM 
Item Receipt Master Value For Vendor Data Initiated at 04/23/2020 9:24:17 PM 
Item Receipt Master Value For Vendor Data Completed at 04/23/2020 9:24:17 PM 
Item Receipt Master Value For Receipt_Type Data Initiated at 04/23/2020 9:24:17 PM 
Item Receipt Master Value For Receipt_Type Data Completed at 04/23/2020 9:24:17 PM 
Item Receipt Master Value For Purchase_Order# Data Initiated at 04/23/2020 9:24:17 PM 
Item Receipt Master Value For Purchase_Order# Data Completed at 04/23/2020 9:24:17 PM 
Item Receipt Control Value For GST_Category Data Initiated at 04/23/2020 9:24:17 PM 
Item Receipt Control Value For GST_Category Data Completed at 04/23/2020 9:24:17 PM 
Item Receipt Master Value For Place_Of_Supply Data Initiated at 04/23/2020 9:24:17 PM 
Item Receipt Master Value For Place_Of_Supply Data Completed at 04/23/2020 9:24:17 PM 
Item Receipt Control Value For Payment_Terms Data Initiated at 04/23/2020 9:24:17 PM 
Item Receipt Control Value For Payment_Terms Data Completed at 04/23/2020 9:24:17 PM 
Item Receipt Control Value For Payment_Mode Data Initiated at 04/23/2020 9:24:17 PM 
Item Receipt Control Value For Payment_Mode Data Completed at 04/23/2020 9:24:17 PM 
Item Receipt Master Value For Project# Data Initiated at 04/23/2020 9:24:17 PM 
Item Receipt Master Value For Project# Data Completed at 04/23/2020 9:24:17 PM 
Item Receipt Master Value For Operating_Unit Data Initiated at 04/23/2020 9:24:17 PM 
Item Receipt Master Value For Operating_Unit Data Completed at 04/23/2020 9:24:17 PM 
Item Receipt Master Value For Subsidary Data Initiated at 04/23/2020 9:24:17 PM 
Item Receipt Master Value For Subsidary Data Completed at 04/23/2020 9:24:17 PM 
Item Receipt Control Value For Class Data Initiated at 04/23/2020 9:24:17 PM 
Item Receipt Control Value For Class Data Completed at 04/23/2020 9:24:17 PM 
Item Receipt Control Value For Department Data Initiated at 04/23/2020 9:24:17 PM 
Item Receipt Control Value For Department Data Completed at 04/23/2020 9:24:17 PM 
Item Receipt Master Value For Location_ Data Initiated at 04/23/2020 9:24:17 PM 
Item Receipt Master Value For Location_ Data Completed at 04/23/2020 9:24:17 PM 
Item Receipt Feilds are Created at 04/23/2020 9:24:17 PM 
Item Receipt Feilds Creation Completed For PUTABLE003 at 04/23/2020 9:24:17 PM 
Item Receipt Feilds are Created at 04/23/2020 9:24:17 PM 
Item Receipt Feilds Creation Completed For PUTABLE004 at 04/23/2020 9:24:17 PM 
Item Receipt Total Fields Creation Completed at 04/23/2020 9:24:17 PM 
Item Receipt Process Completed at 04/23/2020 9:24:17 PM 
 04/23/2020 9:24:17 PM
 
***********************TARGET1*********************** 
 
 Line Data Received . 04/23/2020 9:24:29 PM
 
***********************TARGET4*********************** 
 
 Header Data Created for Item Receipt . 
 
 04/23/2020 9:24:35 PM
 
***********************TARGET7*********************** 
 
 Line Data 0 Created For Item Receipt . 
 
 04/23/2020 9:24:40 PM
Item Receipt Process Initiated at 04/23/2020 10:34:02 PM 
Item Receipt Tabs are Created at 04/23/2020 10:34:02 PM 
Item Receipt Master Value For Item Data Initiated at 04/23/2020 10:34:02 PM 
Item Receipt Master Value For Item Data Completed at 04/23/2020 10:34:02 PM 
Item Receipt Control Value For Units Data Initiated at 04/23/2020 10:34:02 PM 
Item Receipt Control Value For Units Data Completed at 04/23/2020 10:34:02 PM 
Item Receipt Master Value For Lot# Data Initiated at 04/23/2020 10:34:02 PM 
Item Receipt Master Value For Lot# Data Completed at 04/23/2020 10:34:02 PM 
Item Receipt Master Value For Location Data Initiated at 04/23/2020 10:34:02 PM 
Item Receipt Master Value For Location Data Completed at 04/23/2020 10:34:02 PM 
Item Receipt Master Value For OperatingUnit Data Initiated at 04/23/2020 10:34:02 PM 
Item Receipt Master Value For OperatingUnit Data Completed at 04/23/2020 10:34:02 PM 
Item Receipt Master Value For Subsidary Data Initiated at 04/23/2020 10:34:02 PM 
Item Receipt Master Value For Subsidary Data Completed at 04/23/2020 10:34:02 PM 
Item Receipt Control Value For Classification Data Initiated at 04/23/2020 10:34:02 PM 
Item Receipt Control Value For Classification Data Completed at 04/23/2020 10:34:02 PM 
Item Receipt Control Value For Department Data Initiated at 04/23/2020 10:34:02 PM 
Item Receipt Control Value For Department Data Completed at 04/23/2020 10:34:02 PM 
Item Receipt Master Value For Refered_Form Data Initiated at 04/23/2020 10:34:02 PM 
Item Receipt Master Value For Refered_Form Data Completed at 04/23/2020 10:34:02 PM 
Item Receipt Master Value For Vendor Data Initiated at 04/23/2020 10:34:02 PM 
Item Receipt Master Value For Vendor Data Completed at 04/23/2020 10:34:02 PM 
Item Receipt Master Value For Receipt_Type Data Initiated at 04/23/2020 10:34:02 PM 
Item Receipt Master Value For Receipt_Type Data Completed at 04/23/2020 10:34:02 PM 
Item Receipt Master Value For Purchase_Order# Data Initiated at 04/23/2020 10:34:02 PM 
Item Receipt Master Value For Purchase_Order# Data Completed at 04/23/2020 10:34:03 PM 
Item Receipt Control Value For GST_Category Data Initiated at 04/23/2020 10:34:03 PM 
Item Receipt Control Value For GST_Category Data Completed at 04/23/2020 10:34:03 PM 
Item Receipt Master Value For Place_Of_Supply Data Initiated at 04/23/2020 10:34:03 PM 
Item Receipt Master Value For Place_Of_Supply Data Completed at 04/23/2020 10:34:03 PM 
Item Receipt Control Value For Payment_Terms Data Initiated at 04/23/2020 10:34:03 PM 
Item Receipt Control Value For Payment_Terms Data Completed at 04/23/2020 10:34:03 PM 
Item Receipt Control Value For Payment_Mode Data Initiated at 04/23/2020 10:34:03 PM 
Item Receipt Control Value For Payment_Mode Data Completed at 04/23/2020 10:34:03 PM 
Item Receipt Master Value For Project# Data Initiated at 04/23/2020 10:34:03 PM 
Item Receipt Master Value For Project# Data Completed at 04/23/2020 10:34:03 PM 
Item Receipt Master Value For Operating_Unit Data Initiated at 04/23/2020 10:34:03 PM 
Item Receipt Master Value For Operating_Unit Data Completed at 04/23/2020 10:34:03 PM 
Item Receipt Master Value For Subsidary Data Initiated at 04/23/2020 10:34:03 PM 
Item Receipt Master Value For Subsidary Data Completed at 04/23/2020 10:34:03 PM 
Item Receipt Control Value For Class Data Initiated at 04/23/2020 10:34:03 PM 
Item Receipt Control Value For Class Data Completed at 04/23/2020 10:34:03 PM 
Item Receipt Control Value For Department Data Initiated at 04/23/2020 10:34:03 PM 
Item Receipt Control Value For Department Data Completed at 04/23/2020 10:34:03 PM 
Item Receipt Master Value For Location_ Data Initiated at 04/23/2020 10:34:03 PM 
Item Receipt Master Value For Location_ Data Completed at 04/23/2020 10:34:03 PM 
Item Receipt Feilds are Created at 04/23/2020 10:34:03 PM 
Item Receipt Feilds Creation Completed For PUTABLE003 at 04/23/2020 10:34:03 PM 
Item Receipt Feilds are Created at 04/23/2020 10:34:03 PM 
Item Receipt Feilds Creation Completed For PUTABLE004 at 04/23/2020 10:34:03 PM 
Item Receipt Total Fields Creation Completed at 04/23/2020 10:34:03 PM 
Item Receipt Process Completed at 04/23/2020 10:34:03 PM 
 04/23/2020 10:34:03 PM
 
***********************TARGET1*********************** 
 
 Line Data Received . 04/23/2020 10:34:34 PM
 
***********************TARGET4*********************** 
 
 Header Data Created for Item Receipt . 
 
 04/23/2020 10:34:38 PM
 
***********************TARGET7*********************** 
 
 Line Data 0 Created For Item Receipt . 
 
 04/23/2020 10:34:43 PM
