
 11/22/2019 10:55:21 AM 11/22/2019 10:55:29 AM
 11/22/2019 10:55:42 AM
 11/22/2019 10:55:42 AM
 11/22/2019 10:57:15 AM
 11/22/2019 11:00:58 AM
 11/22/2019 3:29:20 PM
 11/22/2019 3:36:25 PM
 11/22/2019 3:36:59 PM
 11/22/2019 3:38:55 PM
 11/22/2019 3:42:51 PM
 11/22/2019 3:43:20 PM
 11/22/2019 3:44:51 PM
 11/22/2019 3:46:45 PM
 11/22/2019 3:47:10 PM
 11/22/2019 3:47:47 PM
 11/22/2019 3:48:51 PM
 11/22/2019 3:52:09 PM
 11/22/2019 3:52:55 PM
 11/22/2019 3:53:49 PM
 11/22/2019 4:15:53 PM
 11/22/2019 4:16:05 PM
 11/22/2019 6:23:36 PM
 11/22/2019 6:23:39 PM
