
NOAUTH Authentication required., sPort: 10551, LastCommand:  8/12/2019 10:42:09 AMNOAUTH Authentication required., sPort: 10809, LastCommand:  8/12/2019 10:48:11 AM
NOAUTH Authentication required., sPort: 12373, LastCommand:  8/12/2019 11:23:08 AM
NOAUTH Authentication required., sPort: 12397, LastCommand:  8/12/2019 11:26:40 AM
NOAUTH Authentication required., sPort: 12426, LastCommand:  8/12/2019 11:28:40 AM
NOAUTH Authentication required., sPort: 12457, LastCommand:  8/12/2019 11:35:05 AM
NOAUTH Authentication required., sPort: 12548, LastCommand:  8/12/2019 11:44:30 AM
NOAUTH Authentication required., sPort: 12570, LastCommand:  8/12/2019 11:47:12 AM
NOAUTH Authentication required., sPort: 12635, LastCommand:  8/12/2019 11:55:57 AM
NOAUTH Authentication required., sPort: 12662, LastCommand:  8/12/2019 12:01:05 PM
NOAUTH Authentication required., sPort: 13718, LastCommand:  8/12/2019 2:38:30 PM
