
 
***********************TARGET1*********************** 
 
 Line Data Received . 9/22/2018 10:41:59 AM 
***********************TARGET4*********************** 
 
 Header Data Updated for Invoice . 
 
 9/22/2018 10:42:58 AM
 
***********************TARGET7*********************** 
 
 Line Data 0 Updated For Invoice . 
 
 9/22/2018 10:43:05 AM
 
***********************TARGET7*********************** 
 
 Line Data 1 Updated For Invoice . 
 
 9/22/2018 10:43:05 AM
 
***********************TARGET7*********************** 
 
 Line Data 2 Updated For Invoice . 
 
 9/22/2018 10:43:05 AM
 
***********************TARGET7*********************** 
 
 Line Data 3 Updated For Invoice . 
 
 9/22/2018 10:43:06 AM
 
***********************TARGET1*********************** 
 
 Line Data Received . 9/22/2018 10:43:39 AM
 
***********************TARGET4*********************** 
 
 Header Data Updated for Invoice . 
 
 9/22/2018 10:43:40 AM
 
***********************TARGET7*********************** 
 
 Line Data 0 Updated For Invoice . 
 
 9/22/2018 10:43:56 AM
 
***********************TARGET1*********************** 
 
 Line Data Received . 9/22/2018 10:44:21 AM
 
***********************TARGET4*********************** 
 
 Header Data Updated for Invoice . 
 
 9/22/2018 10:44:22 AM
 
***********************TARGET7*********************** 
 
 Line Data 0 Updated For Invoice . 
 
 9/22/2018 10:44:22 AM
 
***********************TARGET7*********************** 
 
 Line Data 1 Updated For Invoice . 
 
 9/22/2018 10:44:22 AM
 
***********************TARGET1*********************** 
 
 Line Data Received . 9/22/2018 10:44:48 AM
 
***********************TARGET4*********************** 
 
 Header Data Updated for Invoice . 
 
 9/22/2018 10:44:49 AM
 
***********************TARGET7*********************** 
 
 Line Data 0 Updated For Invoice . 
 
 9/22/2018 10:44:50 AM
 
***********************TARGET7*********************** 
 
 Line Data 1 Updated For Invoice . 
 
 9/22/2018 10:44:50 AM
 
***********************TARGET7*********************** 
 
 Line Data 2 Updated For Invoice . 
 
 9/22/2018 10:44:50 AM
 
***********************TARGET7*********************** 
 
 Line Data 3 Updated For Invoice . 
 
 9/22/2018 10:44:51 AM
 
***********************TARGET7*********************** 
 
 Line Data 4 Updated For Invoice . 
 
 9/22/2018 10:44:51 AM
 
***********************TARGET7*********************** 
 
 Line Data 5 Updated For Invoice . 
 
 9/22/2018 10:44:52 AM
 
***********************TARGET1*********************** 
 
 Line Data Received . 9/22/2018 10:45:30 AM
 
***********************TARGET4*********************** 
 
 Header Data Updated for Invoice . 
 
 9/22/2018 10:45:31 AM
 
***********************TARGET7*********************** 
 
 Line Data 0 Updated For Invoice . 
 
 9/22/2018 10:45:31 AM
 
***********************TARGET7*********************** 
 
 Line Data 1 Updated For Invoice . 
 
 9/22/2018 10:45:32 AM
 
***********************TARGET7*********************** 
 
 Line Data 2 Updated For Invoice . 
 
 9/22/2018 10:45:32 AM
 
***********************TARGET7*********************** 
 
 Line Data 3 Updated For Invoice . 
 
 9/22/2018 10:45:32 AM
 
***********************TARGET7*********************** 
 
 Line Data 4 Updated For Invoice . 
 
 9/22/2018 10:45:32 AM
 
***********************TARGET1*********************** 
 
 Line Data Received . 9/22/2018 10:57:04 AM
 
***********************TARGET4*********************** 
 
 Header Data Updated for Invoice . 
 
 9/22/2018 10:57:05 AM
 
***********************TARGET7*********************** 
 
 Line Data 0 Updated For Invoice . 
 
 9/22/2018 10:57:05 AM
 
***********************TARGET1*********************** 
 
 Line Data Received . 9/22/2018 11:23:08 AM
 
***********************TARGET4*********************** 
 
 Header Data Updated for Invoice . 
 
 9/22/2018 11:23:10 AM
 
***********************TARGET7*********************** 
 
 Line Data 0 Updated For Invoice . 
 
 9/22/2018 11:23:10 AM
 
***********************TARGET7*********************** 
 
 Line Data 1 Updated For Invoice . 
 
 9/22/2018 11:23:11 AM
 
***********************TARGET7*********************** 
 
 Line Data 2 Updated For Invoice . 
 
 9/22/2018 11:23:11 AM
 
***********************TARGET7*********************** 
 
 Line Data 3 Updated For Invoice . 
 
 9/22/2018 11:23:12 AM
 
***********************TARGET7*********************** 
 
 Line Data 4 Updated For Invoice . 
 
 9/22/2018 11:23:12 AM
 
***********************TARGET7*********************** 
 
 Line Data 5 Updated For Invoice . 
 
 9/22/2018 11:23:13 AM
 
***********************TARGET7*********************** 
 
 Line Data 6 Updated For Invoice . 
 
 9/22/2018 11:23:14 AM
 
***********************TARGET7*********************** 
 
 Line Data 7 Updated For Invoice . 
 
 9/22/2018 11:23:15 AM
 
***********************TARGET7*********************** 
 
 Line Data 8 Updated For Invoice . 
 
 9/22/2018 11:23:15 AM
 
***********************TARGET1*********************** 
 
 Line Data Received . 9/22/2018 11:25:41 AM
 
***********************TARGET4*********************** 
 
 Header Data Updated for Invoice . 
 
 9/22/2018 11:25:42 AM
 
***********************TARGET7*********************** 
 
 Line Data 0 Updated For Invoice . 
 
 9/22/2018 11:25:43 AM
 
***********************TARGET1*********************** 
 
 Line Data Received . 9/22/2018 11:28:20 AM
 
***********************TARGET4*********************** 
 
 Header Data Updated for Invoice . 
 
 9/22/2018 11:28:21 AM
 
***********************TARGET7*********************** 
 
 Line Data 0 Updated For Invoice . 
 
 9/22/2018 11:28:22 AM
 
***********************TARGET7*********************** 
 
 Line Data 1 Updated For Invoice . 
 
 9/22/2018 11:28:22 AM
 
***********************TARGET7*********************** 
 
 Line Data 2 Updated For Invoice . 
 
 9/22/2018 11:28:22 AM
 
***********************TARGET7*********************** 
 
 Line Data 3 Updated For Invoice . 
 
 9/22/2018 11:28:22 AM
 
***********************TARGET7*********************** 
 
 Line Data 4 Updated For Invoice . 
 
 9/22/2018 11:28:23 AM
 
***********************TARGET7*********************** 
 
 Line Data 5 Updated For Invoice . 
 
 9/22/2018 11:28:23 AM
 
***********************TARGET7*********************** 
 
 Line Data 6 Updated For Invoice . 
 
 9/22/2018 11:28:23 AM
 
***********************TARGET1*********************** 
 
 Line Data Received . 9/22/2018 11:30:01 AM
 
***********************TARGET4*********************** 
 
 Header Data Updated for Invoice . 
 
 9/22/2018 11:30:02 AM
 
***********************TARGET7*********************** 
 
 Line Data 0 Updated For Invoice . 
 
 9/22/2018 11:30:02 AM
 
***********************TARGET1*********************** 
 
 Line Data Received . 9/22/2018 11:32:21 AM
 
***********************TARGET4*********************** 
 
 Header Data Updated for Invoice . 
 
 9/22/2018 11:32:22 AM
 
***********************TARGET7*********************** 
 
 Line Data 0 Updated For Invoice . 
 
 9/22/2018 11:32:22 AM
 
***********************TARGET7*********************** 
 
 Line Data 1 Updated For Invoice . 
 
 9/22/2018 11:32:22 AM
 
***********************TARGET7*********************** 
 
 Line Data 2 Updated For Invoice . 
 
 9/22/2018 11:32:22 AM
 
***********************TARGET1*********************** 
 
 Line Data Received . 9/22/2018 11:33:38 AM
 
***********************TARGET4*********************** 
 
 Header Data Updated for Invoice . 
 
 9/22/2018 11:33:39 AM
 
***********************TARGET7*********************** 
 
 Line Data 0 Updated For Invoice . 
 
 9/22/2018 11:33:39 AM
 
***********************TARGET7*********************** 
 
 Line Data 1 Updated For Invoice . 
 
 9/22/2018 11:33:39 AM
 
***********************TARGET7*********************** 
 
 Line Data 2 Updated For Invoice . 
 
 9/22/2018 11:33:39 AM
 
***********************TARGET1*********************** 
 
 Line Data Received . 9/22/2018 11:34:02 AM
 
***********************TARGET4*********************** 
 
 Header Data Updated for Invoice . 
 
 9/22/2018 11:34:04 AM
 
***********************TARGET7*********************** 
 
 Line Data 0 Updated For Invoice . 
 
 9/22/2018 11:34:04 AM
 
***********************TARGET7*********************** 
 
 Line Data 1 Updated For Invoice . 
 
 9/22/2018 11:34:04 AM
 
***********************TARGET7*********************** 
 
 Line Data 2 Updated For Invoice . 
 
 9/22/2018 11:34:04 AM
 
***********************TARGET7*********************** 
 
 Line Data 3 Updated For Invoice . 
 
 9/22/2018 11:34:05 AM
 
***********************TARGET7*********************** 
 
 Line Data 4 Updated For Invoice . 
 
 9/22/2018 11:34:05 AM
 
***********************TARGET7*********************** 
 
 Line Data 5 Updated For Invoice . 
 
 9/22/2018 11:34:05 AM
 
***********************TARGET7*********************** 
 
 Line Data 6 Updated For Invoice . 
 
 9/22/2018 11:34:06 AM
 
***********************TARGET7*********************** 
 
 Line Data 7 Updated For Invoice . 
 
 9/22/2018 11:34:06 AM
 
***********************TARGET1*********************** 
 
 Line Data Received . 9/22/2018 11:38:44 AM
 
***********************TARGET4*********************** 
 
 Header Data Updated for Invoice . 
 
 9/22/2018 11:38:45 AM
 
***********************TARGET7*********************** 
 
 Line Data 0 Updated For Invoice . 
 
 9/22/2018 11:38:45 AM
