
 6/18/2018 3:50:45 PM 6/18/2018 3:50:55 PM
 6/18/2018 3:51:32 PM
 6/18/2018 3:51:43 PM
 6/18/2018 3:51:48 PM
 6/18/2018 3:52:15 PM
 6/18/2018 3:52:17 PM
 6/18/2018 3:52:24 PM
 6/18/2018 3:52:34 PM
 6/18/2018 3:52:37 PM
