

 Line Tax Amount = Total (20.00)  * Tax (0.00) 
 Line Amount = Total (20)  
 Line Total Amount = Amount (20) + Tax Amount (0.00)  
 Header Total Amount  = Sub Total (20.00) Tax (0.00)+ PackingCharges (0.00)+ ShippingCharges (0.00) 
 6/18/2018 6:24:06 PM
 Line Tax Amount = Total (20.00)  * Tax (0.00) 
 Line Amount = Total (20)  
 Line Total Amount = Amount (20) + Tax Amount (0.00)  
 Header Total Amount  = Sub Total (20.00) Tax (0.00)+ PackingCharges (0.00)+ ShippingCharges (0.00) 
 Header Tax Amount = Subtotal (20.00)  - PackingCharges (0) - ShippingCharges (0) * Tax (0.00) 
 Line Tax Amount Item 1= (0.00) 
 Total Tax Amount = Heder Tax (0.00) + Line Tax (0) 
 Total Amount = Sub Total (20.00)  + Heder Tax (0.00) + Line Tax (0) 
 Line Tax Amount = Total (1250.00)  * Tax (0.00) 
 Line Amount = Total (1250)  
 Line Total Amount = Amount (1250) + Tax Amount (0.00)  
 Header Total Amount  = Sub Total (1250.00) Tax (0.00)+ PackingCharges (0.00)+ ShippingCharges (0.00) 
 6/18/2018 6:24:12 PM
