
 the  values 16738`1283`JO00007`2121``Approved`06/18/18`06/18/18`1`1000```57217`````1000`1250.00`0.00`1250.00`````0`0````0``0`0`0``56578`6/18/2018 6:24:27 PM`6/18/2018 6:24:27 PM`1`0`1035 of form Job Order(Out) and Table SATABLE005 has succeeded at  6/18/2018 6:24:27 PM the  values  of form Job Order(Out) and Table SATABLE006 succeeded at  6/18/2018 6:24:27 PM
 the  values 9998`ammulu`add1`add2`1002``ct1`040626`0`0`56578`6/18/2018 6:24:28 PM`6/18/2018 6:24:28 PM`1`0`1035 of form Job Order(Out) and Table SATABLE003 has succeeded at  6/18/2018 6:24:28 PM
 the  values 16738`1283`JO00007`2121``Approved`06/18/18`06/18/18`1`1000`````57217````1000`1250.00`0.00`1250.00````0````0.00`0.00``0`0`0``56578`6/18/2018 6:53:13 PM`6/18/2018 6:53:13 PM`1`0`1035`1035 of form Job Order(Out) and Table SATABLE005 edit succeeded at  6/18/2018 6:53:13 PM
 the  values  of form Job Order(Out) and Table SATABLE006 edit succeeded at  6/18/2018 6:53:13 PM
 the  values 11499`ammulu`add1`add2`1002``ct1`040626`0`0`1000015778`56578`6/18/2018 6:53:13 PM`6/18/2018 6:53:13 PM`1`0`1035`1035 of form Job Order(Out) and Table SATABLE003 edit succeeded at  6/18/2018 6:53:13 PM
