
 the  values 16737`1283`JO00007`6669``Approved`06/18/18`06/18/18`1`1000```57227`````1000`1000.00`0.00`1000.00`````0`0````0``0`0`0``56577`6/18/2018 5:55:23 PM`6/18/2018 5:55:23 PM`1`0`1034 of form Job Order(Out) and Table SATABLE005 has succeeded at  6/18/2018 5:55:24 PM the  values  of form Job Order(Out) and Table SATABLE006 succeeded at  6/18/2018 5:55:25 PM
 the  values 9998` ` ``1007`` ``1`1`56577`6/18/2018 5:55:25 PM`6/18/2018 5:55:25 PM`1`0`1034 of form Job Order(Out) and Table SATABLE003 has succeeded at  6/18/2018 5:55:26 PM
