
 9/4/2018 3:26:22 PM 9/4/2018 3:26:29 PM
 9/4/2018 3:26:36 PM
 9/4/2018 3:26:53 PM
 9/4/2018 3:30:44 PM
 9/4/2018 3:31:01 PM
 9/4/2018 3:31:10 PM
 9/4/2018 3:31:16 PM
 9/4/2018 3:31:49 PM
 9/4/2018 3:31:58 PM
 9/4/2018 3:32:01 PM
 9/4/2018 3:32:59 PM
 9/4/2018 3:34:44 PM
 9/4/2018 3:34:50 PM
 9/4/2018 3:35:17 PM
 9/4/2018 3:35:22 PM
 9/4/2018 3:35:26 PM
 9/4/2018 3:35:59 PM
 9/4/2018 3:36:16 PM
 9/4/2018 3:36:21 PM
 9/4/2018 3:37:14 PM
 9/4/2018 3:37:32 PM
 9/4/2018 3:38:10 PM
 9/4/2018 3:38:25 PM
 9/4/2018 3:38:29 PM
 9/4/2018 3:39:01 PM
 9/4/2018 3:39:29 PM
 9/4/2018 3:39:55 PM
 9/4/2018 3:40:02 PM
 9/4/2018 3:40:57 PM
 9/4/2018 3:42:51 PM
 9/4/2018 3:42:58 PM
 9/4/2018 3:43:03 PM
 9/4/2018 3:43:07 PM
 9/4/2018 3:43:13 PM
 9/4/2018 3:43:18 PM
 9/4/2018 3:43:51 PM
 9/4/2018 3:44:23 PM
 9/4/2018 3:44:38 PM
 9/4/2018 3:45:06 PM
 9/4/2018 3:45:38 PM
 9/4/2018 3:48:38 PM
 9/4/2018 3:48:41 PM
 9/4/2018 3:49:38 PM
 9/4/2018 3:49:48 PM
 9/4/2018 3:50:02 PM
 9/4/2018 3:50:32 PM
 9/4/2018 3:50:38 PM
 9/4/2018 3:50:43 PM
 9/4/2018 3:51:22 PM
 9/4/2018 3:51:53 PM
 9/4/2018 3:51:57 PM
 9/4/2018 3:52:28 PM
 9/4/2018 3:52:34 PM
 9/4/2018 3:52:39 PM
 9/4/2018 3:53:27 PM
 9/4/2018 3:54:07 PM
 9/4/2018 3:54:11 PM
 9/4/2018 3:55:31 PM
 9/4/2018 3:56:07 PM
 9/4/2018 3:57:00 PM
 9/4/2018 3:57:15 PM
 9/4/2018 3:57:18 PM
 9/4/2018 3:57:53 PM
 9/4/2018 3:58:07 PM
 9/4/2018 3:58:18 PM
 9/4/2018 3:59:28 PM
 9/4/2018 3:59:32 PM
 9/4/2018 4:00:25 PM
 9/4/2018 4:00:29 PM
 9/4/2018 4:01:38 PM
 9/4/2018 4:01:41 PM
 9/4/2018 4:02:28 PM
 9/4/2018 4:02:32 PM
 9/4/2018 4:02:39 PM
 9/4/2018 4:06:17 PM
 9/4/2018 4:06:33 PM
 9/4/2018 4:07:05 PM
 9/4/2018 4:07:17 PM
 9/4/2018 4:07:23 PM
 9/4/2018 4:07:58 PM
