
Project Process Initiated at 9/4/2018 3:48:40 PM 
Project Tabs are Created at 9/4/2018 3:48:40 PM 
Project Master Value For Project_Work_Order Data Initiated at 9/4/2018 3:48:40 PM 
Project Master Value For Project_Work_Order Data Completed at 9/4/2018 3:48:40 PM 
Project Control Value For MS_Status Data Initiated at 9/4/2018 3:48:40 PM 
Project Control Value For MS_Status Data Completed at 9/4/2018 3:48:40 PM 
Project Master Value For Customer Data Initiated at 9/4/2018 3:48:40 PM 
Project Master Value For Customer Data Completed at 9/4/2018 3:48:40 PM 
Project Control Value For Status Data Initiated at 9/4/2018 3:48:40 PM 
Project Control Value For Status Data Completed at 9/4/2018 3:48:40 PM 
Project Control Value For Billing_Type Data Initiated at 9/4/2018 3:48:40 PM 
Project Control Value For Billing_Type Data Completed at 9/4/2018 3:48:40 PM 
Project Control Value For Deparment Data Initiated at 9/4/2018 3:48:40 PM 
Project Control Value For Deparment Data Completed at 9/4/2018 3:48:40 PM 
Project Master Value For Operating_Unit Data Initiated at 9/4/2018 3:48:40 PM 
Project Master Value For Operating_Unit Data Completed at 9/4/2018 3:48:40 PM 
Project Master Value For Country Data Initiated at 9/4/2018 3:48:40 PM 
Project Master Value For Country Data Completed at 9/4/2018 3:48:40 PM 
Project Master Value For State Data Initiated at 9/4/2018 3:48:40 PM 
Project Master Value For State Data Completed at 9/4/2018 3:48:40 PM 
Project Feilds are Created at 9/4/2018 3:48:40 PM 
Project Feilds Creation Completed For SATABLE003 at 9/4/2018 3:48:40 PM 
Project Feilds are Created at 9/4/2018 3:48:40 PM 
Project Feilds Creation Completed For PRTABLE001 at 9/4/2018 3:48:40 PM 
Project Feilds are Created at 9/4/2018 3:48:40 PM 
Project Feilds Creation Completed For PRTABLE002 at 9/4/2018 3:48:40 PM 
Project Total Fields Creation Completed at 9/4/2018 3:48:40 PM 
Project Process Completed at 9/4/2018 3:48:40 PM 
 9/4/2018 3:48:40 PM 
***********************TARGET1*********************** 
 
 Line Data Received . 9/4/2018 3:49:35 PM
 
***********************TARGET4*********************** 
 
 Header Data Created for Project . 
 
 9/4/2018 3:49:35 PM
 
***********************TARGET7*********************** 
 
 Line Data 0 Created For Project . 
 
 9/4/2018 3:49:35 PM
 
***********************TARGET4*********************** 
 
 Header Data Created for Project . 
 
 9/4/2018 3:49:36 PM
