
could not connect to redis Instance at 202.65.131.29:6379 11/4/2019 11:40:32 AMcould not connect to redis Instance at 202.65.131.29:6379 11/4/2019 11:47:19 AM
could not connect to redis Instance at 202.65.131.29:6379 11/4/2019 12:00:10 PM
